{
  "type": "service_account",
  "project_id": "gmail-345201",
  "private_key_id": "3b0fa8b41a991f23a8c3a20b48ad826c42c6231d",
  "private_key": "-----BEGIN PRIVATE KEY-----\nMIIEvwIBADANBgkqhkiG9w0BAQEFAASCBKkwggSlAgEAAoIBAQC3z6oJXBS2YaTt\n4ekIrvk0Z+KYMurEG1tWy9NxRdpAL14h6D7vcaUUd6kEX7XTXzNtqYwhUJJfpOha\nt179P+4eeeGjF26DFy4j9e/x+i+ZUWieskQmTNV8i8qrLOlHZTSjtCCo2UFvhBif\nFCFdUFNk+uOZYu4L5n4Q40cIFoVtkK3ZCTkT7UxohJKU4bPg9PK+qWBXXjMOHTCV\n8X+QvzOznoDWXtYI5MJYvEVf4GqLMOQepztCgyNzWGYU3zln5d4Xbyvf3/NGIjq4\n6ZaPM6JfjiQv/B9aSiTu3B5RkRnHbsGUYMP0Rf5rvJRHq/d+KJOAonIPA95s0MgS\nPE0HFjLfAgMBAAECggEADCd1oV/O2M51Fuu4uoPDY7U41QKM5oG+lOsuZI+PYm4f\nZdOTEccseMF+0hS4E614W5h59Rv8ScnAOXtlkw5eovJBOsUKYC2wtd0FzDTUX+lz\npwa3nea3uSAPOylhlYB6Lhbzj+apvoN4E1DD8gUlNoimcxaJEg1gKaK1qDHBCeEK\nAxuSK4xStgqZA1AzlRyRgg0TnHmJhwX/5wOSh1He+HzNZqTnSqOzTWM1kt4TaSuY\nOkueDPwbeh9QJi3cE2fJjw92ZTnbSDZm9ZoCJX/8vIRlvYwLHny+H68lp7pFf7eC\n96U1BjUbJEjCHwCm8EqCYMa5YPiVkIG1NBVY1SevbQKBgQDe2ScDpocoWRrZ9gSB\nKQJiokIA14Hnb+zWhIjnWpsjHwLZIm16w5vQe74LfNyenVEYFdvFoZpg3Hr6mRzs\nT7sPUotJPTMnIcwBu5gCBw48p6ryQM4UHHg9/eCjquq7idPGkVDw3dstMxJIO8Y+\nb2JlLD0fOzQRCdOmOKjXhIImMwKBgQDTJ9e8b3eNdRd8bcKmdPKsjF/zGCz9wQME\nM8MQnKu9+RPwCwA3tIXiO5m2gA5TMhNYfadQnLwwx44JeqLULrZYGN0QlZrHeJD9\n4pbcMFpusoiHoBd3s2L7ny1vq6VhSJ9INpgZigTGVBx+c4cWuVNjkY/Cb/pN7YC1\nZrPOruIcpQKBgQDDRl4doMtG2+3fmOkRlTH15GEaA75dY4KR58lfkdHn0MDaLITq\n0oWzBvvdbSiWBRyOknjmkVmKDynkdk8V9DfikV5kazBr1f3CdvQYsr4TAImXhpoO\nnXPwPoueX6MZewkMM0JODtqEnQAkM9zf0RLTvRRCTcquM4I3YebyE7dIaQKBgQDH\njoML+kiBbuToWo84Y5QpUG0pwHJcyzm/ke/LVlXVL34RQUROYRSa73rhCHsBU3UH\nD5G91LLiYuYwvS7/2rnH3o+mKc1isOZOmwO6SxRcQ+xWSQ2EugtVBGWbgRvGKi0m\nwTnUASVsDnfzZdmIt1NA6YN03gEv/sLCLbLHJW5aZQKBgQCjxpvD0sKaZioqbcGR\nE8NEO22Bf+JJmFUo5Y4Qnm7ZB1M2BegZh20D0hUXSvfiCK1sl/BnZKMsOO/K0fFv\nzsbyd6FrqPhxU0rjio9473T9Is/aK+IeTJQi8EVMaQ34tnjsSOPehGEpcQMB9Xxl\nv+NUu8w1ipWPXwVmAhvITQhPQA==\n-----END PRIVATE KEY-----\n",
  "client_email": "toto-73@gmail-345201.iam.gserviceaccount.com",
  "client_id": "106492204296056578465",
  "auth_uri": "https://accounts.google.com/o/oauth2/auth",
  "token_uri": "https://oauth2.googleapis.com/token",
  "auth_provider_x509_cert_url": "https://www.googleapis.com/oauth2/v1/certs",
  "client_x509_cert_url": "https://www.googleapis.com/robot/v1/metadata/x509/toto-73%40gmail-345201.iam.gserviceaccount.com"
}
