# Logfile created on 2023-05-04 00:00:38 +0900 by logger.rb/v1.5.0
I, [2023-05-04T00:00:38.274825 #2950383]  INFO -- : Started GET "/" for 167.248.133.52 at 2023-05-04 00:00:38 +0900
I, [2023-05-04T00:00:38.276149 #2950383]  INFO -- : Processing by UserController#index as HTML
I, [2023-05-04T00:00:38.276641 #2950383]  INFO -- :   Rendered user/index.html.erb within layouts/application (Duration: 0.0ms | Allocations: 4)
I, [2023-05-04T00:00:38.277517 #2950383]  INFO -- :   Rendered layout layouts/application.html.erb (Duration: 1.0ms | Allocations: 298)
I, [2023-05-04T00:00:38.277679 #2950383]  INFO -- : Completed 200 OK in 1ms (Views: 1.3ms | Allocations: 511)
I, [2023-05-04T00:00:39.145749 #2950385]  INFO -- : Started GET "/" for 167.248.133.52 at 2023-05-04 00:00:39 +0900
I, [2023-05-04T00:00:39.146441 #2950385]  INFO -- : Processing by UserController#index as */*
I, [2023-05-04T00:00:39.146882 #2950385]  INFO -- :   Rendered user/index.html.erb within layouts/application (Duration: 0.0ms | Allocations: 4)
I, [2023-05-04T00:00:39.147515 #2950385]  INFO -- :   Rendered layout layouts/application.html.erb (Duration: 0.7ms | Allocations: 299)
I, [2023-05-04T00:00:39.147698 #2950385]  INFO -- : Completed 200 OK in 1ms (Views: 1.0ms | Allocations: 522)
I, [2023-05-04T00:40:10.133716 #2950383]  INFO -- : Started GET "/.env" for 135.125.244.48 at 2023-05-04 00:40:10 +0900
I, [2023-05-04T00:40:10.134331 #2950383]  INFO -- : Processing by UserController#index as */*
I, [2023-05-04T00:40:10.134383 #2950383]  INFO -- :   Parameters: {"all"=>".env"}
I, [2023-05-04T00:40:10.134813 #2950383]  INFO -- :   Rendered user/index.html.erb within layouts/application (Duration: 0.0ms | Allocations: 4)
I, [2023-05-04T00:40:10.135612 #2950383]  INFO -- :   Rendered layout layouts/application.html.erb (Duration: 0.8ms | Allocations: 298)
I, [2023-05-04T00:40:10.135786 #2950383]  INFO -- : Completed 200 OK in 1ms (Views: 1.1ms | Allocations: 520)
I, [2023-05-04T00:40:10.648619 #2950385]  INFO -- : Started POST "/" for 135.125.244.48 at 2023-05-04 00:40:10 +0900
F, [2023-05-04T00:40:10.649134 #2950385] FATAL -- :   
ActionController::RoutingError (No route matches [POST] "/"):
  
I, [2023-05-04T01:44:23.221367 #2950383]  INFO -- : Started GET "/" for 139.162.84.205 at 2023-05-04 01:44:23 +0900
I, [2023-05-04T01:44:23.221968 #2950383]  INFO -- : Processing by UserController#index as */*
I, [2023-05-04T01:44:23.222515 #2950383]  INFO -- :   Rendered user/index.html.erb within layouts/application (Duration: 0.0ms | Allocations: 4)
I, [2023-05-04T01:44:23.223349 #2950383]  INFO -- :   Rendered layout layouts/application.html.erb (Duration: 0.9ms | Allocations: 298)
I, [2023-05-04T01:44:23.223605 #2950383]  INFO -- : Completed 200 OK in 2ms (Views: 1.2ms | Allocations: 519)
I, [2023-05-04T02:05:04.958595 #2950385]  INFO -- : Started GET "/" for 80.82.78.4 at 2023-05-04 02:05:04 +0900
I, [2023-05-04T02:05:04.959288 #2950385]  INFO -- : Processing by UserController#index as HTML
I, [2023-05-04T02:05:04.959702 #2950385]  INFO -- :   Rendered user/index.html.erb within layouts/application (Duration: 0.0ms | Allocations: 4)
I, [2023-05-04T02:05:04.961382 #2950385]  INFO -- :   Rendered layout layouts/application.html.erb (Duration: 1.7ms | Allocations: 299)
I, [2023-05-04T02:05:04.962033 #2950385]  INFO -- : Completed 200 OK in 3ms (Views: 2.3ms | Allocations: 514)
I, [2023-05-04T02:08:55.941074 #2950383]  INFO -- : Started GET "/" for 41.84.196.217 at 2023-05-04 02:08:55 +0900
I, [2023-05-04T02:08:55.941666 #2950383]  INFO -- : Processing by UserController#index as HTML
I, [2023-05-04T02:08:55.942086 #2950383]  INFO -- :   Rendered user/index.html.erb within layouts/application (Duration: 0.0ms | Allocations: 4)
I, [2023-05-04T02:08:55.942705 #2950383]  INFO -- :   Rendered layout layouts/application.html.erb (Duration: 0.7ms | Allocations: 298)
I, [2023-05-04T02:08:55.942871 #2950383]  INFO -- : Completed 200 OK in 1ms (Views: 0.9ms | Allocations: 512)
I, [2023-05-04T02:26:08.960228 #2950385]  INFO -- : Started GET "/docker-compose.yml" for 212.224.93.194 at 2023-05-04 02:26:08 +0900
I, [2023-05-04T02:26:08.961138 #2950385]  INFO -- : Processing by UserController#index as YAML
I, [2023-05-04T02:26:08.961197 #2950385]  INFO -- :   Parameters: {"all"=>"docker-compose"}
I, [2023-05-04T02:26:08.961629 #2950385]  INFO -- : Completed 406 Not Acceptable in 0ms (Allocations: 186)
F, [2023-05-04T02:26:08.962257 #2950385] FATAL -- :   
ActionController::UnknownFormat (UserController#index is missing a template for this request format and variant.

request.formats: ["application/x-yaml"]
request.variant: []):
  
actionpack (6.1.4.4) lib/action_controller/metal/implicit_render.rb:42:in `default_render'
actionpack (6.1.4.4) lib/action_controller/metal/basic_implicit_render.rb:6:in `block in send_action'
<internal:kernel>:90:in `tap'
actionpack (6.1.4.4) lib/action_controller/metal/basic_implicit_render.rb:6:in `send_action'
actionpack (6.1.4.4) lib/abstract_controller/base.rb:228:in `process_action'
actionpack (6.1.4.4) lib/action_controller/metal/rendering.rb:30:in `process_action'
actionpack (6.1.4.4) lib/abstract_controller/callbacks.rb:42:in `block in process_action'
activesupport (6.1.4.4) lib/active_support/callbacks.rb:117:in `block in run_callbacks'
actiontext (6.1.4.4) lib/action_text/rendering.rb:20:in `with_renderer'
actiontext (6.1.4.4) lib/action_text/engine.rb:59:in `block (4 levels) in <class:Engine>'
activesupport (6.1.4.4) lib/active_support/callbacks.rb:126:in `instance_exec'
activesupport (6.1.4.4) lib/active_support/callbacks.rb:126:in `block in run_callbacks'
activesupport (6.1.4.4) lib/active_support/callbacks.rb:137:in `run_callbacks'
actionpack (6.1.4.4) lib/abstract_controller/callbacks.rb:41:in `process_action'
actionpack (6.1.4.4) lib/action_controller/metal/rescue.rb:22:in `process_action'
actionpack (6.1.4.4) lib/action_controller/metal/instrumentation.rb:34:in `block in process_action'
activesupport (6.1.4.4) lib/active_support/notifications.rb:203:in `block in instrument'
activesupport (6.1.4.4) lib/active_support/notifications/instrumenter.rb:24:in `instrument'
activesupport (6.1.4.4) lib/active_support/notifications.rb:203:in `instrument'
actionpack (6.1.4.4) lib/action_controller/metal/instrumentation.rb:33:in `process_action'
actionpack (6.1.4.4) lib/action_controller/metal/params_wrapper.rb:249:in `process_action'
activerecord (6.1.4.4) lib/active_record/railties/controller_runtime.rb:27:in `process_action'
actionpack (6.1.4.4) lib/abstract_controller/base.rb:165:in `process'
actionview (6.1.4.4) lib/action_view/rendering.rb:39:in `process'
actionpack (6.1.4.4) lib/action_controller/metal.rb:190:in `dispatch'
actionpack (6.1.4.4) lib/action_controller/metal.rb:254:in `dispatch'
actionpack (6.1.4.4) lib/action_dispatch/routing/route_set.rb:50:in `dispatch'
actionpack (6.1.4.4) lib/action_dispatch/routing/route_set.rb:33:in `serve'
actionpack (6.1.4.4) lib/action_dispatch/journey/router.rb:50:in `block in serve'
actionpack (6.1.4.4) lib/action_dispatch/journey/router.rb:32:in `each'
actionpack (6.1.4.4) lib/action_dispatch/journey/router.rb:32:in `serve'
actionpack (6.1.4.4) lib/action_dispatch/routing/route_set.rb:842:in `call'
rack (2.2.3) lib/rack/tempfile_reaper.rb:15:in `call'
rack (2.2.3) lib/rack/etag.rb:27:in `call'
rack (2.2.3) lib/rack/conditional_get.rb:27:in `call'
rack (2.2.3) lib/rack/head.rb:12:in `call'
actionpack (6.1.4.4) lib/action_dispatch/http/permissions_policy.rb:22:in `call'
actionpack (6.1.4.4) lib/action_dispatch/http/content_security_policy.rb:18:in `call'
rack (2.2.3) lib/rack/session/abstract/id.rb:266:in `context'
rack (2.2.3) lib/rack/session/abstract/id.rb:260:in `call'
actionpack (6.1.4.4) lib/action_dispatch/middleware/cookies.rb:689:in `call'
actionpack (6.1.4.4) lib/action_dispatch/middleware/callbacks.rb:27:in `block in call'
activesupport (6.1.4.4) lib/active_support/callbacks.rb:98:in `run_callbacks'
actionpack (6.1.4.4) lib/action_dispatch/middleware/callbacks.rb:26:in `call'
actionpack (6.1.4.4) lib/action_dispatch/middleware/actionable_exceptions.rb:18:in `call'
actionpack (6.1.4.4) lib/action_dispatch/middleware/debug_exceptions.rb:29:in `call'
actionpack (6.1.4.4) lib/action_dispatch/middleware/show_exceptions.rb:33:in `call'
railties (6.1.4.4) lib/rails/rack/logger.rb:37:in `call_app'
railties (6.1.4.4) lib/rails/rack/logger.rb:28:in `call'
actionpack (6.1.4.4) lib/action_dispatch/middleware/remote_ip.rb:81:in `call'
actionpack (6.1.4.4) lib/action_dispatch/middleware/request_id.rb:26:in `call'
rack (2.2.3) lib/rack/method_override.rb:24:in `call'
rack (2.2.3) lib/rack/runtime.rb:22:in `call'
activesupport (6.1.4.4) lib/active_support/cache/strategy/local_cache_middleware.rb:29:in `call'
actionpack (6.1.4.4) lib/action_dispatch/middleware/executor.rb:14:in `call'
rack (2.2.3) lib/rack/sendfile.rb:110:in `call'
actionpack (6.1.4.4) lib/action_dispatch/middleware/host_authorization.rb:113:in `call'
railties (6.1.4.4) lib/rails/engine.rb:539:in `call'
puma (5.6.5) lib/puma/configuration.rb:252:in `call'
puma (5.6.5) lib/puma/request.rb:77:in `block in handle_request'
puma (5.6.5) lib/puma/thread_pool.rb:340:in `with_force_shutdown'
puma (5.6.5) lib/puma/request.rb:76:in `handle_request'
puma (5.6.5) lib/puma/server.rb:443:in `process_client'
puma (5.6.5) lib/puma/thread_pool.rb:147:in `block in spawn_thread'
I, [2023-05-04T02:36:12.035852 #2950383]  INFO -- : Started GET "/.env" for 185.254.196.173 at 2023-05-04 02:36:12 +0900
I, [2023-05-04T02:36:12.036468 #2950383]  INFO -- : Processing by UserController#index as */*
I, [2023-05-04T02:36:12.036508 #2950383]  INFO -- :   Parameters: {"all"=>".env"}
I, [2023-05-04T02:36:12.037124 #2950383]  INFO -- :   Rendered user/index.html.erb within layouts/application (Duration: 0.0ms | Allocations: 4)
I, [2023-05-04T02:36:12.037975 #2950383]  INFO -- :   Rendered layout layouts/application.html.erb (Duration: 0.9ms | Allocations: 298)
I, [2023-05-04T02:36:12.039383 #2950383]  INFO -- : Completed 200 OK in 3ms (Views: 2.1ms | Allocations: 519)
I, [2023-05-04T02:36:12.613314 #2950385]  INFO -- : Started POST "/" for 185.254.196.173 at 2023-05-04 02:36:12 +0900
F, [2023-05-04T02:36:12.613666 #2950385] FATAL -- :   
ActionController::RoutingError (No route matches [POST] "/"):
  
I, [2023-05-04T02:37:46.120117 #2950383]  INFO -- : Started GET "/" for 172.105.128.11 at 2023-05-04 02:37:46 +0900
I, [2023-05-04T02:37:46.120770 #2950383]  INFO -- : Processing by UserController#index as */*
I, [2023-05-04T02:37:46.121263 #2950383]  INFO -- :   Rendered user/index.html.erb within layouts/application (Duration: 0.0ms | Allocations: 4)
I, [2023-05-04T02:37:46.122234 #2950383]  INFO -- :   Rendered layout layouts/application.html.erb (Duration: 1.0ms | Allocations: 298)
I, [2023-05-04T02:37:46.122406 #2950383]  INFO -- : Completed 200 OK in 2ms (Views: 1.3ms | Allocations: 519)
I, [2023-05-04T02:41:44.710219 #2950385]  INFO -- : Started GET "/" for 193.35.18.65 at 2023-05-04 02:41:44 +0900
I, [2023-05-04T02:41:44.710791 #2950385]  INFO -- : Processing by UserController#index as HTML
I, [2023-05-04T02:41:44.711410 #2950385]  INFO -- :   Rendered user/index.html.erb within layouts/application (Duration: 0.0ms | Allocations: 4)
I, [2023-05-04T02:41:44.712044 #2950385]  INFO -- :   Rendered layout layouts/application.html.erb (Duration: 0.7ms | Allocations: 299)
I, [2023-05-04T02:41:44.712211 #2950385]  INFO -- : Completed 200 OK in 1ms (Views: 1.2ms | Allocations: 513)
I, [2023-05-04T02:41:45.297708 #2950385]  INFO -- : Started POST "/HNAP1/" for 193.35.18.65 at 2023-05-04 02:41:45 +0900
F, [2023-05-04T02:41:45.298059 #2950385] FATAL -- :   
ActionController::RoutingError (No route matches [POST] "/HNAP1"):
  
I, [2023-05-04T02:49:29.059713 #2950385]  INFO -- : Started GET "/.env" for 85.217.144.217 at 2023-05-04 02:49:29 +0900
I, [2023-05-04T02:49:29.060333 #2950385]  INFO -- : Processing by UserController#index as */*
I, [2023-05-04T02:49:29.060375 #2950385]  INFO -- :   Parameters: {"all"=>".env"}
I, [2023-05-04T02:49:29.060797 #2950385]  INFO -- :   Rendered user/index.html.erb within layouts/application (Duration: 0.0ms | Allocations: 4)
I, [2023-05-04T02:49:29.062115 #2950385]  INFO -- :   Rendered layout layouts/application.html.erb (Duration: 1.4ms | Allocations: 299)
I, [2023-05-04T02:49:29.062322 #2950385]  INFO -- : Completed 200 OK in 2ms (Views: 1.7ms | Allocations: 521)
I, [2023-05-04T02:49:29.540868 #2950383]  INFO -- : Started POST "/" for 85.217.144.217 at 2023-05-04 02:49:29 +0900
F, [2023-05-04T02:49:29.541243 #2950383] FATAL -- :   
ActionController::RoutingError (No route matches [POST] "/"):
  
I, [2023-05-04T03:25:52.014051 #2950385]  INFO -- : Started GET "/.env" for 135.125.244.48 at 2023-05-04 03:25:52 +0900
I, [2023-05-04T03:25:52.014677 #2950385]  INFO -- : Processing by UserController#index as */*
I, [2023-05-04T03:25:52.014716 #2950385]  INFO -- :   Parameters: {"all"=>".env"}
I, [2023-05-04T03:25:52.015140 #2950385]  INFO -- :   Rendered user/index.html.erb within layouts/application (Duration: 0.0ms | Allocations: 4)
I, [2023-05-04T03:25:52.015880 #2950385]  INFO -- :   Rendered layout layouts/application.html.erb (Duration: 0.8ms | Allocations: 299)
I, [2023-05-04T03:25:52.016060 #2950385]  INFO -- : Completed 200 OK in 1ms (Views: 1.1ms | Allocations: 521)
I, [2023-05-04T03:25:52.525158 #2950385]  INFO -- : Started POST "/" for 135.125.244.48 at 2023-05-04 03:25:52 +0900
F, [2023-05-04T03:25:52.525506 #2950385] FATAL -- :   
ActionController::RoutingError (No route matches [POST] "/"):
  
I, [2023-05-04T03:39:40.436576 #2950383]  INFO -- : Started GET "/.env" for 135.125.244.48 at 2023-05-04 03:39:40 +0900
I, [2023-05-04T03:39:40.437250 #2950383]  INFO -- : Processing by UserController#index as */*
I, [2023-05-04T03:39:40.437293 #2950383]  INFO -- :   Parameters: {"all"=>".env"}
I, [2023-05-04T03:39:40.438107 #2950383]  INFO -- :   Rendered user/index.html.erb within layouts/application (Duration: 0.1ms | Allocations: 4)
I, [2023-05-04T03:39:40.438714 #2950383]  INFO -- :   Rendered layout layouts/application.html.erb (Duration: 0.7ms | Allocations: 298)
I, [2023-05-04T03:39:40.438876 #2950383]  INFO -- : Completed 200 OK in 1ms (Views: 1.2ms | Allocations: 519)
I, [2023-05-04T03:39:40.940091 #2950385]  INFO -- : Started POST "/" for 135.125.244.48 at 2023-05-04 03:39:40 +0900
F, [2023-05-04T03:39:40.940439 #2950385] FATAL -- :   
ActionController::RoutingError (No route matches [POST] "/"):
  
I, [2023-05-04T04:03:38.654388 #2950385]  INFO -- : Started GET "/" for 134.209.36.76 at 2023-05-04 04:03:38 +0900
I, [2023-05-04T04:03:38.655125 #2950385]  INFO -- : Processing by UserController#index as */*
I, [2023-05-04T04:03:38.655663 #2950385]  INFO -- :   Rendered user/index.html.erb within layouts/application (Duration: 0.0ms | Allocations: 4)
I, [2023-05-04T04:03:38.656280 #2950385]  INFO -- :   Rendered layout layouts/application.html.erb (Duration: 0.7ms | Allocations: 299)
I, [2023-05-04T04:03:38.656456 #2950385]  INFO -- : Completed 200 OK in 1ms (Views: 1.0ms | Allocations: 521)
I, [2023-05-04T04:15:09.445172 #2950383]  INFO -- : Started GET "/.env" for 185.254.196.173 at 2023-05-04 04:15:09 +0900
I, [2023-05-04T04:15:09.445782 #2950383]  INFO -- : Processing by UserController#index as */*
I, [2023-05-04T04:15:09.446039 #2950383]  INFO -- :   Parameters: {"all"=>".env"}
I, [2023-05-04T04:15:09.446519 #2950383]  INFO -- :   Rendered user/index.html.erb within layouts/application (Duration: 0.0ms | Allocations: 4)
I, [2023-05-04T04:15:09.447121 #2950383]  INFO -- :   Rendered layout layouts/application.html.erb (Duration: 0.7ms | Allocations: 298)
I, [2023-05-04T04:15:09.447287 #2950383]  INFO -- : Completed 200 OK in 1ms (Views: 0.9ms | Allocations: 519)
I, [2023-05-04T04:15:11.005697 #2950385]  INFO -- : Started POST "/" for 185.254.196.173 at 2023-05-04 04:15:11 +0900
F, [2023-05-04T04:15:11.006038 #2950385] FATAL -- :   
ActionController::RoutingError (No route matches [POST] "/"):
  
I, [2023-05-04T04:19:52.546084 #2950385]  INFO -- : Started GET "/" for 134.209.36.76 at 2023-05-04 04:19:52 +0900
I, [2023-05-04T04:19:52.546831 #2950385]  INFO -- : Processing by UserController#index as */*
I, [2023-05-04T04:19:52.547272 #2950385]  INFO -- :   Rendered user/index.html.erb within layouts/application (Duration: 0.0ms | Allocations: 4)
I, [2023-05-04T04:19:52.547899 #2950385]  INFO -- :   Rendered layout layouts/application.html.erb (Duration: 0.7ms | Allocations: 299)
I, [2023-05-04T04:19:52.548080 #2950385]  INFO -- : Completed 200 OK in 1ms (Views: 1.0ms | Allocations: 521)
I, [2023-05-04T04:44:23.058409 #2950385]  INFO -- : Started GET "/" for 142.93.118.120 at 2023-05-04 04:44:23 +0900
I, [2023-05-04T04:44:23.059000 #2950385]  INFO -- : Processing by UserController#index as */*
I, [2023-05-04T04:44:23.059650 #2950385]  INFO -- :   Rendered user/index.html.erb within layouts/application (Duration: 0.0ms | Allocations: 4)
I, [2023-05-04T04:44:23.060724 #2950385]  INFO -- :   Rendered layout layouts/application.html.erb (Duration: 1.1ms | Allocations: 299)
I, [2023-05-04T04:44:23.062238 #2950385]  INFO -- : Completed 200 OK in 3ms (Views: 1.6ms | Allocations: 521)
I, [2023-05-04T04:44:23.385957 #2950383]  INFO -- : Started GET "/client/get_targets" for 142.93.118.120 at 2023-05-04 04:44:23 +0900
I, [2023-05-04T04:44:23.386543 #2950383]  INFO -- : Processing by UserController#index as */*
I, [2023-05-04T04:44:23.386580 #2950383]  INFO -- :   Parameters: {"all"=>"client/get_targets"}
I, [2023-05-04T04:44:23.387001 #2950383]  INFO -- :   Rendered user/index.html.erb within layouts/application (Duration: 0.0ms | Allocations: 4)
I, [2023-05-04T04:44:23.387605 #2950383]  INFO -- :   Rendered layout layouts/application.html.erb (Duration: 0.6ms | Allocations: 298)
I, [2023-05-04T04:44:23.387769 #2950383]  INFO -- : Completed 200 OK in 1ms (Views: 0.9ms | Allocations: 519)
I, [2023-05-04T04:44:23.704634 #2950385]  INFO -- : Started GET "/upl.php" for 142.93.118.120 at 2023-05-04 04:44:23 +0900
I, [2023-05-04T04:44:23.705406 #2950385]  INFO -- : Processing by UserController#index as */*
I, [2023-05-04T04:44:23.705467 #2950385]  INFO -- :   Parameters: {"all"=>"upl"}
I, [2023-05-04T04:44:23.705880 #2950385]  INFO -- :   Rendered user/index.html.erb within layouts/application (Duration: 0.0ms | Allocations: 4)
I, [2023-05-04T04:44:23.706729 #2950385]  INFO -- :   Rendered layout layouts/application.html.erb (Duration: 0.9ms | Allocations: 298)
I, [2023-05-04T04:44:23.706896 #2950385]  INFO -- : Completed 200 OK in 1ms (Views: 1.2ms | Allocations: 507)
I, [2023-05-04T04:44:24.347245 #2950385]  INFO -- : Started GET "/geoip/" for 142.93.118.120 at 2023-05-04 04:44:24 +0900
I, [2023-05-04T04:44:24.347841 #2950385]  INFO -- : Processing by UserController#index as */*
I, [2023-05-04T04:44:24.347880 #2950385]  INFO -- :   Parameters: {"all"=>"geoip"}
I, [2023-05-04T04:44:24.348280 #2950385]  INFO -- :   Rendered user/index.html.erb within layouts/application (Duration: 0.0ms | Allocations: 4)
I, [2023-05-04T04:44:24.348860 #2950385]  INFO -- :   Rendered layout layouts/application.html.erb (Duration: 0.6ms | Allocations: 298)
I, [2023-05-04T04:44:24.349156 #2950385]  INFO -- : Completed 200 OK in 1ms (Views: 1.0ms | Allocations: 515)
I, [2023-05-04T04:44:24.657845 #2950385]  INFO -- : Started GET "/" for 142.93.118.120 at 2023-05-04 04:44:24 +0900
I, [2023-05-04T04:44:24.660311 #2950385]  INFO -- : Processing by UserController#index as */*
I, [2023-05-04T04:44:24.661035 #2950385]  INFO -- :   Rendered user/index.html.erb within layouts/application (Duration: 0.0ms | Allocations: 4)
I, [2023-05-04T04:44:24.663058 #2950385]  INFO -- :   Rendered layout layouts/application.html.erb (Duration: 2.1ms | Allocations: 298)
I, [2023-05-04T04:44:24.663259 #2950385]  INFO -- : Completed 200 OK in 3ms (Views: 2.4ms | Allocations: 515)
I, [2023-05-04T05:13:16.989911 #2950383]  INFO -- : Started GET "/" for 162.216.150.112 at 2023-05-04 05:13:16 +0900
I, [2023-05-04T05:13:16.990510 #2950383]  INFO -- : Processing by UserController#index as HTML
I, [2023-05-04T05:13:16.990928 #2950383]  INFO -- :   Rendered user/index.html.erb within layouts/application (Duration: 0.0ms | Allocations: 4)
I, [2023-05-04T05:13:16.991548 #2950383]  INFO -- :   Rendered layout layouts/application.html.erb (Duration: 0.7ms | Allocations: 298)
I, [2023-05-04T05:13:16.991711 #2950383]  INFO -- : Completed 200 OK in 1ms (Views: 0.9ms | Allocations: 512)
I, [2023-05-04T05:26:28.240415 #2950385]  INFO -- : Started GET "/" for 95.214.55.244 at 2023-05-04 05:26:28 +0900
I, [2023-05-04T05:26:28.241458 #2950385]  INFO -- : Processing by UserController#index as HTML
I, [2023-05-04T05:26:28.241905 #2950385]  INFO -- :   Rendered user/index.html.erb within layouts/application (Duration: 0.0ms | Allocations: 4)
I, [2023-05-04T05:26:28.242551 #2950385]  INFO -- :   Rendered layout layouts/application.html.erb (Duration: 0.7ms | Allocations: 312)
I, [2023-05-04T05:26:28.244026 #2950385]  INFO -- : Completed 200 OK in 1ms (Views: 1.0ms | Allocations: 527)
I, [2023-05-04T05:37:54.371593 #2950383]  INFO -- : Started GET "/" for 139.162.84.205 at 2023-05-04 05:37:54 +0900
I, [2023-05-04T05:37:54.373625 #2950383]  INFO -- : Processing by UserController#index as */*
I, [2023-05-04T05:37:54.374466 #2950383]  INFO -- :   Rendered user/index.html.erb within layouts/application (Duration: 0.0ms | Allocations: 4)
I, [2023-05-04T05:37:54.375113 #2950383]  INFO -- :   Rendered layout layouts/application.html.erb (Duration: 0.7ms | Allocations: 298)
I, [2023-05-04T05:37:54.375281 #2950383]  INFO -- : Completed 200 OK in 1ms (Views: 1.0ms | Allocations: 519)
I, [2023-05-04T06:11:33.534965 #2950385]  INFO -- : Started GET "/.env" for 135.125.244.48 at 2023-05-04 06:11:33 +0900
I, [2023-05-04T06:11:33.535575 #2950385]  INFO -- : Processing by UserController#index as */*
I, [2023-05-04T06:11:33.535613 #2950385]  INFO -- :   Parameters: {"all"=>".env"}
I, [2023-05-04T06:11:33.536018 #2950385]  INFO -- :   Rendered user/index.html.erb within layouts/application (Duration: 0.0ms | Allocations: 4)
I, [2023-05-04T06:11:33.540735 #2950385]  INFO -- :   Rendered layout layouts/application.html.erb (Duration: 4.7ms | Allocations: 299)
I, [2023-05-04T06:11:33.541008 #2950385]  INFO -- : Completed 200 OK in 5ms (Views: 5.1ms | Allocations: 521)
I, [2023-05-04T06:11:34.052526 #2950383]  INFO -- : Started POST "/" for 135.125.244.48 at 2023-05-04 06:11:34 +0900
F, [2023-05-04T06:11:34.053008 #2950383] FATAL -- :   
ActionController::RoutingError (No route matches [POST] "/"):
  
I, [2023-05-04T07:08:05.457818 #2950385]  INFO -- : Started GET "/" for 205.210.31.12 at 2023-05-04 07:08:05 +0900
I, [2023-05-04T07:08:05.458662 #2950385]  INFO -- : Processing by UserController#index as */*
I, [2023-05-04T07:08:05.459170 #2950385]  INFO -- :   Rendered user/index.html.erb within layouts/application (Duration: 0.0ms | Allocations: 4)
I, [2023-05-04T07:08:05.459920 #2950385]  INFO -- :   Rendered layout layouts/application.html.erb (Duration: 0.8ms | Allocations: 299)
I, [2023-05-04T07:08:05.460270 #2950385]  INFO -- : Completed 200 OK in 2ms (Views: 1.1ms | Allocations: 522)
I, [2023-05-04T07:12:52.814724 #2950383]  INFO -- : Started GET "/.env" for 135.125.244.48 at 2023-05-04 07:12:52 +0900
I, [2023-05-04T07:12:52.815855 #2950383]  INFO -- : Processing by UserController#index as */*
I, [2023-05-04T07:12:52.815902 #2950383]  INFO -- :   Parameters: {"all"=>".env"}
I, [2023-05-04T07:12:52.816413 #2950383]  INFO -- :   Rendered user/index.html.erb within layouts/application (Duration: 0.0ms | Allocations: 4)
I, [2023-05-04T07:12:52.817514 #2950383]  INFO -- :   Rendered layout layouts/application.html.erb (Duration: 1.1ms | Allocations: 298)
I, [2023-05-04T07:12:52.817721 #2950383]  INFO -- : Completed 200 OK in 2ms (Views: 1.5ms | Allocations: 519)
I, [2023-05-04T07:12:53.323829 #2950385]  INFO -- : Started POST "/" for 135.125.244.48 at 2023-05-04 07:12:53 +0900
F, [2023-05-04T07:12:53.324180 #2950385] FATAL -- :   
ActionController::RoutingError (No route matches [POST] "/"):
  
I, [2023-05-04T07:56:38.377838 #2950383]  INFO -- : Started GET "/" for 45.43.33.218 at 2023-05-04 07:56:38 +0900
I, [2023-05-04T07:56:38.378437 #2950383]  INFO -- : Processing by UserController#index as HTML
I, [2023-05-04T07:56:38.378864 #2950383]  INFO -- :   Rendered user/index.html.erb within layouts/application (Duration: 0.0ms | Allocations: 4)
I, [2023-05-04T07:56:38.379495 #2950383]  INFO -- :   Rendered layout layouts/application.html.erb (Duration: 0.7ms | Allocations: 298)
I, [2023-05-04T07:56:38.379660 #2950383]  INFO -- : Completed 200 OK in 1ms (Views: 0.9ms | Allocations: 512)
I, [2023-05-04T08:20:18.769389 #2950385]  INFO -- : Started GET "/0bef" for 172.105.89.161 at 2023-05-04 08:20:18 +0900
I, [2023-05-04T08:20:18.769982 #2950385]  INFO -- : Processing by UserController#index as HTML
I, [2023-05-04T08:20:18.770021 #2950385]  INFO -- :   Parameters: {"all"=>"0bef"}
I, [2023-05-04T08:20:18.770408 #2950385]  INFO -- :   Rendered user/index.html.erb within layouts/application (Duration: 0.0ms | Allocations: 4)
I, [2023-05-04T08:20:18.771030 #2950385]  INFO -- :   Rendered layout layouts/application.html.erb (Duration: 0.7ms | Allocations: 299)
I, [2023-05-04T08:20:18.771185 #2950385]  INFO -- : Completed 200 OK in 1ms (Views: 0.9ms | Allocations: 512)
I, [2023-05-04T08:44:13.990129 #2950383]  INFO -- : Started GET "/" for 162.142.125.11 at 2023-05-04 08:44:13 +0900
I, [2023-05-04T08:44:13.990706 #2950383]  INFO -- : Processing by UserController#index as HTML
I, [2023-05-04T08:44:13.991124 #2950383]  INFO -- :   Rendered user/index.html.erb within layouts/application (Duration: 0.0ms | Allocations: 4)
I, [2023-05-04T08:44:13.992751 #2950383]  INFO -- :   Rendered layout layouts/application.html.erb (Duration: 1.7ms | Allocations: 298)
I, [2023-05-04T08:44:13.993110 #2950383]  INFO -- : Completed 200 OK in 2ms (Views: 2.1ms | Allocations: 512)
I, [2023-05-04T08:44:14.284494 #2950383]  INFO -- : Started GET "/" for 162.142.125.11 at 2023-05-04 08:44:14 +0900
I, [2023-05-04T08:44:14.285153 #2950383]  INFO -- : Processing by UserController#index as */*
I, [2023-05-04T08:44:14.285761 #2950383]  INFO -- :   Rendered user/index.html.erb within layouts/application (Duration: 0.0ms | Allocations: 4)
I, [2023-05-04T08:44:14.286450 #2950383]  INFO -- :   Rendered layout layouts/application.html.erb (Duration: 0.7ms | Allocations: 297)
I, [2023-05-04T08:44:14.286614 #2950383]  INFO -- : Completed 200 OK in 1ms (Views: 1.2ms | Allocations: 513)
I, [2023-05-04T08:46:20.451819 #2950383]  INFO -- : Started GET "/" for 198.235.24.13 at 2023-05-04 08:46:20 +0900
I, [2023-05-04T08:46:20.452790 #2950383]  INFO -- : Processing by UserController#index as HTML
I, [2023-05-04T08:46:20.453537 #2950383]  INFO -- :   Rendered user/index.html.erb within layouts/application (Duration: 0.0ms | Allocations: 4)
I, [2023-05-04T08:46:20.455441 #2950383]  INFO -- :   Rendered layout layouts/application.html.erb (Duration: 2.0ms | Allocations: 298)
I, [2023-05-04T08:46:20.455612 #2950383]  INFO -- : Completed 200 OK in 3ms (Views: 2.3ms | Allocations: 512)
I, [2023-05-04T09:10:32.240552 #2950385]  INFO -- : Started GET "/.env" for 135.125.244.48 at 2023-05-04 09:10:32 +0900
I, [2023-05-04T09:10:32.241358 #2950385]  INFO -- : Processing by UserController#index as */*
I, [2023-05-04T09:10:32.241405 #2950385]  INFO -- :   Parameters: {"all"=>".env"}
I, [2023-05-04T09:10:32.241814 #2950385]  INFO -- :   Rendered user/index.html.erb within layouts/application (Duration: 0.0ms | Allocations: 4)
I, [2023-05-04T09:10:32.242768 #2950385]  INFO -- :   Rendered layout layouts/application.html.erb (Duration: 0.9ms | Allocations: 299)
I, [2023-05-04T09:10:32.242986 #2950385]  INFO -- : Completed 200 OK in 2ms (Views: 1.3ms | Allocations: 521)
I, [2023-05-04T09:10:32.740951 #2950383]  INFO -- : Started POST "/" for 135.125.244.48 at 2023-05-04 09:10:32 +0900
F, [2023-05-04T09:10:32.741469 #2950383] FATAL -- :   
ActionController::RoutingError (No route matches [POST] "/"):
  
I, [2023-05-04T09:12:18.781569 #2950385]  INFO -- : Started GET "/.git/config" for 52.47.80.154 at 2023-05-04 09:12:18 +0900
I, [2023-05-04T09:12:18.782322 #2950385]  INFO -- : Processing by UserController#index as HTML
I, [2023-05-04T09:12:18.782367 #2950385]  INFO -- :   Parameters: {"all"=>".git/config"}
I, [2023-05-04T09:12:18.782755 #2950385]  INFO -- :   Rendered user/index.html.erb within layouts/application (Duration: 0.0ms | Allocations: 4)
I, [2023-05-04T09:12:18.783365 #2950385]  INFO -- :   Rendered layout layouts/application.html.erb (Duration: 0.6ms | Allocations: 299)
I, [2023-05-04T09:12:18.783522 #2950385]  INFO -- : Completed 200 OK in 1ms (Views: 0.9ms | Allocations: 512)
I, [2023-05-04T09:38:17.391489 #2950383]  INFO -- : Started GET "/.env" for 185.254.196.186 at 2023-05-04 09:38:17 +0900
I, [2023-05-04T09:38:17.392107 #2950383]  INFO -- : Processing by UserController#index as */*
I, [2023-05-04T09:38:17.392147 #2950383]  INFO -- :   Parameters: {"all"=>".env"}
I, [2023-05-04T09:38:17.392686 #2950383]  INFO -- :   Rendered user/index.html.erb within layouts/application (Duration: 0.0ms | Allocations: 4)
I, [2023-05-04T09:38:17.394056 #2950383]  INFO -- :   Rendered layout layouts/application.html.erb (Duration: 1.4ms | Allocations: 298)
I, [2023-05-04T09:38:17.394240 #2950383]  INFO -- : Completed 200 OK in 2ms (Views: 1.8ms | Allocations: 520)
I, [2023-05-04T09:38:17.978650 #2950385]  INFO -- : Started POST "/" for 185.254.196.186 at 2023-05-04 09:38:17 +0900
F, [2023-05-04T09:38:17.978995 #2950385] FATAL -- :   
ActionController::RoutingError (No route matches [POST] "/"):
  
I, [2023-05-04T09:39:58.883640 #2950383]  INFO -- : Started GET "/" for 139.162.84.205 at 2023-05-04 09:39:58 +0900
I, [2023-05-04T09:39:58.884256 #2950383]  INFO -- : Processing by UserController#index as */*
I, [2023-05-04T09:39:58.884710 #2950383]  INFO -- :   Rendered user/index.html.erb within layouts/application (Duration: 0.0ms | Allocations: 4)
I, [2023-05-04T09:39:58.885485 #2950383]  INFO -- :   Rendered layout layouts/application.html.erb (Duration: 0.8ms | Allocations: 298)
I, [2023-05-04T09:39:58.885663 #2950383]  INFO -- : Completed 200 OK in 1ms (Views: 1.1ms | Allocations: 519)
I, [2023-05-04T09:40:13.492998 #2950385]  INFO -- : Started GET "/.env" for 135.125.244.48 at 2023-05-04 09:40:13 +0900
I, [2023-05-04T09:40:13.493628 #2950385]  INFO -- : Processing by UserController#index as */*
I, [2023-05-04T09:40:13.493670 #2950385]  INFO -- :   Parameters: {"all"=>".env"}
I, [2023-05-04T09:40:13.494083 #2950385]  INFO -- :   Rendered user/index.html.erb within layouts/application (Duration: 0.0ms | Allocations: 4)
I, [2023-05-04T09:40:13.494959 #2950385]  INFO -- :   Rendered layout layouts/application.html.erb (Duration: 0.9ms | Allocations: 299)
I, [2023-05-04T09:40:13.495136 #2950385]  INFO -- : Completed 200 OK in 1ms (Views: 1.2ms | Allocations: 521)
I, [2023-05-04T09:40:13.985696 #2950383]  INFO -- : Started POST "/" for 135.125.244.48 at 2023-05-04 09:40:13 +0900
F, [2023-05-04T09:40:13.986047 #2950383] FATAL -- :   
ActionController::RoutingError (No route matches [POST] "/"):
  
I, [2023-05-04T10:04:03.685534 #2950385]  INFO -- : Started GET "/_profiler/phpinfo" for 8.219.215.177 at 2023-05-04 10:04:03 +0900
I, [2023-05-04T10:04:03.686139 #2950385]  INFO -- : Processing by UserController#index as HTML
I, [2023-05-04T10:04:03.686180 #2950385]  INFO -- :   Parameters: {"all"=>"_profiler/phpinfo"}
I, [2023-05-04T10:04:03.686957 #2950385]  INFO -- :   Rendered user/index.html.erb within layouts/application (Duration: 0.4ms | Allocations: 4)
I, [2023-05-04T10:04:03.687624 #2950385]  INFO -- :   Rendered layout layouts/application.html.erb (Duration: 1.1ms | Allocations: 299)
I, [2023-05-04T10:04:03.687815 #2950385]  INFO -- : Completed 200 OK in 2ms (Views: 1.4ms | Allocations: 513)
I, [2023-05-04T10:04:05.158727 #2950383]  INFO -- : Started GET "/phpinfo.php" for 8.219.215.177 at 2023-05-04 10:04:05 +0900
I, [2023-05-04T10:04:05.159330 #2950383]  INFO -- : Processing by UserController#index as */*
I, [2023-05-04T10:04:05.159370 #2950383]  INFO -- :   Parameters: {"all"=>"phpinfo"}
I, [2023-05-04T10:04:05.160155 #2950383]  INFO -- :   Rendered user/index.html.erb within layouts/application (Duration: 0.0ms | Allocations: 4)
I, [2023-05-04T10:04:05.161087 #2950383]  INFO -- :   Rendered layout layouts/application.html.erb (Duration: 1.0ms | Allocations: 298)
I, [2023-05-04T10:04:05.161265 #2950383]  INFO -- : Completed 200 OK in 2ms (Views: 1.6ms | Allocations: 513)
I, [2023-05-04T10:04:05.501711 #2950385]  INFO -- : Started GET "/phpinfo" for 8.219.215.177 at 2023-05-04 10:04:05 +0900
I, [2023-05-04T10:04:05.502295 #2950385]  INFO -- : Processing by UserController#index as HTML
I, [2023-05-04T10:04:05.502338 #2950385]  INFO -- :   Parameters: {"all"=>"phpinfo"}
I, [2023-05-04T10:04:05.502826 #2950385]  INFO -- :   Rendered user/index.html.erb within layouts/application (Duration: 0.0ms | Allocations: 4)
I, [2023-05-04T10:04:05.504034 #2950385]  INFO -- :   Rendered layout layouts/application.html.erb (Duration: 1.2ms | Allocations: 298)
I, [2023-05-04T10:04:05.504345 #2950385]  INFO -- : Completed 200 OK in 2ms (Views: 1.6ms | Allocations: 506)
I, [2023-05-04T10:04:07.854290 #2950383]  INFO -- : Started GET "/aws.yml" for 8.219.215.177 at 2023-05-04 10:04:07 +0900
I, [2023-05-04T10:04:07.854879 #2950383]  INFO -- : Processing by UserController#index as YAML
I, [2023-05-04T10:04:07.854918 #2950383]  INFO -- :   Parameters: {"all"=>"aws"}
I, [2023-05-04T10:04:07.855315 #2950383]  INFO -- : Completed 406 Not Acceptable in 0ms (Allocations: 180)
F, [2023-05-04T10:04:07.856076 #2950383] FATAL -- :   
ActionController::UnknownFormat (UserController#index is missing a template for this request format and variant.

request.formats: ["application/x-yaml"]
request.variant: []):
  
actionpack (6.1.4.4) lib/action_controller/metal/implicit_render.rb:42:in `default_render'
actionpack (6.1.4.4) lib/action_controller/metal/basic_implicit_render.rb:6:in `block in send_action'
<internal:kernel>:90:in `tap'
actionpack (6.1.4.4) lib/action_controller/metal/basic_implicit_render.rb:6:in `send_action'
actionpack (6.1.4.4) lib/abstract_controller/base.rb:228:in `process_action'
actionpack (6.1.4.4) lib/action_controller/metal/rendering.rb:30:in `process_action'
actionpack (6.1.4.4) lib/abstract_controller/callbacks.rb:42:in `block in process_action'
activesupport (6.1.4.4) lib/active_support/callbacks.rb:117:in `block in run_callbacks'
actiontext (6.1.4.4) lib/action_text/rendering.rb:20:in `with_renderer'
actiontext (6.1.4.4) lib/action_text/engine.rb:59:in `block (4 levels) in <class:Engine>'
activesupport (6.1.4.4) lib/active_support/callbacks.rb:126:in `instance_exec'
activesupport (6.1.4.4) lib/active_support/callbacks.rb:126:in `block in run_callbacks'
activesupport (6.1.4.4) lib/active_support/callbacks.rb:137:in `run_callbacks'
actionpack (6.1.4.4) lib/abstract_controller/callbacks.rb:41:in `process_action'
actionpack (6.1.4.4) lib/action_controller/metal/rescue.rb:22:in `process_action'
actionpack (6.1.4.4) lib/action_controller/metal/instrumentation.rb:34:in `block in process_action'
activesupport (6.1.4.4) lib/active_support/notifications.rb:203:in `block in instrument'
activesupport (6.1.4.4) lib/active_support/notifications/instrumenter.rb:24:in `instrument'
activesupport (6.1.4.4) lib/active_support/notifications.rb:203:in `instrument'
actionpack (6.1.4.4) lib/action_controller/metal/instrumentation.rb:33:in `process_action'
actionpack (6.1.4.4) lib/action_controller/metal/params_wrapper.rb:249:in `process_action'
activerecord (6.1.4.4) lib/active_record/railties/controller_runtime.rb:27:in `process_action'
actionpack (6.1.4.4) lib/abstract_controller/base.rb:165:in `process'
actionview (6.1.4.4) lib/action_view/rendering.rb:39:in `process'
actionpack (6.1.4.4) lib/action_controller/metal.rb:190:in `dispatch'
actionpack (6.1.4.4) lib/action_controller/metal.rb:254:in `dispatch'
actionpack (6.1.4.4) lib/action_dispatch/routing/route_set.rb:50:in `dispatch'
actionpack (6.1.4.4) lib/action_dispatch/routing/route_set.rb:33:in `serve'
actionpack (6.1.4.4) lib/action_dispatch/journey/router.rb:50:in `block in serve'
actionpack (6.1.4.4) lib/action_dispatch/journey/router.rb:32:in `each'
actionpack (6.1.4.4) lib/action_dispatch/journey/router.rb:32:in `serve'
actionpack (6.1.4.4) lib/action_dispatch/routing/route_set.rb:842:in `call'
rack (2.2.3) lib/rack/tempfile_reaper.rb:15:in `call'
rack (2.2.3) lib/rack/etag.rb:27:in `call'
rack (2.2.3) lib/rack/conditional_get.rb:27:in `call'
rack (2.2.3) lib/rack/head.rb:12:in `call'
actionpack (6.1.4.4) lib/action_dispatch/http/permissions_policy.rb:22:in `call'
actionpack (6.1.4.4) lib/action_dispatch/http/content_security_policy.rb:18:in `call'
rack (2.2.3) lib/rack/session/abstract/id.rb:266:in `context'
rack (2.2.3) lib/rack/session/abstract/id.rb:260:in `call'
actionpack (6.1.4.4) lib/action_dispatch/middleware/cookies.rb:689:in `call'
actionpack (6.1.4.4) lib/action_dispatch/middleware/callbacks.rb:27:in `block in call'
activesupport (6.1.4.4) lib/active_support/callbacks.rb:98:in `run_callbacks'
actionpack (6.1.4.4) lib/action_dispatch/middleware/callbacks.rb:26:in `call'
actionpack (6.1.4.4) lib/action_dispatch/middleware/actionable_exceptions.rb:18:in `call'
actionpack (6.1.4.4) lib/action_dispatch/middleware/debug_exceptions.rb:29:in `call'
actionpack (6.1.4.4) lib/action_dispatch/middleware/show_exceptions.rb:33:in `call'
railties (6.1.4.4) lib/rails/rack/logger.rb:37:in `call_app'
railties (6.1.4.4) lib/rails/rack/logger.rb:28:in `call'
actionpack (6.1.4.4) lib/action_dispatch/middleware/remote_ip.rb:81:in `call'
actionpack (6.1.4.4) lib/action_dispatch/middleware/request_id.rb:26:in `call'
rack (2.2.3) lib/rack/method_override.rb:24:in `call'
rack (2.2.3) lib/rack/runtime.rb:22:in `call'
activesupport (6.1.4.4) lib/active_support/cache/strategy/local_cache_middleware.rb:29:in `call'
actionpack (6.1.4.4) lib/action_dispatch/middleware/executor.rb:14:in `call'
rack (2.2.3) lib/rack/sendfile.rb:110:in `call'
actionpack (6.1.4.4) lib/action_dispatch/middleware/host_authorization.rb:113:in `call'
railties (6.1.4.4) lib/rails/engine.rb:539:in `call'
puma (5.6.5) lib/puma/configuration.rb:252:in `call'
puma (5.6.5) lib/puma/request.rb:77:in `block in handle_request'
puma (5.6.5) lib/puma/thread_pool.rb:340:in `with_force_shutdown'
puma (5.6.5) lib/puma/request.rb:76:in `handle_request'
puma (5.6.5) lib/puma/server.rb:443:in `process_client'
puma (5.6.5) lib/puma/thread_pool.rb:147:in `block in spawn_thread'
I, [2023-05-04T10:04:08.061160 #2950385]  INFO -- : Started GET "/.env.bak" for 8.219.215.177 at 2023-05-04 10:04:08 +0900
I, [2023-05-04T10:04:08.061757 #2950385]  INFO -- : Processing by UserController#index as */*
I, [2023-05-04T10:04:08.061799 #2950385]  INFO -- :   Parameters: {"all"=>".env"}
I, [2023-05-04T10:04:08.062292 #2950385]  INFO -- :   Rendered user/index.html.erb within layouts/application (Duration: 0.0ms | Allocations: 4)
I, [2023-05-04T10:04:08.062909 #2950385]  INFO -- :   Rendered layout layouts/application.html.erb (Duration: 0.7ms | Allocations: 298)
I, [2023-05-04T10:04:08.063066 #2950385]  INFO -- : Completed 200 OK in 1ms (Views: 1.0ms | Allocations: 507)
I, [2023-05-04T10:04:10.077090 #2950385]  INFO -- : Started GET "/info.php" for 8.219.215.177 at 2023-05-04 10:04:10 +0900
I, [2023-05-04T10:04:10.077684 #2950385]  INFO -- : Processing by UserController#index as */*
I, [2023-05-04T10:04:10.077725 #2950385]  INFO -- :   Parameters: {"all"=>"info"}
I, [2023-05-04T10:04:10.078357 #2950385]  INFO -- :   Rendered user/index.html.erb within layouts/application (Duration: 0.0ms | Allocations: 4)
I, [2023-05-04T10:04:10.079112 #2950385]  INFO -- :   Rendered layout layouts/application.html.erb (Duration: 0.8ms | Allocations: 297)
I, [2023-05-04T10:04:10.079274 #2950385]  INFO -- : Completed 200 OK in 2ms (Views: 1.2ms | Allocations: 506)
I, [2023-05-04T10:04:12.734904 #2950383]  INFO -- : Started GET "/.aws/credentials" for 8.219.215.177 at 2023-05-04 10:04:12 +0900
I, [2023-05-04T10:04:12.735499 #2950383]  INFO -- : Processing by UserController#index as HTML
I, [2023-05-04T10:04:12.735543 #2950383]  INFO -- :   Parameters: {"all"=>".aws/credentials"}
I, [2023-05-04T10:04:12.736456 #2950383]  INFO -- :   Rendered user/index.html.erb within layouts/application (Duration: 0.0ms | Allocations: 4)
I, [2023-05-04T10:04:12.737478 #2950383]  INFO -- :   Rendered layout layouts/application.html.erb (Duration: 1.1ms | Allocations: 297)
I, [2023-05-04T10:04:12.737782 #2950383]  INFO -- : Completed 200 OK in 2ms (Views: 1.5ms | Allocations: 505)
I, [2023-05-04T10:04:13.271081 #2950383]  INFO -- : Started GET "/" for 8.219.215.177 at 2023-05-04 10:04:13 +0900
I, [2023-05-04T10:04:13.271723 #2950383]  INFO -- : Processing by UserController#index as HTML
I, [2023-05-04T10:04:13.272453 #2950383]  INFO -- :   Rendered user/index.html.erb within layouts/application (Duration: 0.0ms | Allocations: 4)
I, [2023-05-04T10:04:13.273257 #2950383]  INFO -- :   Rendered layout layouts/application.html.erb (Duration: 0.8ms | Allocations: 297)
I, [2023-05-04T10:04:13.273439 #2950383]  INFO -- : Completed 200 OK in 1ms (Views: 1.1ms | Allocations: 504)
I, [2023-05-04T10:04:15.220700 #2950383]  INFO -- : Started GET "/config/aws.yml" for 8.219.215.177 at 2023-05-04 10:04:15 +0900
I, [2023-05-04T10:04:15.221407 #2950383]  INFO -- : Processing by UserController#index as YAML
I, [2023-05-04T10:04:15.221457 #2950383]  INFO -- :   Parameters: {"all"=>"config/aws"}
I, [2023-05-04T10:04:15.221867 #2950383]  INFO -- : Completed 406 Not Acceptable in 0ms (Allocations: 180)
F, [2023-05-04T10:04:15.222548 #2950383] FATAL -- :   
ActionController::UnknownFormat (UserController#index is missing a template for this request format and variant.

request.formats: ["application/x-yaml"]
request.variant: []):
  
actionpack (6.1.4.4) lib/action_controller/metal/implicit_render.rb:42:in `default_render'
actionpack (6.1.4.4) lib/action_controller/metal/basic_implicit_render.rb:6:in `block in send_action'
<internal:kernel>:90:in `tap'
actionpack (6.1.4.4) lib/action_controller/metal/basic_implicit_render.rb:6:in `send_action'
actionpack (6.1.4.4) lib/abstract_controller/base.rb:228:in `process_action'
actionpack (6.1.4.4) lib/action_controller/metal/rendering.rb:30:in `process_action'
actionpack (6.1.4.4) lib/abstract_controller/callbacks.rb:42:in `block in process_action'
activesupport (6.1.4.4) lib/active_support/callbacks.rb:117:in `block in run_callbacks'
actiontext (6.1.4.4) lib/action_text/rendering.rb:20:in `with_renderer'
actiontext (6.1.4.4) lib/action_text/engine.rb:59:in `block (4 levels) in <class:Engine>'
activesupport (6.1.4.4) lib/active_support/callbacks.rb:126:in `instance_exec'
activesupport (6.1.4.4) lib/active_support/callbacks.rb:126:in `block in run_callbacks'
activesupport (6.1.4.4) lib/active_support/callbacks.rb:137:in `run_callbacks'
actionpack (6.1.4.4) lib/abstract_controller/callbacks.rb:41:in `process_action'
actionpack (6.1.4.4) lib/action_controller/metal/rescue.rb:22:in `process_action'
actionpack (6.1.4.4) lib/action_controller/metal/instrumentation.rb:34:in `block in process_action'
activesupport (6.1.4.4) lib/active_support/notifications.rb:203:in `block in instrument'
activesupport (6.1.4.4) lib/active_support/notifications/instrumenter.rb:24:in `instrument'
activesupport (6.1.4.4) lib/active_support/notifications.rb:203:in `instrument'
actionpack (6.1.4.4) lib/action_controller/metal/instrumentation.rb:33:in `process_action'
actionpack (6.1.4.4) lib/action_controller/metal/params_wrapper.rb:249:in `process_action'
activerecord (6.1.4.4) lib/active_record/railties/controller_runtime.rb:27:in `process_action'
actionpack (6.1.4.4) lib/abstract_controller/base.rb:165:in `process'
actionview (6.1.4.4) lib/action_view/rendering.rb:39:in `process'
actionpack (6.1.4.4) lib/action_controller/metal.rb:190:in `dispatch'
actionpack (6.1.4.4) lib/action_controller/metal.rb:254:in `dispatch'
actionpack (6.1.4.4) lib/action_dispatch/routing/route_set.rb:50:in `dispatch'
actionpack (6.1.4.4) lib/action_dispatch/routing/route_set.rb:33:in `serve'
actionpack (6.1.4.4) lib/action_dispatch/journey/router.rb:50:in `block in serve'
actionpack (6.1.4.4) lib/action_dispatch/journey/router.rb:32:in `each'
actionpack (6.1.4.4) lib/action_dispatch/journey/router.rb:32:in `serve'
actionpack (6.1.4.4) lib/action_dispatch/routing/route_set.rb:842:in `call'
rack (2.2.3) lib/rack/tempfile_reaper.rb:15:in `call'
rack (2.2.3) lib/rack/etag.rb:27:in `call'
rack (2.2.3) lib/rack/conditional_get.rb:27:in `call'
rack (2.2.3) lib/rack/head.rb:12:in `call'
actionpack (6.1.4.4) lib/action_dispatch/http/permissions_policy.rb:22:in `call'
actionpack (6.1.4.4) lib/action_dispatch/http/content_security_policy.rb:18:in `call'
rack (2.2.3) lib/rack/session/abstract/id.rb:266:in `context'
rack (2.2.3) lib/rack/session/abstract/id.rb:260:in `call'
actionpack (6.1.4.4) lib/action_dispatch/middleware/cookies.rb:689:in `call'
actionpack (6.1.4.4) lib/action_dispatch/middleware/callbacks.rb:27:in `block in call'
activesupport (6.1.4.4) lib/active_support/callbacks.rb:98:in `run_callbacks'
actionpack (6.1.4.4) lib/action_dispatch/middleware/callbacks.rb:26:in `call'
actionpack (6.1.4.4) lib/action_dispatch/middleware/actionable_exceptions.rb:18:in `call'
actionpack (6.1.4.4) lib/action_dispatch/middleware/debug_exceptions.rb:29:in `call'
actionpack (6.1.4.4) lib/action_dispatch/middleware/show_exceptions.rb:33:in `call'
railties (6.1.4.4) lib/rails/rack/logger.rb:37:in `call_app'
railties (6.1.4.4) lib/rails/rack/logger.rb:28:in `call'
actionpack (6.1.4.4) lib/action_dispatch/middleware/remote_ip.rb:81:in `call'
actionpack (6.1.4.4) lib/action_dispatch/middleware/request_id.rb:26:in `call'
rack (2.2.3) lib/rack/method_override.rb:24:in `call'
rack (2.2.3) lib/rack/runtime.rb:22:in `call'
activesupport (6.1.4.4) lib/active_support/cache/strategy/local_cache_middleware.rb:29:in `call'
actionpack (6.1.4.4) lib/action_dispatch/middleware/executor.rb:14:in `call'
rack (2.2.3) lib/rack/sendfile.rb:110:in `call'
actionpack (6.1.4.4) lib/action_dispatch/middleware/host_authorization.rb:113:in `call'
railties (6.1.4.4) lib/rails/engine.rb:539:in `call'
puma (5.6.5) lib/puma/configuration.rb:252:in `call'
puma (5.6.5) lib/puma/request.rb:77:in `block in handle_request'
puma (5.6.5) lib/puma/thread_pool.rb:340:in `with_force_shutdown'
puma (5.6.5) lib/puma/request.rb:76:in `handle_request'
puma (5.6.5) lib/puma/server.rb:443:in `process_client'
puma (5.6.5) lib/puma/thread_pool.rb:147:in `block in spawn_thread'
I, [2023-05-04T10:04:17.857136 #2950383]  INFO -- : Started GET "/" for 8.219.215.177 at 2023-05-04 10:04:17 +0900
I, [2023-05-04T10:04:17.857793 #2950383]  INFO -- : Processing by UserController#index as HTML
I, [2023-05-04T10:04:17.857837 #2950383]  INFO -- :   Parameters: {"somekey"=>"somevalue"}
I, [2023-05-04T10:04:17.858570 #2950383]  INFO -- :   Rendered user/index.html.erb within layouts/application (Duration: 0.0ms | Allocations: 4)
I, [2023-05-04T10:04:17.859205 #2950383]  INFO -- :   Rendered layout layouts/application.html.erb (Duration: 0.7ms | Allocations: 298)
I, [2023-05-04T10:04:17.859370 #2950383]  INFO -- : Completed 200 OK in 1ms (Views: 1.3ms | Allocations: 511)
I, [2023-05-04T10:04:18.135636 #2950385]  INFO -- : Started GET "/config.js" for 8.219.215.177 at 2023-05-04 10:04:18 +0900
I, [2023-05-04T10:04:18.136286 #2950385]  INFO -- : Processing by UserController#index as JS
I, [2023-05-04T10:04:18.136331 #2950385]  INFO -- :   Parameters: {"all"=>"config"}
I, [2023-05-04T10:04:18.136819 #2950385]  INFO -- :   Rendered user/index.html.erb (Duration: 0.0ms | Allocations: 5)
I, [2023-05-04T10:04:18.137014 #2950385]  INFO -- : Completed 200 OK in 1ms (Views: 0.4ms | Allocations: 288)
I, [2023-05-04T10:09:58.165428 #2950383]  INFO -- : Started GET "/" for 206.189.6.221 at 2023-05-04 10:09:58 +0900
I, [2023-05-04T10:09:58.166233 #2950383]  INFO -- : Processing by UserController#index as */*
I, [2023-05-04T10:09:58.166684 #2950383]  INFO -- :   Rendered user/index.html.erb within layouts/application (Duration: 0.0ms | Allocations: 4)
I, [2023-05-04T10:09:58.167302 #2950383]  INFO -- :   Rendered layout layouts/application.html.erb (Duration: 0.7ms | Allocations: 298)
I, [2023-05-04T10:09:58.167468 #2950383]  INFO -- : Completed 200 OK in 1ms (Views: 0.9ms | Allocations: 519)
I, [2023-05-04T10:09:58.708353 #2950385]  INFO -- : Started GET "/client/get_targets" for 206.189.6.221 at 2023-05-04 10:09:58 +0900
I, [2023-05-04T10:09:58.709204 #2950385]  INFO -- : Processing by UserController#index as */*
I, [2023-05-04T10:09:58.709253 #2950385]  INFO -- :   Parameters: {"all"=>"client/get_targets"}
I, [2023-05-04T10:09:58.709890 #2950385]  INFO -- :   Rendered user/index.html.erb within layouts/application (Duration: 0.0ms | Allocations: 4)
I, [2023-05-04T10:09:58.710496 #2950385]  INFO -- :   Rendered layout layouts/application.html.erb (Duration: 0.7ms | Allocations: 299)
I, [2023-05-04T10:09:58.711770 #2950385]  INFO -- : Completed 200 OK in 2ms (Views: 2.2ms | Allocations: 521)
I, [2023-05-04T10:09:59.235575 #2950383]  INFO -- : Started GET "/upl.php" for 206.189.6.221 at 2023-05-04 10:09:59 +0900
I, [2023-05-04T10:09:59.236319 #2950383]  INFO -- : Processing by UserController#index as */*
I, [2023-05-04T10:09:59.236422 #2950383]  INFO -- :   Parameters: {"all"=>"upl"}
I, [2023-05-04T10:09:59.237195 #2950383]  INFO -- :   Rendered user/index.html.erb within layouts/application (Duration: 0.0ms | Allocations: 4)
I, [2023-05-04T10:09:59.237881 #2950383]  INFO -- :   Rendered layout layouts/application.html.erb (Duration: 0.7ms | Allocations: 297)
I, [2023-05-04T10:09:59.238101 #2950383]  INFO -- : Completed 200 OK in 2ms (Views: 1.4ms | Allocations: 506)
I, [2023-05-04T10:10:00.295053 #2950383]  INFO -- : Started GET "/geoip/" for 206.189.6.221 at 2023-05-04 10:10:00 +0900
I, [2023-05-04T10:10:00.295683 #2950383]  INFO -- : Processing by UserController#index as */*
I, [2023-05-04T10:10:00.295726 #2950383]  INFO -- :   Parameters: {"all"=>"geoip"}
I, [2023-05-04T10:10:00.296171 #2950383]  INFO -- :   Rendered user/index.html.erb within layouts/application (Duration: 0.0ms | Allocations: 4)
I, [2023-05-04T10:10:00.296970 #2950383]  INFO -- :   Rendered layout layouts/application.html.erb (Duration: 0.8ms | Allocations: 297)
I, [2023-05-04T10:10:00.297186 #2950383]  INFO -- : Completed 200 OK in 1ms (Views: 1.2ms | Allocations: 513)
I, [2023-05-04T10:10:00.830663 #2950383]  INFO -- : Started GET "/" for 206.189.6.221 at 2023-05-04 10:10:00 +0900
I, [2023-05-04T10:10:00.831447 #2950383]  INFO -- : Processing by UserController#index as */*
I, [2023-05-04T10:10:00.831911 #2950383]  INFO -- :   Rendered user/index.html.erb within layouts/application (Duration: 0.0ms | Allocations: 4)
I, [2023-05-04T10:10:00.832614 #2950383]  INFO -- :   Rendered layout layouts/application.html.erb (Duration: 0.7ms | Allocations: 297)
I, [2023-05-04T10:10:00.832799 #2950383]  INFO -- : Completed 200 OK in 1ms (Views: 1.0ms | Allocations: 513)
I, [2023-05-04T10:27:31.291848 #2950385]  INFO -- : Started GET "/.env" for 185.254.196.173 at 2023-05-04 10:27:31 +0900
I, [2023-05-04T10:27:31.292617 #2950385]  INFO -- : Processing by UserController#index as */*
I, [2023-05-04T10:27:31.293118 #2950385]  INFO -- :   Parameters: {"all"=>".env"}
I, [2023-05-04T10:27:31.293796 #2950385]  INFO -- :   Rendered user/index.html.erb within layouts/application (Duration: 0.0ms | Allocations: 4)
I, [2023-05-04T10:27:31.294448 #2950385]  INFO -- :   Rendered layout layouts/application.html.erb (Duration: 0.7ms | Allocations: 299)
I, [2023-05-04T10:27:31.294624 #2950385]  INFO -- : Completed 200 OK in 1ms (Views: 1.2ms | Allocations: 521)
I, [2023-05-04T10:27:31.871405 #2950383]  INFO -- : Started POST "/" for 185.254.196.173 at 2023-05-04 10:27:31 +0900
F, [2023-05-04T10:27:31.871870 #2950383] FATAL -- :   
ActionController::RoutingError (No route matches [POST] "/"):
  
I, [2023-05-04T10:30:01.547023 #2950385]  INFO -- : Started GET "/.git/config" for 95.214.27.80 at 2023-05-04 10:30:01 +0900
I, [2023-05-04T10:30:01.547754 #2950385]  INFO -- : Processing by UserController#index as */*
I, [2023-05-04T10:30:01.547805 #2950385]  INFO -- :   Parameters: {"all"=>".git/config"}
I, [2023-05-04T10:30:01.548254 #2950385]  INFO -- :   Rendered user/index.html.erb within layouts/application (Duration: 0.0ms | Allocations: 4)
I, [2023-05-04T10:30:01.549158 #2950385]  INFO -- :   Rendered layout layouts/application.html.erb (Duration: 0.9ms | Allocations: 299)
I, [2023-05-04T10:30:01.549380 #2950385]  INFO -- : Completed 200 OK in 2ms (Views: 1.3ms | Allocations: 521)
I, [2023-05-04T10:44:50.463807 #2950383]  INFO -- : Started GET "/.git/config" for 35.84.184.107 at 2023-05-04 10:44:50 +0900
I, [2023-05-04T10:44:50.464482 #2950383]  INFO -- : Processing by UserController#index as HTML
I, [2023-05-04T10:44:50.464525 #2950383]  INFO -- :   Parameters: {"all"=>".git/config"}
I, [2023-05-04T10:44:50.464978 #2950383]  INFO -- :   Rendered user/index.html.erb within layouts/application (Duration: 0.0ms | Allocations: 4)
I, [2023-05-04T10:44:50.465618 #2950383]  INFO -- :   Rendered layout layouts/application.html.erb (Duration: 0.7ms | Allocations: 298)
I, [2023-05-04T10:44:50.465990 #2950383]  INFO -- : Completed 200 OK in 1ms (Views: 1.0ms | Allocations: 511)
I, [2023-05-04T11:34:04.164030 #2950385]  INFO -- : Started GET "/" for 194.55.224.203 at 2023-05-04 11:34:04 +0900
I, [2023-05-04T11:34:04.164713 #2950385]  INFO -- : Processing by UserController#index as HTML
I, [2023-05-04T11:34:04.165198 #2950385]  INFO -- :   Rendered user/index.html.erb within layouts/application (Duration: 0.0ms | Allocations: 4)
I, [2023-05-04T11:34:04.166102 #2950385]  INFO -- :   Rendered layout layouts/application.html.erb (Duration: 0.9ms | Allocations: 299)
I, [2023-05-04T11:34:04.166281 #2950385]  INFO -- : Completed 200 OK in 2ms (Views: 1.3ms | Allocations: 514)
I, [2023-05-04T11:42:00.033607 #2950383]  INFO -- : Started GET "/" for 35.187.98.121 at 2023-05-04 11:42:00 +0900
I, [2023-05-04T11:42:00.034826 #2950383]  INFO -- : Processing by UserController#index as */*
I, [2023-05-04T11:42:00.035500 #2950383]  INFO -- :   Rendered user/index.html.erb within layouts/application (Duration: 0.0ms | Allocations: 4)
I, [2023-05-04T11:42:00.037583 #2950383]  INFO -- :   Rendered layout layouts/application.html.erb (Duration: 2.1ms | Allocations: 298)
I, [2023-05-04T11:42:00.038520 #2950383]  INFO -- : Completed 200 OK in 4ms (Views: 3.3ms | Allocations: 520)
I, [2023-05-04T12:00:22.379183 #2950385]  INFO -- : Started GET "/" for 1.22.216.150 at 2023-05-04 12:00:22 +0900
I, [2023-05-04T12:00:22.379780 #2950385]  INFO -- : Processing by UserController#index as HTML
I, [2023-05-04T12:00:22.380191 #2950385]  INFO -- :   Rendered user/index.html.erb within layouts/application (Duration: 0.0ms | Allocations: 4)
I, [2023-05-04T12:00:22.381126 #2950385]  INFO -- :   Rendered layout layouts/application.html.erb (Duration: 1.0ms | Allocations: 299)
I, [2023-05-04T12:00:22.381299 #2950385]  INFO -- : Completed 200 OK in 1ms (Views: 1.2ms | Allocations: 513)
I, [2023-05-04T12:09:46.373894 #2950385]  INFO -- : Started GET "/.env" for 135.125.244.48 at 2023-05-04 12:09:46 +0900
I, [2023-05-04T12:09:46.374505 #2950385]  INFO -- : Processing by UserController#index as */*
I, [2023-05-04T12:09:46.374546 #2950385]  INFO -- :   Parameters: {"all"=>".env"}
I, [2023-05-04T12:09:46.375225 #2950385]  INFO -- :   Rendered user/index.html.erb within layouts/application (Duration: 0.0ms | Allocations: 4)
I, [2023-05-04T12:09:46.375984 #2950385]  INFO -- :   Rendered layout layouts/application.html.erb (Duration: 0.8ms | Allocations: 299)
I, [2023-05-04T12:09:46.376159 #2950385]  INFO -- : Completed 200 OK in 2ms (Views: 1.1ms | Allocations: 521)
I, [2023-05-04T12:09:46.862824 #2950383]  INFO -- : Started POST "/" for 135.125.244.48 at 2023-05-04 12:09:46 +0900
F, [2023-05-04T12:09:46.863158 #2950383] FATAL -- :   
ActionController::RoutingError (No route matches [POST] "/"):
  
I, [2023-05-04T12:25:54.952361 #2950385]  INFO -- : Started GET "/cdn-cgi/trace" for 47.120.42.157 at 2023-05-04 12:25:54 +0900
I, [2023-05-04T12:25:54.953046 #2950385]  INFO -- : Processing by UserController#index as HTML
I, [2023-05-04T12:25:54.953103 #2950385]  INFO -- :   Parameters: {"all"=>"cdn-cgi/trace"}
I, [2023-05-04T12:25:54.953513 #2950385]  INFO -- :   Rendered user/index.html.erb within layouts/application (Duration: 0.0ms | Allocations: 4)
I, [2023-05-04T12:25:54.954133 #2950385]  INFO -- :   Rendered layout layouts/application.html.erb (Duration: 0.7ms | Allocations: 299)
I, [2023-05-04T12:25:54.954733 #2950385]  INFO -- : Completed 200 OK in 2ms (Views: 0.9ms | Allocations: 512)
I, [2023-05-04T12:42:53.907470 #2950383]  INFO -- : Started GET "/" for 104.152.52.216 at 2023-05-04 12:42:53 +0900
I, [2023-05-04T12:42:53.908252 #2950383]  INFO -- : Processing by UserController#index as */*
I, [2023-05-04T12:42:53.908783 #2950383]  INFO -- :   Rendered user/index.html.erb within layouts/application (Duration: 0.0ms | Allocations: 4)
I, [2023-05-04T12:42:53.909428 #2950383]  INFO -- :   Rendered layout layouts/application.html.erb (Duration: 0.7ms | Allocations: 298)
I, [2023-05-04T12:42:53.909595 #2950383]  INFO -- : Completed 200 OK in 1ms (Views: 1.0ms | Allocations: 519)
I, [2023-05-04T13:17:38.577001 #2950383]  INFO -- : Started GET "/.env" for 135.125.244.48 at 2023-05-04 13:17:38 +0900
I, [2023-05-04T13:17:38.577642 #2950383]  INFO -- : Processing by UserController#index as */*
I, [2023-05-04T13:17:38.577682 #2950383]  INFO -- :   Parameters: {"all"=>".env"}
I, [2023-05-04T13:17:38.578268 #2950383]  INFO -- :   Rendered user/index.html.erb within layouts/application (Duration: 0.0ms | Allocations: 4)
I, [2023-05-04T13:17:38.579177 #2950383]  INFO -- :   Rendered layout layouts/application.html.erb (Duration: 1.0ms | Allocations: 298)
I, [2023-05-04T13:17:38.579363 #2950383]  INFO -- : Completed 200 OK in 2ms (Views: 1.3ms | Allocations: 519)
I, [2023-05-04T13:17:39.088519 #2950385]  INFO -- : Started POST "/" for 135.125.244.48 at 2023-05-04 13:17:39 +0900
F, [2023-05-04T13:17:39.088871 #2950385] FATAL -- :   
ActionController::RoutingError (No route matches [POST] "/"):
  
I, [2023-05-04T13:36:33.552597 #2950383]  INFO -- : Started GET "/.env" for 185.254.196.173 at 2023-05-04 13:36:33 +0900
I, [2023-05-04T13:36:33.553287 #2950383]  INFO -- : Processing by UserController#index as */*
I, [2023-05-04T13:36:33.553339 #2950383]  INFO -- :   Parameters: {"all"=>".env"}
I, [2023-05-04T13:36:33.554424 #2950383]  INFO -- :   Rendered user/index.html.erb within layouts/application (Duration: 0.0ms | Allocations: 4)
I, [2023-05-04T13:36:33.556790 #2950383]  INFO -- :   Rendered layout layouts/application.html.erb (Duration: 2.1ms | Allocations: 298)
I, [2023-05-04T13:36:33.557036 #2950383]  INFO -- : Completed 200 OK in 4ms (Views: 3.0ms | Allocations: 519)
I, [2023-05-04T13:36:34.124066 #2950385]  INFO -- : Started POST "/" for 185.254.196.173 at 2023-05-04 13:36:34 +0900
F, [2023-05-04T13:36:34.124403 #2950385] FATAL -- :   
ActionController::RoutingError (No route matches [POST] "/"):
  
I, [2023-05-04T13:40:01.271115 #2950383]  INFO -- : Started GET "/" for 139.162.84.205 at 2023-05-04 13:40:01 +0900
I, [2023-05-04T13:40:01.271744 #2950383]  INFO -- : Processing by UserController#index as */*
I, [2023-05-04T13:40:01.272205 #2950383]  INFO -- :   Rendered user/index.html.erb within layouts/application (Duration: 0.0ms | Allocations: 4)
I, [2023-05-04T13:40:01.272841 #2950383]  INFO -- :   Rendered layout layouts/application.html.erb (Duration: 0.7ms | Allocations: 298)
I, [2023-05-04T13:40:01.273091 #2950383]  INFO -- : Completed 200 OK in 1ms (Views: 1.0ms | Allocations: 519)
I, [2023-05-04T14:11:44.776505 #2950385]  INFO -- : Started GET "/" for 179.43.177.243 at 2023-05-04 14:11:44 +0900
I, [2023-05-04T14:11:44.777312 #2950385]  INFO -- : Processing by UserController#index as HTML
I, [2023-05-04T14:11:44.777736 #2950385]  INFO -- :   Rendered user/index.html.erb within layouts/application (Duration: 0.0ms | Allocations: 4)
I, [2023-05-04T14:11:44.778744 #2950385]  INFO -- :   Rendered layout layouts/application.html.erb (Duration: 1.0ms | Allocations: 299)
I, [2023-05-04T14:11:44.778963 #2950385]  INFO -- : Completed 200 OK in 2ms (Views: 1.4ms | Allocations: 513)
I, [2023-05-04T14:19:23.494370 #2950383]  INFO -- : Started GET "/Telerik.Web.UI.WebResource.axd?type=rau" for 45.76.74.248 at 2023-05-04 14:19:23 +0900
I, [2023-05-04T14:19:23.495006 #2950383]  INFO -- : Processing by UserController#index as */*
I, [2023-05-04T14:19:23.495050 #2950383]  INFO -- :   Parameters: {"type"=>"rau", "all"=>"Telerik.Web.UI.WebResource"}
I, [2023-05-04T14:19:23.495981 #2950383]  INFO -- :   Rendered user/index.html.erb within layouts/application (Duration: 0.0ms | Allocations: 4)
I, [2023-05-04T14:19:23.496644 #2950383]  INFO -- :   Rendered layout layouts/application.html.erb (Duration: 0.7ms | Allocations: 298)
I, [2023-05-04T14:19:23.496923 #2950383]  INFO -- : Completed 200 OK in 2ms (Views: 1.5ms | Allocations: 513)
I, [2023-05-04T14:20:16.756337 #2950385]  INFO -- : Started GET "/v3/time" for 104.192.0.50 at 2023-05-04 14:20:16 +0900
I, [2023-05-04T14:20:16.756988 #2950385]  INFO -- : Processing by UserController#index as HTML
I, [2023-05-04T14:20:16.757031 #2950385]  INFO -- :   Parameters: {"all"=>"v3/time"}
I, [2023-05-04T14:20:16.757623 #2950385]  INFO -- :   Rendered user/index.html.erb within layouts/application (Duration: 0.0ms | Allocations: 4)
I, [2023-05-04T14:20:16.758432 #2950385]  INFO -- :   Rendered layout layouts/application.html.erb (Duration: 0.9ms | Allocations: 298)
I, [2023-05-04T14:20:16.758594 #2950385]  INFO -- : Completed 200 OK in 2ms (Views: 1.2ms | Allocations: 511)
I, [2023-05-04T15:07:24.299098 #2950383]  INFO -- : Started GET "/.env" for 135.125.244.48 at 2023-05-04 15:07:24 +0900
I, [2023-05-04T15:07:24.299712 #2950383]  INFO -- : Processing by UserController#index as */*
I, [2023-05-04T15:07:24.299752 #2950383]  INFO -- :   Parameters: {"all"=>".env"}
I, [2023-05-04T15:07:24.300279 #2950383]  INFO -- :   Rendered user/index.html.erb within layouts/application (Duration: 0.0ms | Allocations: 4)
I, [2023-05-04T15:07:24.300953 #2950383]  INFO -- :   Rendered layout layouts/application.html.erb (Duration: 0.7ms | Allocations: 298)
I, [2023-05-04T15:07:24.301161 #2950383]  INFO -- : Completed 200 OK in 1ms (Views: 1.1ms | Allocations: 519)
I, [2023-05-04T15:07:24.810395 #2950385]  INFO -- : Started POST "/" for 135.125.244.48 at 2023-05-04 15:07:24 +0900
F, [2023-05-04T15:07:24.811025 #2950385] FATAL -- :   
ActionController::RoutingError (No route matches [POST] "/"):
  
I, [2023-05-04T15:52:07.549751 #2950383]  INFO -- : Started POST "/boaform/admin/formLogin" for 87.121.221.49 at 2023-05-04 15:52:07 +0900
F, [2023-05-04T15:52:07.550106 #2950383] FATAL -- :   
ActionController::RoutingError (No route matches [POST] "/boaform/admin/formLogin"):
  
I, [2023-05-04T16:22:19.223522 #2950385]  INFO -- : Started GET "/" for 64.62.197.198 at 2023-05-04 16:22:19 +0900
I, [2023-05-04T16:22:19.224125 #2950385]  INFO -- : Processing by UserController#index as */*
I, [2023-05-04T16:22:19.224564 #2950385]  INFO -- :   Rendered user/index.html.erb within layouts/application (Duration: 0.0ms | Allocations: 4)
I, [2023-05-04T16:22:19.226932 #2950385]  INFO -- :   Rendered layout layouts/application.html.erb (Duration: 2.4ms | Allocations: 299)
I, [2023-05-04T16:22:19.227147 #2950385]  INFO -- : Completed 200 OK in 3ms (Views: 2.7ms | Allocations: 522)
I, [2023-05-04T16:24:36.689949 #2950383]  INFO -- : Started GET "/geoserver/web/" for 64.62.197.199 at 2023-05-04 16:24:36 +0900
I, [2023-05-04T16:24:36.690544 #2950383]  INFO -- : Processing by UserController#index as */*
I, [2023-05-04T16:24:36.690583 #2950383]  INFO -- :   Parameters: {"all"=>"geoserver/web"}
I, [2023-05-04T16:24:36.690997 #2950383]  INFO -- :   Rendered user/index.html.erb within layouts/application (Duration: 0.0ms | Allocations: 4)
I, [2023-05-04T16:24:36.691578 #2950383]  INFO -- :   Rendered layout layouts/application.html.erb (Duration: 0.6ms | Allocations: 298)
I, [2023-05-04T16:24:36.691734 #2950383]  INFO -- : Completed 200 OK in 1ms (Views: 0.9ms | Allocations: 519)
I, [2023-05-04T16:28:19.950638 #2950385]  INFO -- : Started GET "/.env" for 135.125.244.48 at 2023-05-04 16:28:19 +0900
I, [2023-05-04T16:28:19.951282 #2950385]  INFO -- : Processing by UserController#index as */*
I, [2023-05-04T16:28:19.951326 #2950385]  INFO -- :   Parameters: {"all"=>".env"}
I, [2023-05-04T16:28:19.951742 #2950385]  INFO -- :   Rendered user/index.html.erb within layouts/application (Duration: 0.0ms | Allocations: 4)
I, [2023-05-04T16:28:19.952658 #2950385]  INFO -- :   Rendered layout layouts/application.html.erb (Duration: 1.0ms | Allocations: 299)
I, [2023-05-04T16:28:19.952840 #2950385]  INFO -- : Completed 200 OK in 1ms (Views: 1.3ms | Allocations: 521)
I, [2023-05-04T16:28:20.478732 #2950385]  INFO -- : Started POST "/" for 135.125.244.48 at 2023-05-04 16:28:20 +0900
F, [2023-05-04T16:28:20.479071 #2950385] FATAL -- :   
ActionController::RoutingError (No route matches [POST] "/"):
  
I, [2023-05-04T16:29:16.183413 #2950385]  INFO -- : Started GET "/muieblackcat" for 95.214.27.114 at 2023-05-04 16:29:16 +0900
I, [2023-05-04T16:29:16.184029 #2950385]  INFO -- : Processing by UserController#index as */*
I, [2023-05-04T16:29:16.184067 #2950385]  INFO -- :   Parameters: {"all"=>"muieblackcat"}
I, [2023-05-04T16:29:16.184677 #2950385]  INFO -- :   Rendered user/index.html.erb within layouts/application (Duration: 0.0ms | Allocations: 4)
I, [2023-05-04T16:29:16.185780 #2950385]  INFO -- :   Rendered layout layouts/application.html.erb (Duration: 1.2ms | Allocations: 299)
I, [2023-05-04T16:29:16.186157 #2950385]  INFO -- : Completed 200 OK in 2ms (Views: 1.7ms | Allocations: 521)
I, [2023-05-04T16:29:28.647407 #2950383]  INFO -- : Started GET "//MyAdmin/scripts/setup.php" for 95.214.27.114 at 2023-05-04 16:29:28 +0900
I, [2023-05-04T16:29:28.648123 #2950383]  INFO -- : Processing by UserController#index as */*
I, [2023-05-04T16:29:28.648167 #2950383]  INFO -- :   Parameters: {"all"=>"MyAdmin/scripts/setup"}
I, [2023-05-04T16:29:28.648580 #2950383]  INFO -- :   Rendered user/index.html.erb within layouts/application (Duration: 0.0ms | Allocations: 4)
I, [2023-05-04T16:29:28.649254 #2950383]  INFO -- :   Rendered layout layouts/application.html.erb (Duration: 0.7ms | Allocations: 298)
I, [2023-05-04T16:29:28.649416 #2950383]  INFO -- : Completed 200 OK in 1ms (Views: 1.0ms | Allocations: 513)
I, [2023-05-04T16:50:24.636624 #2950385]  INFO -- : Started GET "/" for 110.80.136.247 at 2023-05-04 16:50:24 +0900
I, [2023-05-04T16:50:24.637271 #2950385]  INFO -- : Processing by UserController#index as HTML
I, [2023-05-04T16:50:24.637784 #2950385]  INFO -- :   Rendered user/index.html.erb within layouts/application (Duration: 0.0ms | Allocations: 4)
I, [2023-05-04T16:50:24.638644 #2950385]  INFO -- :   Rendered layout layouts/application.html.erb (Duration: 0.9ms | Allocations: 299)
I, [2023-05-04T16:50:24.638816 #2950385]  INFO -- : Completed 200 OK in 1ms (Views: 1.2ms | Allocations: 513)
I, [2023-05-04T16:58:40.337215 #2950383]  INFO -- : Started GET "/" for 205.210.31.180 at 2023-05-04 16:58:40 +0900
I, [2023-05-04T16:58:40.338016 #2950383]  INFO -- : Processing by UserController#index as */*
I, [2023-05-04T16:58:40.338574 #2950383]  INFO -- :   Rendered user/index.html.erb within layouts/application (Duration: 0.0ms | Allocations: 4)
I, [2023-05-04T16:58:40.339220 #2950383]  INFO -- :   Rendered layout layouts/application.html.erb (Duration: 0.7ms | Allocations: 298)
I, [2023-05-04T16:58:40.339391 #2950383]  INFO -- : Completed 200 OK in 1ms (Views: 1.1ms | Allocations: 520)
I, [2023-05-04T17:16:47.702884 #2950385]  INFO -- : Started GET "/" for 162.243.151.4 at 2023-05-04 17:16:47 +0900
I, [2023-05-04T17:16:47.703707 #2950385]  INFO -- : Processing by UserController#index as */*
I, [2023-05-04T17:16:47.704233 #2950385]  INFO -- :   Rendered user/index.html.erb within layouts/application (Duration: 0.0ms | Allocations: 4)
I, [2023-05-04T17:16:47.705304 #2950385]  INFO -- :   Rendered layout layouts/application.html.erb (Duration: 1.1ms | Allocations: 299)
I, [2023-05-04T17:16:47.705507 #2950385]  INFO -- : Completed 200 OK in 2ms (Views: 1.5ms | Allocations: 522)
I, [2023-05-04T17:34:02.869783 #2950383]  INFO -- : Started GET "/.env" for 135.125.244.48 at 2023-05-04 17:34:02 +0900
I, [2023-05-04T17:34:02.870482 #2950383]  INFO -- : Processing by UserController#index as */*
I, [2023-05-04T17:34:02.870533 #2950383]  INFO -- :   Parameters: {"all"=>".env"}
I, [2023-05-04T17:34:02.870976 #2950383]  INFO -- :   Rendered user/index.html.erb within layouts/application (Duration: 0.0ms | Allocations: 4)
I, [2023-05-04T17:34:02.873592 #2950383]  INFO -- :   Rendered layout layouts/application.html.erb (Duration: 2.6ms | Allocations: 298)
I, [2023-05-04T17:34:02.874274 #2950383]  INFO -- : Completed 200 OK in 4ms (Views: 3.0ms | Allocations: 519)
I, [2023-05-04T17:34:03.379925 #2950383]  INFO -- : Started POST "/" for 135.125.244.48 at 2023-05-04 17:34:03 +0900
F, [2023-05-04T17:34:03.380348 #2950383] FATAL -- :   
ActionController::RoutingError (No route matches [POST] "/"):
  
I, [2023-05-04T17:37:51.836801 #2950383]  INFO -- : Started GET "/" for 139.162.84.205 at 2023-05-04 17:37:51 +0900
I, [2023-05-04T17:37:51.837439 #2950383]  INFO -- : Processing by UserController#index as */*
I, [2023-05-04T17:37:51.837882 #2950383]  INFO -- :   Rendered user/index.html.erb within layouts/application (Duration: 0.0ms | Allocations: 4)
I, [2023-05-04T17:37:51.838493 #2950383]  INFO -- :   Rendered layout layouts/application.html.erb (Duration: 0.7ms | Allocations: 298)
I, [2023-05-04T17:37:51.838660 #2950383]  INFO -- : Completed 200 OK in 1ms (Views: 0.9ms | Allocations: 519)
I, [2023-05-04T18:08:44.705861 #2950385]  INFO -- : Started GET "/.env" for 185.254.196.173 at 2023-05-04 18:08:44 +0900
I, [2023-05-04T18:08:44.706469 #2950385]  INFO -- : Processing by UserController#index as */*
I, [2023-05-04T18:08:44.706507 #2950385]  INFO -- :   Parameters: {"all"=>".env"}
I, [2023-05-04T18:08:44.707029 #2950385]  INFO -- :   Rendered user/index.html.erb within layouts/application (Duration: 0.1ms | Allocations: 4)
I, [2023-05-04T18:08:44.707844 #2950385]  INFO -- :   Rendered layout layouts/application.html.erb (Duration: 1.0ms | Allocations: 299)
I, [2023-05-04T18:08:44.708383 #2950385]  INFO -- : Completed 200 OK in 2ms (Views: 1.5ms | Allocations: 521)
I, [2023-05-04T18:59:55.089955 #2950383]  INFO -- : Started GET "/.env" for 135.125.244.48 at 2023-05-04 18:59:55 +0900
I, [2023-05-04T18:59:55.090585 #2950383]  INFO -- : Processing by UserController#index as */*
I, [2023-05-04T18:59:55.090629 #2950383]  INFO -- :   Parameters: {"all"=>".env"}
I, [2023-05-04T18:59:55.091181 #2950383]  INFO -- :   Rendered user/index.html.erb within layouts/application (Duration: 0.0ms | Allocations: 4)
I, [2023-05-04T18:59:55.091828 #2950383]  INFO -- :   Rendered layout layouts/application.html.erb (Duration: 0.7ms | Allocations: 298)
I, [2023-05-04T18:59:55.092006 #2950383]  INFO -- : Completed 200 OK in 1ms (Views: 1.0ms | Allocations: 519)
I, [2023-05-04T18:59:55.634380 #2950385]  INFO -- : Started POST "/" for 135.125.244.48 at 2023-05-04 18:59:55 +0900
F, [2023-05-04T18:59:55.634723 #2950385] FATAL -- :   
ActionController::RoutingError (No route matches [POST] "/"):
  
I, [2023-05-04T19:16:03.346054 #2950383]  INFO -- : Started GET "/systembc/password.php" for 45.56.108.128 at 2023-05-04 19:16:03 +0900
I, [2023-05-04T19:16:03.346759 #2950383]  INFO -- : Processing by UserController#index as */*
I, [2023-05-04T19:16:03.346802 #2950383]  INFO -- :   Parameters: {"all"=>"systembc/password"}
I, [2023-05-04T19:16:03.347428 #2950383]  INFO -- :   Rendered user/index.html.erb within layouts/application (Duration: 0.2ms | Allocations: 4)
I, [2023-05-04T19:16:03.350305 #2950383]  INFO -- :   Rendered layout layouts/application.html.erb (Duration: 3.1ms | Allocations: 298)
I, [2023-05-04T19:16:03.350646 #2950383]  INFO -- : Completed 200 OK in 4ms (Views: 3.5ms | Allocations: 513)
I, [2023-05-04T19:40:42.013029 #2950385]  INFO -- : Started GET "/systembc/password.php" for 45.56.108.128 at 2023-05-04 19:40:42 +0900
I, [2023-05-04T19:40:42.013820 #2950385]  INFO -- : Processing by UserController#index as */*
I, [2023-05-04T19:40:42.013871 #2950385]  INFO -- :   Parameters: {"all"=>"systembc/password"}
I, [2023-05-04T19:40:42.014311 #2950385]  INFO -- :   Rendered user/index.html.erb within layouts/application (Duration: 0.0ms | Allocations: 4)
I, [2023-05-04T19:40:42.014952 #2950385]  INFO -- :   Rendered layout layouts/application.html.erb (Duration: 0.7ms | Allocations: 299)
I, [2023-05-04T19:40:42.016709 #2950385]  INFO -- : Completed 200 OK in 3ms (Views: 2.5ms | Allocations: 514)
I, [2023-05-04T19:40:47.822296 #2950383]  INFO -- : Started GET "/.env" for 109.237.98.226 at 2023-05-04 19:40:47 +0900
I, [2023-05-04T19:40:47.823090 #2950383]  INFO -- : Processing by UserController#index as */*
I, [2023-05-04T19:40:47.823137 #2950383]  INFO -- :   Parameters: {"all"=>".env"}
I, [2023-05-04T19:40:47.823563 #2950383]  INFO -- :   Rendered user/index.html.erb within layouts/application (Duration: 0.0ms | Allocations: 4)
I, [2023-05-04T19:40:47.824190 #2950383]  INFO -- :   Rendered layout layouts/application.html.erb (Duration: 0.7ms | Allocations: 298)
I, [2023-05-04T19:40:47.824534 #2950383]  INFO -- : Completed 200 OK in 1ms (Views: 1.0ms | Allocations: 519)
I, [2023-05-04T19:43:38.499506 #2950385]  INFO -- : Started GET "/.env" for 185.254.196.173 at 2023-05-04 19:43:38 +0900
I, [2023-05-04T19:43:38.500191 #2950385]  INFO -- : Processing by UserController#index as */*
I, [2023-05-04T19:43:38.500235 #2950385]  INFO -- :   Parameters: {"all"=>".env"}
I, [2023-05-04T19:43:38.500660 #2950385]  INFO -- :   Rendered user/index.html.erb within layouts/application (Duration: 0.0ms | Allocations: 4)
I, [2023-05-04T19:43:38.501343 #2950385]  INFO -- :   Rendered layout layouts/application.html.erb (Duration: 0.7ms | Allocations: 299)
I, [2023-05-04T19:43:38.501523 #2950385]  INFO -- : Completed 200 OK in 1ms (Views: 1.0ms | Allocations: 521)
I, [2023-05-04T19:43:40.105762 #2950383]  INFO -- : Started POST "/" for 185.254.196.173 at 2023-05-04 19:43:40 +0900
F, [2023-05-04T19:43:40.106094 #2950383] FATAL -- :   
ActionController::RoutingError (No route matches [POST] "/"):
  
I, [2023-05-04T19:55:27.428288 #2950385]  INFO -- : Started GET "/.env" for 109.237.97.180 at 2023-05-04 19:55:27 +0900
I, [2023-05-04T19:55:27.428947 #2950385]  INFO -- : Processing by UserController#index as */*
I, [2023-05-04T19:55:27.428994 #2950385]  INFO -- :   Parameters: {"all"=>".env"}
I, [2023-05-04T19:55:27.429455 #2950385]  INFO -- :   Rendered user/index.html.erb within layouts/application (Duration: 0.0ms | Allocations: 4)
I, [2023-05-04T19:55:27.430082 #2950385]  INFO -- :   Rendered layout layouts/application.html.erb (Duration: 0.7ms | Allocations: 299)
I, [2023-05-04T19:55:27.430262 #2950385]  INFO -- : Completed 200 OK in 1ms (Views: 1.0ms | Allocations: 521)
I, [2023-05-04T20:55:49.645033 #2950383]  INFO -- : Started GET "/.env" for 135.125.244.48 at 2023-05-04 20:55:49 +0900
I, [2023-05-04T20:55:49.645686 #2950383]  INFO -- : Processing by UserController#index as */*
I, [2023-05-04T20:55:49.645730 #2950383]  INFO -- :   Parameters: {"all"=>".env"}
I, [2023-05-04T20:55:49.646159 #2950383]  INFO -- :   Rendered user/index.html.erb within layouts/application (Duration: 0.0ms | Allocations: 4)
I, [2023-05-04T20:55:49.646871 #2950383]  INFO -- :   Rendered layout layouts/application.html.erb (Duration: 0.8ms | Allocations: 298)
I, [2023-05-04T20:55:49.647057 #2950383]  INFO -- : Completed 200 OK in 1ms (Views: 1.1ms | Allocations: 519)
I, [2023-05-04T20:55:50.154863 #2950385]  INFO -- : Started POST "/" for 135.125.244.48 at 2023-05-04 20:55:50 +0900
F, [2023-05-04T20:55:50.155202 #2950385] FATAL -- :   
ActionController::RoutingError (No route matches [POST] "/"):
  
I, [2023-05-04T21:31:32.396598 #2950383]  INFO -- : Started GET "/" for 189.245.176.244 at 2023-05-04 21:31:32 +0900
I, [2023-05-04T21:31:32.397639 #2950383]  INFO -- : Processing by UserController#index as HTML
I, [2023-05-04T21:31:32.398083 #2950383]  INFO -- :   Rendered user/index.html.erb within layouts/application (Duration: 0.0ms | Allocations: 4)
I, [2023-05-04T21:31:32.398690 #2950383]  INFO -- :   Rendered layout layouts/application.html.erb (Duration: 0.7ms | Allocations: 298)
I, [2023-05-04T21:31:32.398846 #2950383]  INFO -- : Completed 200 OK in 1ms (Views: 0.9ms | Allocations: 512)
I, [2023-05-04T22:02:10.821964 #2950385]  INFO -- : Started GET "/.env" for 135.125.244.48 at 2023-05-04 22:02:10 +0900
I, [2023-05-04T22:02:10.822738 #2950385]  INFO -- : Processing by UserController#index as */*
I, [2023-05-04T22:02:10.822783 #2950385]  INFO -- :   Parameters: {"all"=>".env"}
I, [2023-05-04T22:02:10.823198 #2950385]  INFO -- :   Rendered user/index.html.erb within layouts/application (Duration: 0.0ms | Allocations: 4)
I, [2023-05-04T22:02:10.823936 #2950385]  INFO -- :   Rendered layout layouts/application.html.erb (Duration: 0.8ms | Allocations: 299)
I, [2023-05-04T22:02:10.824108 #2950385]  INFO -- : Completed 200 OK in 1ms (Views: 1.1ms | Allocations: 521)
I, [2023-05-04T22:02:11.326029 #2950383]  INFO -- : Started POST "/" for 135.125.244.48 at 2023-05-04 22:02:11 +0900
F, [2023-05-04T22:02:11.326367 #2950383] FATAL -- :   
ActionController::RoutingError (No route matches [POST] "/"):
  
I, [2023-05-04T22:59:41.574665 #2950385]  INFO -- : Started GET "/.env" for 135.125.244.48 at 2023-05-04 22:59:41 +0900
I, [2023-05-04T22:59:41.575262 #2950385]  INFO -- : Processing by UserController#index as */*
I, [2023-05-04T22:59:41.575303 #2950385]  INFO -- :   Parameters: {"all"=>".env"}
I, [2023-05-04T22:59:41.575727 #2950385]  INFO -- :   Rendered user/index.html.erb within layouts/application (Duration: 0.0ms | Allocations: 4)
I, [2023-05-04T22:59:41.577227 #2950385]  INFO -- :   Rendered layout layouts/application.html.erb (Duration: 1.5ms | Allocations: 299)
I, [2023-05-04T22:59:41.577424 #2950385]  INFO -- : Completed 200 OK in 2ms (Views: 1.9ms | Allocations: 521)
I, [2023-05-04T22:59:42.077592 #2950383]  INFO -- : Started POST "/" for 135.125.244.48 at 2023-05-04 22:59:42 +0900
F, [2023-05-04T22:59:42.078004 #2950383] FATAL -- :   
ActionController::RoutingError (No route matches [POST] "/"):
  
I, [2023-05-04T23:03:51.029883 #2950385]  INFO -- : Started GET "/" for 45.83.65.64 at 2023-05-04 23:03:51 +0900
I, [2023-05-04T23:03:51.030551 #2950385]  INFO -- : Processing by UserController#index as */*
I, [2023-05-04T23:03:51.030998 #2950385]  INFO -- :   Rendered user/index.html.erb within layouts/application (Duration: 0.0ms | Allocations: 4)
I, [2023-05-04T23:03:51.031792 #2950385]  INFO -- :   Rendered layout layouts/application.html.erb (Duration: 0.8ms | Allocations: 299)
I, [2023-05-04T23:03:51.031964 #2950385]  INFO -- : Completed 200 OK in 1ms (Views: 1.1ms | Allocations: 521)
