# Logfile created on 2023-05-05 00:38:44 +0900 by logger.rb/v1.5.0
I, [2023-05-05T00:38:44.539409 #2950383]  INFO -- : Started GET "/" for 162.142.125.224 at 2023-05-05 00:38:44 +0900
I, [2023-05-05T00:38:44.541333 #2950383]  INFO -- : Processing by UserController#index as HTML
I, [2023-05-05T00:38:44.541766 #2950383]  INFO -- :   Rendered user/index.html.erb within layouts/application (Duration: 0.0ms | Allocations: 4)
I, [2023-05-05T00:38:44.543060 #2950383]  INFO -- :   Rendered layout layouts/application.html.erb (Duration: 0.8ms | Allocations: 298)
I, [2023-05-05T00:38:44.543267 #2950383]  INFO -- : Completed 200 OK in 2ms (Views: 1.6ms | Allocations: 511)
I, [2023-05-05T00:38:44.799729 #2950385]  INFO -- : Started GET "/" for 162.142.125.224 at 2023-05-05 00:38:44 +0900
I, [2023-05-05T00:38:44.801163 #2950385]  INFO -- : Processing by UserController#index as */*
I, [2023-05-05T00:38:44.801681 #2950385]  INFO -- :   Rendered user/index.html.erb within layouts/application (Duration: 0.0ms | Allocations: 4)
I, [2023-05-05T00:38:44.804831 #2950385]  INFO -- :   Rendered layout layouts/application.html.erb (Duration: 3.1ms | Allocations: 299)
I, [2023-05-05T00:38:44.805298 #2950385]  INFO -- : Completed 200 OK in 4ms (Views: 3.8ms | Allocations: 522)
I, [2023-05-05T01:04:51.063523 #2950383]  INFO -- : Started GET "/.env" for 135.125.244.48 at 2023-05-05 01:04:51 +0900
I, [2023-05-05T01:04:51.064147 #2950383]  INFO -- : Processing by UserController#index as */*
I, [2023-05-05T01:04:51.064185 #2950383]  INFO -- :   Parameters: {"all"=>".env"}
I, [2023-05-05T01:04:51.064720 #2950383]  INFO -- :   Rendered user/index.html.erb within layouts/application (Duration: 0.0ms | Allocations: 4)
I, [2023-05-05T01:04:51.068723 #2950383]  INFO -- :   Rendered layout layouts/application.html.erb (Duration: 4.0ms | Allocations: 298)
I, [2023-05-05T01:04:51.069022 #2950383]  INFO -- : Completed 200 OK in 5ms (Views: 4.5ms | Allocations: 519)
I, [2023-05-05T01:04:51.569757 #2950383]  INFO -- : Started POST "/" for 135.125.244.48 at 2023-05-05 01:04:51 +0900
F, [2023-05-05T01:04:51.570103 #2950383] FATAL -- :   
ActionController::RoutingError (No route matches [POST] "/"):
  
I, [2023-05-05T01:13:18.173030 #2950385]  INFO -- : Started GET "/.env" for 185.254.196.186 at 2023-05-05 01:13:18 +0900
I, [2023-05-05T01:13:18.173809 #2950385]  INFO -- : Processing by UserController#index as */*
I, [2023-05-05T01:13:18.173855 #2950385]  INFO -- :   Parameters: {"all"=>".env"}
I, [2023-05-05T01:13:18.174279 #2950385]  INFO -- :   Rendered user/index.html.erb within layouts/application (Duration: 0.0ms | Allocations: 4)
I, [2023-05-05T01:13:18.174911 #2950385]  INFO -- :   Rendered layout layouts/application.html.erb (Duration: 0.7ms | Allocations: 299)
I, [2023-05-05T01:13:18.175091 #2950385]  INFO -- : Completed 200 OK in 1ms (Views: 1.0ms | Allocations: 521)
I, [2023-05-05T01:13:18.824271 #2950383]  INFO -- : Started POST "/" for 185.254.196.186 at 2023-05-05 01:13:18 +0900
F, [2023-05-05T01:13:18.824689 #2950383] FATAL -- :   
ActionController::RoutingError (No route matches [POST] "/"):
  
I, [2023-05-05T01:37:13.969840 #2950385]  INFO -- : Started GET "/" for 94.102.61.80 at 2023-05-05 01:37:13 +0900
I, [2023-05-05T01:37:13.970490 #2950385]  INFO -- : Processing by UserController#index as */*
I, [2023-05-05T01:37:13.971087 #2950385]  INFO -- :   Rendered user/index.html.erb within layouts/application (Duration: 0.0ms | Allocations: 4)
I, [2023-05-05T01:37:13.971777 #2950385]  INFO -- :   Rendered layout layouts/application.html.erb (Duration: 0.8ms | Allocations: 299)
I, [2023-05-05T01:37:13.972102 #2950385]  INFO -- : Completed 200 OK in 2ms (Views: 1.3ms | Allocations: 521)
I, [2023-05-05T01:39:49.753386 #2950383]  INFO -- : Started GET "/" for 45.79.73.202 at 2023-05-05 01:39:49 +0900
I, [2023-05-05T01:39:49.754275 #2950383]  INFO -- : Processing by UserController#index as HTML
I, [2023-05-05T01:39:49.754754 #2950383]  INFO -- :   Rendered user/index.html.erb within layouts/application (Duration: 0.0ms | Allocations: 4)
I, [2023-05-05T01:39:49.755724 #2950383]  INFO -- :   Rendered layout layouts/application.html.erb (Duration: 1.1ms | Allocations: 298)
I, [2023-05-05T01:39:49.755915 #2950383]  INFO -- : Completed 200 OK in 2ms (Views: 1.3ms | Allocations: 513)
I, [2023-05-05T01:41:34.509928 #2950383]  INFO -- : Started GET "/" for 139.162.84.205 at 2023-05-05 01:41:34 +0900
I, [2023-05-05T01:41:34.511198 #2950383]  INFO -- : Processing by UserController#index as */*
I, [2023-05-05T01:41:34.511738 #2950383]  INFO -- :   Rendered user/index.html.erb within layouts/application (Duration: 0.0ms | Allocations: 4)
I, [2023-05-05T01:41:34.512340 #2950383]  INFO -- :   Rendered layout layouts/application.html.erb (Duration: 0.7ms | Allocations: 298)
I, [2023-05-05T01:41:34.512498 #2950383]  INFO -- : Completed 200 OK in 1ms (Views: 0.9ms | Allocations: 520)
I, [2023-05-05T02:03:07.128497 #2950385]  INFO -- : Started GET "/.env" for 135.125.244.48 at 2023-05-05 02:03:07 +0900
I, [2023-05-05T02:03:07.129133 #2950385]  INFO -- : Processing by UserController#index as */*
I, [2023-05-05T02:03:07.129177 #2950385]  INFO -- :   Parameters: {"all"=>".env"}
I, [2023-05-05T02:03:07.129672 #2950385]  INFO -- :   Rendered user/index.html.erb within layouts/application (Duration: 0.0ms | Allocations: 4)
I, [2023-05-05T02:03:07.130285 #2950385]  INFO -- :   Rendered layout layouts/application.html.erb (Duration: 0.7ms | Allocations: 299)
I, [2023-05-05T02:03:07.130453 #2950385]  INFO -- : Completed 200 OK in 1ms (Views: 1.0ms | Allocations: 521)
I, [2023-05-05T02:03:07.628484 #2950383]  INFO -- : Started POST "/" for 135.125.244.48 at 2023-05-05 02:03:07 +0900
F, [2023-05-05T02:03:07.628829 #2950383] FATAL -- :   
ActionController::RoutingError (No route matches [POST] "/"):
  
I, [2023-05-05T02:16:40.328136 #2950385]  INFO -- : Started GET "/" for 185.83.114.9 at 2023-05-05 02:16:40 +0900
I, [2023-05-05T02:16:40.329109 #2950385]  INFO -- : Processing by UserController#index as HTML
I, [2023-05-05T02:16:40.329568 #2950385]  INFO -- :   Rendered user/index.html.erb within layouts/application (Duration: 0.0ms | Allocations: 4)
I, [2023-05-05T02:16:40.330408 #2950385]  INFO -- :   Rendered layout layouts/application.html.erb (Duration: 0.8ms | Allocations: 299)
I, [2023-05-05T02:16:40.330601 #2950385]  INFO -- : Completed 200 OK in 1ms (Views: 1.2ms | Allocations: 514)
I, [2023-05-05T02:31:12.071855 #2950383]  INFO -- : Started GET "/.env" for 185.254.196.173 at 2023-05-05 02:31:12 +0900
I, [2023-05-05T02:31:12.072476 #2950383]  INFO -- : Processing by UserController#index as */*
I, [2023-05-05T02:31:12.072519 #2950383]  INFO -- :   Parameters: {"all"=>".env"}
I, [2023-05-05T02:31:12.073249 #2950383]  INFO -- :   Rendered user/index.html.erb within layouts/application (Duration: 0.0ms | Allocations: 4)
I, [2023-05-05T02:31:12.074074 #2950383]  INFO -- :   Rendered layout layouts/application.html.erb (Duration: 1.1ms | Allocations: 298)
I, [2023-05-05T02:31:12.074255 #2950383]  INFO -- : Completed 200 OK in 2ms (Views: 1.5ms | Allocations: 519)
I, [2023-05-05T02:31:12.766177 #2950385]  INFO -- : Started POST "/" for 185.254.196.173 at 2023-05-05 02:31:12 +0900
F, [2023-05-05T02:31:12.766527 #2950385] FATAL -- :   
ActionController::RoutingError (No route matches [POST] "/"):
  
I, [2023-05-05T02:33:06.643738 #2950383]  INFO -- : Started GET "/" for 117.192.218.45 at 2023-05-05 02:33:06 +0900
I, [2023-05-05T02:33:06.644328 #2950383]  INFO -- : Processing by UserController#index as HTML
I, [2023-05-05T02:33:06.644746 #2950383]  INFO -- :   Rendered user/index.html.erb within layouts/application (Duration: 0.0ms | Allocations: 4)
I, [2023-05-05T02:33:06.646549 #2950383]  INFO -- :   Rendered layout layouts/application.html.erb (Duration: 1.8ms | Allocations: 298)
I, [2023-05-05T02:33:06.646729 #2950383]  INFO -- : Completed 200 OK in 2ms (Views: 2.1ms | Allocations: 513)
I, [2023-05-05T02:35:34.995148 #2950385]  INFO -- : Started GET "/" for 23.251.102.74 at 2023-05-05 02:35:34 +0900
I, [2023-05-05T02:35:34.996057 #2950385]  INFO -- : Processing by UserController#index as */*
I, [2023-05-05T02:35:34.996504 #2950385]  INFO -- :   Rendered user/index.html.erb within layouts/application (Duration: 0.0ms | Allocations: 4)
I, [2023-05-05T02:35:34.998106 #2950385]  INFO -- :   Rendered layout layouts/application.html.erb (Duration: 1.6ms | Allocations: 299)
I, [2023-05-05T02:35:34.998301 #2950385]  INFO -- : Completed 200 OK in 2ms (Views: 1.9ms | Allocations: 521)
I, [2023-05-05T03:17:14.513558 #2950383]  INFO -- : Started GET "/.env" for 135.125.244.48 at 2023-05-05 03:17:14 +0900
I, [2023-05-05T03:17:14.514273 #2950383]  INFO -- : Processing by UserController#index as */*
I, [2023-05-05T03:17:14.514319 #2950383]  INFO -- :   Parameters: {"all"=>".env"}
I, [2023-05-05T03:17:14.514741 #2950383]  INFO -- :   Rendered user/index.html.erb within layouts/application (Duration: 0.0ms | Allocations: 4)
I, [2023-05-05T03:17:14.515355 #2950383]  INFO -- :   Rendered layout layouts/application.html.erb (Duration: 0.7ms | Allocations: 298)
I, [2023-05-05T03:17:14.515892 #2950383]  INFO -- : Completed 200 OK in 2ms (Views: 1.3ms | Allocations: 519)
I, [2023-05-05T03:17:15.051719 #2950385]  INFO -- : Started POST "/" for 135.125.244.48 at 2023-05-05 03:17:15 +0900
F, [2023-05-05T03:17:15.052248 #2950385] FATAL -- :   
ActionController::RoutingError (No route matches [POST] "/"):
  
I, [2023-05-05T03:22:44.149087 #2950383]  INFO -- : Started GET "/api/v4/futures/usdt/contracts" for 104.192.0.50 at 2023-05-05 03:22:44 +0900
I, [2023-05-05T03:22:44.150693 #2950383]  INFO -- : Processing by UserController#index as HTML
I, [2023-05-05T03:22:44.150751 #2950383]  INFO -- :   Parameters: {"all"=>"api/v4/futures/usdt/contracts"}
I, [2023-05-05T03:22:44.152576 #2950383]  INFO -- :   Rendered user/index.html.erb within layouts/application (Duration: 0.0ms | Allocations: 4)
I, [2023-05-05T03:22:44.156057 #2950383]  INFO -- :   Rendered layout layouts/application.html.erb (Duration: 1.0ms | Allocations: 298)
I, [2023-05-05T03:22:44.156301 #2950383]  INFO -- : Completed 200 OK in 5ms (Views: 3.9ms | Allocations: 511)
I, [2023-05-05T03:51:59.707178 #2950385]  INFO -- : Started GET "/.env" for 212.224.93.194 at 2023-05-05 03:51:59 +0900
I, [2023-05-05T03:51:59.707921 #2950385]  INFO -- : Processing by UserController#index as HTML
I, [2023-05-05T03:51:59.707971 #2950385]  INFO -- :   Parameters: {"all"=>".env"}
I, [2023-05-05T03:51:59.708386 #2950385]  INFO -- :   Rendered user/index.html.erb within layouts/application (Duration: 0.0ms | Allocations: 4)
I, [2023-05-05T03:51:59.709686 #2950385]  INFO -- :   Rendered layout layouts/application.html.erb (Duration: 1.3ms | Allocations: 299)
I, [2023-05-05T03:51:59.710013 #2950385]  INFO -- : Completed 200 OK in 2ms (Views: 1.7ms | Allocations: 512)
I, [2023-05-05T04:09:05.525250 #2950385]  INFO -- : Started GET "/" for 193.35.18.65 at 2023-05-05 04:09:05 +0900
I, [2023-05-05T04:09:05.525830 #2950385]  INFO -- : Processing by UserController#index as HTML
I, [2023-05-05T04:09:05.526616 #2950385]  INFO -- :   Rendered user/index.html.erb within layouts/application (Duration: 0.0ms | Allocations: 4)
I, [2023-05-05T04:09:05.527342 #2950385]  INFO -- :   Rendered layout layouts/application.html.erb (Duration: 0.8ms | Allocations: 298)
I, [2023-05-05T04:09:05.527648 #2950385]  INFO -- : Completed 200 OK in 2ms (Views: 1.5ms | Allocations: 512)
I, [2023-05-05T04:09:06.061198 #2950383]  INFO -- : Started POST "/HNAP1/" for 193.35.18.65 at 2023-05-05 04:09:06 +0900
F, [2023-05-05T04:09:06.061571 #2950383] FATAL -- :   
ActionController::RoutingError (No route matches [POST] "/HNAP1"):
  
I, [2023-05-05T04:12:58.678552 #2950385]  INFO -- : Started GET "/" for 162.216.149.191 at 2023-05-05 04:12:58 +0900
I, [2023-05-05T04:12:58.679303 #2950385]  INFO -- : Processing by UserController#index as HTML
I, [2023-05-05T04:12:58.679711 #2950385]  INFO -- :   Rendered user/index.html.erb within layouts/application (Duration: 0.0ms | Allocations: 4)
I, [2023-05-05T04:12:58.680287 #2950385]  INFO -- :   Rendered layout layouts/application.html.erb (Duration: 0.6ms | Allocations: 298)
I, [2023-05-05T04:12:58.680439 #2950385]  INFO -- : Completed 200 OK in 1ms (Views: 0.9ms | Allocations: 512)
I, [2023-05-05T04:20:27.272379 #2950383]  INFO -- : Started GET "/" for 103.77.50.179 at 2023-05-05 04:20:27 +0900
I, [2023-05-05T04:20:27.273312 #2950383]  INFO -- : Processing by UserController#index as HTML
I, [2023-05-05T04:20:27.273937 #2950383]  INFO -- :   Rendered user/index.html.erb within layouts/application (Duration: 0.0ms | Allocations: 4)
I, [2023-05-05T04:20:27.275683 #2950383]  INFO -- :   Rendered layout layouts/application.html.erb (Duration: 1.8ms | Allocations: 298)
I, [2023-05-05T04:20:27.275988 #2950383]  INFO -- : Completed 200 OK in 3ms (Views: 2.3ms | Allocations: 512)
I, [2023-05-05T04:39:09.910540 #2950385]  INFO -- : Started GET "/.env" for 185.254.196.186 at 2023-05-05 04:39:09 +0900
I, [2023-05-05T04:39:09.911303 #2950385]  INFO -- : Processing by UserController#index as */*
I, [2023-05-05T04:39:09.911350 #2950385]  INFO -- :   Parameters: {"all"=>".env"}
I, [2023-05-05T04:39:09.911784 #2950385]  INFO -- :   Rendered user/index.html.erb within layouts/application (Duration: 0.0ms | Allocations: 4)
I, [2023-05-05T04:39:09.912480 #2950385]  INFO -- :   Rendered layout layouts/application.html.erb (Duration: 0.8ms | Allocations: 299)
I, [2023-05-05T04:39:09.912651 #2950385]  INFO -- : Completed 200 OK in 1ms (Views: 1.0ms | Allocations: 521)
I, [2023-05-05T04:39:11.929796 #2950385]  INFO -- : Started POST "/" for 185.254.196.186 at 2023-05-05 04:39:11 +0900
F, [2023-05-05T04:39:11.930131 #2950385] FATAL -- :   
ActionController::RoutingError (No route matches [POST] "/"):
  
I, [2023-05-05T04:56:14.263949 #2950385]  INFO -- : Started GET "/.env" for 172.232.76.73 at 2023-05-05 04:56:14 +0900
I, [2023-05-05T04:56:14.264544 #2950385]  INFO -- : Processing by UserController#index as */*
I, [2023-05-05T04:56:14.264582 #2950385]  INFO -- :   Parameters: {"all"=>".env"}
I, [2023-05-05T04:56:14.265206 #2950385]  INFO -- :   Rendered user/index.html.erb within layouts/application (Duration: 0.0ms | Allocations: 4)
I, [2023-05-05T04:56:14.265961 #2950385]  INFO -- :   Rendered layout layouts/application.html.erb (Duration: 0.7ms | Allocations: 299)
I, [2023-05-05T04:56:14.266168 #2950385]  INFO -- : Completed 200 OK in 2ms (Views: 1.2ms | Allocations: 521)
I, [2023-05-05T04:56:14.523103 #2950383]  INFO -- : Started POST "/" for 172.232.76.73 at 2023-05-05 04:56:14 +0900
F, [2023-05-05T04:56:14.523429 #2950383] FATAL -- :   
ActionController::RoutingError (No route matches [POST] "/"):
  
I, [2023-05-05T05:14:05.802895 #2950385]  INFO -- : Started GET "/.env" for 165.227.82.200 at 2023-05-05 05:14:05 +0900
I, [2023-05-05T05:14:05.803597 #2950385]  INFO -- : Processing by UserController#index as */*
I, [2023-05-05T05:14:05.803692 #2950385]  INFO -- :   Parameters: {"all"=>".env"}
I, [2023-05-05T05:14:05.804390 #2950385]  INFO -- :   Rendered user/index.html.erb within layouts/application (Duration: 0.0ms | Allocations: 4)
I, [2023-05-05T05:14:05.805266 #2950385]  INFO -- :   Rendered layout layouts/application.html.erb (Duration: 0.8ms | Allocations: 299)
I, [2023-05-05T05:14:05.805466 #2950385]  INFO -- : Completed 200 OK in 2ms (Views: 1.4ms | Allocations: 521)
I, [2023-05-05T05:14:06.142379 #2950383]  INFO -- : Started POST "/" for 165.227.82.200 at 2023-05-05 05:14:06 +0900
F, [2023-05-05T05:14:06.142728 #2950383] FATAL -- :   
ActionController::RoutingError (No route matches [POST] "/"):
  
I, [2023-05-05T05:19:29.576842 #2950385]  INFO -- : Started GET "/" for 172.104.11.46 at 2023-05-05 05:19:29 +0900
I, [2023-05-05T05:19:29.577470 #2950385]  INFO -- : Processing by UserController#index as */*
I, [2023-05-05T05:19:29.577971 #2950385]  INFO -- :   Rendered user/index.html.erb within layouts/application (Duration: 0.0ms | Allocations: 4)
I, [2023-05-05T05:19:29.578571 #2950385]  INFO -- :   Rendered layout layouts/application.html.erb (Duration: 0.6ms | Allocations: 299)
I, [2023-05-05T05:19:29.578740 #2950385]  INFO -- : Completed 200 OK in 1ms (Views: 0.9ms | Allocations: 521)
I, [2023-05-05T05:32:30.345107 #2950383]  INFO -- : Started GET "/.env" for 134.195.139.207 at 2023-05-05 05:32:30 +0900
I, [2023-05-05T05:32:30.345748 #2950383]  INFO -- : Processing by UserController#index as */*
I, [2023-05-05T05:32:30.345788 #2950383]  INFO -- :   Parameters: {"all"=>".env"}
I, [2023-05-05T05:32:30.346205 #2950383]  INFO -- :   Rendered user/index.html.erb within layouts/application (Duration: 0.0ms | Allocations: 4)
I, [2023-05-05T05:32:30.346882 #2950383]  INFO -- :   Rendered layout layouts/application.html.erb (Duration: 0.7ms | Allocations: 298)
I, [2023-05-05T05:32:30.347049 #2950383]  INFO -- : Completed 200 OK in 1ms (Views: 1.0ms | Allocations: 520)
I, [2023-05-05T05:32:30.895837 #2950383]  INFO -- : Started POST "/" for 134.195.139.207 at 2023-05-05 05:32:30 +0900
F, [2023-05-05T05:32:30.896172 #2950383] FATAL -- :   
ActionController::RoutingError (No route matches [POST] "/"):
  
I, [2023-05-05T05:33:49.938722 #2950383]  INFO -- : Started GET "/" for 193.35.18.65 at 2023-05-05 05:33:49 +0900
I, [2023-05-05T05:33:49.939297 #2950383]  INFO -- : Processing by UserController#index as HTML
I, [2023-05-05T05:33:49.939806 #2950383]  INFO -- :   Rendered user/index.html.erb within layouts/application (Duration: 0.0ms | Allocations: 4)
I, [2023-05-05T05:33:49.940400 #2950383]  INFO -- :   Rendered layout layouts/application.html.erb (Duration: 0.6ms | Allocations: 298)
I, [2023-05-05T05:33:49.940556 #2950383]  INFO -- : Completed 200 OK in 1ms (Views: 1.0ms | Allocations: 512)
I, [2023-05-05T05:33:50.476338 #2950385]  INFO -- : Started POST "/HNAP1/" for 193.35.18.65 at 2023-05-05 05:33:50 +0900
F, [2023-05-05T05:33:50.476672 #2950385] FATAL -- :   
ActionController::RoutingError (No route matches [POST] "/HNAP1"):
  
I, [2023-05-05T05:39:34.622464 #2950383]  INFO -- : Started GET "/.env" for 185.254.196.173 at 2023-05-05 05:39:34 +0900
I, [2023-05-05T05:39:34.623395 #2950383]  INFO -- : Processing by UserController#index as */*
I, [2023-05-05T05:39:34.623446 #2950383]  INFO -- :   Parameters: {"all"=>".env"}
I, [2023-05-05T05:39:34.624024 #2950383]  INFO -- :   Rendered user/index.html.erb within layouts/application (Duration: 0.0ms | Allocations: 4)
I, [2023-05-05T05:39:34.624626 #2950383]  INFO -- :   Rendered layout layouts/application.html.erb (Duration: 0.6ms | Allocations: 298)
I, [2023-05-05T05:39:34.624790 #2950383]  INFO -- : Completed 200 OK in 1ms (Views: 0.9ms | Allocations: 519)
I, [2023-05-05T05:39:36.243866 #2950385]  INFO -- : Started POST "/" for 185.254.196.173 at 2023-05-05 05:39:36 +0900
F, [2023-05-05T05:39:36.244328 #2950385] FATAL -- :   
ActionController::RoutingError (No route matches [POST] "/"):
  
I, [2023-05-05T05:43:08.342533 #2950383]  INFO -- : Started GET "/" for 139.162.84.205 at 2023-05-05 05:43:08 +0900
I, [2023-05-05T05:43:08.343136 #2950383]  INFO -- : Processing by UserController#index as */*
I, [2023-05-05T05:43:08.343721 #2950383]  INFO -- :   Rendered user/index.html.erb within layouts/application (Duration: 0.0ms | Allocations: 4)
I, [2023-05-05T05:43:08.345045 #2950383]  INFO -- :   Rendered layout layouts/application.html.erb (Duration: 1.5ms | Allocations: 298)
I, [2023-05-05T05:43:08.345240 #2950383]  INFO -- : Completed 200 OK in 2ms (Views: 1.8ms | Allocations: 519)
I, [2023-05-05T05:46:31.233765 #2950383]  INFO -- : Started GET "/.env" for 135.125.244.48 at 2023-05-05 05:46:31 +0900
I, [2023-05-05T05:46:31.234466 #2950383]  INFO -- : Processing by UserController#index as */*
I, [2023-05-05T05:46:31.234522 #2950383]  INFO -- :   Parameters: {"all"=>".env"}
I, [2023-05-05T05:46:31.235024 #2950383]  INFO -- :   Rendered user/index.html.erb within layouts/application (Duration: 0.0ms | Allocations: 4)
I, [2023-05-05T05:46:31.235723 #2950383]  INFO -- :   Rendered layout layouts/application.html.erb (Duration: 0.8ms | Allocations: 298)
I, [2023-05-05T05:46:31.236026 #2950383]  INFO -- : Completed 200 OK in 1ms (Views: 1.1ms | Allocations: 519)
I, [2023-05-05T05:46:31.765863 #2950385]  INFO -- : Started POST "/" for 135.125.244.48 at 2023-05-05 05:46:31 +0900
F, [2023-05-05T05:46:31.766193 #2950385] FATAL -- :   
ActionController::RoutingError (No route matches [POST] "/"):
  
I, [2023-05-05T05:49:53.150256 #2950383]  INFO -- : Started GET "/" for 179.43.163.132 at 2023-05-05 05:49:53 +0900
I, [2023-05-05T05:49:53.150828 #2950383]  INFO -- : Processing by UserController#index as HTML
I, [2023-05-05T05:49:53.151685 #2950383]  INFO -- :   Rendered user/index.html.erb within layouts/application (Duration: 0.0ms | Allocations: 4)
I, [2023-05-05T05:49:53.152422 #2950383]  INFO -- :   Rendered layout layouts/application.html.erb (Duration: 0.8ms | Allocations: 298)
I, [2023-05-05T05:49:53.152724 #2950383]  INFO -- : Completed 200 OK in 2ms (Views: 1.5ms | Allocations: 512)
I, [2023-05-05T05:49:53.792639 #2950385]  INFO -- : Started POST "/HNAP1/" for 179.43.163.132 at 2023-05-05 05:49:53 +0900
F, [2023-05-05T05:49:53.793019 #2950385] FATAL -- :   
ActionController::RoutingError (No route matches [POST] "/HNAP1"):
  
I, [2023-05-05T06:09:34.451893 #2950383]  INFO -- : Started GET "/" for 168.232.12.106 at 2023-05-05 06:09:34 +0900
I, [2023-05-05T06:09:34.452468 #2950383]  INFO -- : Processing by UserController#index as HTML
I, [2023-05-05T06:09:34.453082 #2950383]  INFO -- :   Rendered user/index.html.erb within layouts/application (Duration: 0.0ms | Allocations: 4)
I, [2023-05-05T06:09:34.453994 #2950383]  INFO -- :   Rendered layout layouts/application.html.erb (Duration: 1.0ms | Allocations: 298)
I, [2023-05-05T06:09:34.454155 #2950383]  INFO -- : Completed 200 OK in 2ms (Views: 1.3ms | Allocations: 512)
I, [2023-05-05T06:33:30.835751 #2950385]  INFO -- : Started GET "/.env" for 135.125.244.48 at 2023-05-05 06:33:30 +0900
I, [2023-05-05T06:33:30.836372 #2950385]  INFO -- : Processing by UserController#index as */*
I, [2023-05-05T06:33:30.836410 #2950385]  INFO -- :   Parameters: {"all"=>".env"}
I, [2023-05-05T06:33:30.836920 #2950385]  INFO -- :   Rendered user/index.html.erb within layouts/application (Duration: 0.0ms | Allocations: 4)
I, [2023-05-05T06:33:30.838385 #2950385]  INFO -- :   Rendered layout layouts/application.html.erb (Duration: 1.5ms | Allocations: 299)
I, [2023-05-05T06:33:30.838573 #2950385]  INFO -- : Completed 200 OK in 2ms (Views: 1.9ms | Allocations: 521)
I, [2023-05-05T06:33:31.357502 #2950383]  INFO -- : Started POST "/" for 135.125.244.48 at 2023-05-05 06:33:31 +0900
F, [2023-05-05T06:33:31.357832 #2950383] FATAL -- :   
ActionController::RoutingError (No route matches [POST] "/"):
  
I, [2023-05-05T06:34:30.623300 #2950385]  INFO -- : Started GET "/" for 179.43.177.243 at 2023-05-05 06:34:30 +0900
I, [2023-05-05T06:34:30.623871 #2950385]  INFO -- : Processing by UserController#index as HTML
I, [2023-05-05T06:34:30.624269 #2950385]  INFO -- :   Rendered user/index.html.erb within layouts/application (Duration: 0.0ms | Allocations: 4)
I, [2023-05-05T06:34:30.625453 #2950385]  INFO -- :   Rendered layout layouts/application.html.erb (Duration: 1.2ms | Allocations: 299)
I, [2023-05-05T06:34:30.625784 #2950385]  INFO -- : Completed 200 OK in 2ms (Views: 1.5ms | Allocations: 513)
I, [2023-05-05T06:54:55.187812 #2950383]  INFO -- : Started GET "/" for 193.35.18.60 at 2023-05-05 06:54:55 +0900
I, [2023-05-05T06:54:55.188628 #2950383]  INFO -- : Processing by UserController#index as HTML
I, [2023-05-05T06:54:55.189292 #2950383]  INFO -- :   Rendered user/index.html.erb within layouts/application (Duration: 0.1ms | Allocations: 4)
I, [2023-05-05T06:54:55.190649 #2950383]  INFO -- :   Rendered layout layouts/application.html.erb (Duration: 1.5ms | Allocations: 298)
I, [2023-05-05T06:54:55.190817 #2950383]  INFO -- : Completed 200 OK in 2ms (Views: 1.9ms | Allocations: 512)
I, [2023-05-05T06:54:56.495278 #2950385]  INFO -- : Started POST "/HNAP1/" for 193.35.18.60 at 2023-05-05 06:54:56 +0900
F, [2023-05-05T06:54:56.495808 #2950385] FATAL -- :   
ActionController::RoutingError (No route matches [POST] "/HNAP1"):
  
I, [2023-05-05T07:18:26.755801 #2950383]  INFO -- : Started GET "/" for 64.226.85.155 at 2023-05-05 07:18:26 +0900
I, [2023-05-05T07:18:26.756809 #2950383]  INFO -- : Processing by UserController#index as */*
I, [2023-05-05T07:18:26.757346 #2950383]  INFO -- :   Rendered user/index.html.erb within layouts/application (Duration: 0.0ms | Allocations: 4)
I, [2023-05-05T07:18:26.757944 #2950383]  INFO -- :   Rendered layout layouts/application.html.erb (Duration: 0.6ms | Allocations: 298)
I, [2023-05-05T07:18:26.758103 #2950383]  INFO -- : Completed 200 OK in 1ms (Views: 0.9ms | Allocations: 519)
I, [2023-05-05T07:18:27.200003 #2950385]  INFO -- : Started GET "/client/get_targets" for 64.226.85.155 at 2023-05-05 07:18:27 +0900
I, [2023-05-05T07:18:27.200628 #2950385]  INFO -- : Processing by UserController#index as */*
I, [2023-05-05T07:18:27.200669 #2950385]  INFO -- :   Parameters: {"all"=>"client/get_targets"}
I, [2023-05-05T07:18:27.205346 #2950385]  INFO -- :   Rendered user/index.html.erb within layouts/application (Duration: 0.0ms | Allocations: 4)
I, [2023-05-05T07:18:27.207781 #2950385]  INFO -- :   Rendered layout layouts/application.html.erb (Duration: 2.5ms | Allocations: 299)
I, [2023-05-05T07:18:27.209845 #2950385]  INFO -- : Completed 200 OK in 9ms (Views: 7.1ms | Allocations: 522)
I, [2023-05-05T07:18:27.679667 #2950385]  INFO -- : Started GET "/upl.php" for 64.226.85.155 at 2023-05-05 07:18:27 +0900
I, [2023-05-05T07:18:27.680256 #2950385]  INFO -- : Processing by UserController#index as */*
I, [2023-05-05T07:18:27.680295 #2950385]  INFO -- :   Parameters: {"all"=>"upl"}
I, [2023-05-05T07:18:27.680715 #2950385]  INFO -- :   Rendered user/index.html.erb within layouts/application (Duration: 0.0ms | Allocations: 4)
I, [2023-05-05T07:18:27.681455 #2950385]  INFO -- :   Rendered layout layouts/application.html.erb (Duration: 0.8ms | Allocations: 298)
I, [2023-05-05T07:18:27.681620 #2950385]  INFO -- : Completed 200 OK in 1ms (Views: 1.1ms | Allocations: 507)
I, [2023-05-05T07:18:28.602360 #2950385]  INFO -- : Started GET "/geoip/" for 64.226.85.155 at 2023-05-05 07:18:28 +0900
I, [2023-05-05T07:18:28.602974 #2950385]  INFO -- : Processing by UserController#index as */*
I, [2023-05-05T07:18:28.603215 #2950385]  INFO -- :   Parameters: {"all"=>"geoip"}
I, [2023-05-05T07:18:28.603649 #2950385]  INFO -- :   Rendered user/index.html.erb within layouts/application (Duration: 0.0ms | Allocations: 4)
I, [2023-05-05T07:18:28.604253 #2950385]  INFO -- :   Rendered layout layouts/application.html.erb (Duration: 0.6ms | Allocations: 298)
I, [2023-05-05T07:18:28.604428 #2950385]  INFO -- : Completed 200 OK in 1ms (Views: 0.9ms | Allocations: 515)
I, [2023-05-05T07:18:29.062694 #2950385]  INFO -- : Started GET "/" for 64.226.85.155 at 2023-05-05 07:18:29 +0900
I, [2023-05-05T07:18:29.063287 #2950385]  INFO -- : Processing by UserController#index as */*
I, [2023-05-05T07:18:29.063719 #2950385]  INFO -- :   Rendered user/index.html.erb within layouts/application (Duration: 0.0ms | Allocations: 4)
I, [2023-05-05T07:18:29.064331 #2950385]  INFO -- :   Rendered layout layouts/application.html.erb (Duration: 0.6ms | Allocations: 298)
I, [2023-05-05T07:18:29.064511 #2950385]  INFO -- : Completed 200 OK in 1ms (Views: 0.9ms | Allocations: 515)
I, [2023-05-05T08:09:44.231475 #2950385]  INFO -- : Started GET "/" for 23.251.102.74 at 2023-05-05 08:09:44 +0900
I, [2023-05-05T08:09:44.232302 #2950385]  INFO -- : Processing by UserController#index as */*
I, [2023-05-05T08:09:44.232747 #2950385]  INFO -- :   Rendered user/index.html.erb within layouts/application (Duration: 0.0ms | Allocations: 4)
I, [2023-05-05T08:09:44.233444 #2950385]  INFO -- :   Rendered layout layouts/application.html.erb (Duration: 0.7ms | Allocations: 299)
I, [2023-05-05T08:09:44.233623 #2950385]  INFO -- : Completed 200 OK in 1ms (Views: 1.0ms | Allocations: 522)
I, [2023-05-05T08:15:28.242569 #2950383]  INFO -- : Started GET "/.env" for 135.125.244.48 at 2023-05-05 08:15:28 +0900
I, [2023-05-05T08:15:28.243198 #2950383]  INFO -- : Processing by UserController#index as */*
I, [2023-05-05T08:15:28.243236 #2950383]  INFO -- :   Parameters: {"all"=>".env"}
I, [2023-05-05T08:15:28.243718 #2950383]  INFO -- :   Rendered user/index.html.erb within layouts/application (Duration: 0.0ms | Allocations: 4)
I, [2023-05-05T08:15:28.245214 #2950383]  INFO -- :   Rendered layout layouts/application.html.erb (Duration: 0.7ms | Allocations: 298)
I, [2023-05-05T08:15:28.245961 #2950383]  INFO -- : Completed 200 OK in 2ms (Views: 2.1ms | Allocations: 519)
I, [2023-05-05T08:15:28.773263 #2950385]  INFO -- : Started POST "/" for 135.125.244.48 at 2023-05-05 08:15:28 +0900
F, [2023-05-05T08:15:28.773717 #2950385] FATAL -- :   
ActionController::RoutingError (No route matches [POST] "/"):
  
I, [2023-05-05T08:57:39.619364 #2950383]  INFO -- : Started GET "/" for 198.235.24.213 at 2023-05-05 08:57:39 +0900
I, [2023-05-05T08:57:39.620111 #2950383]  INFO -- : Processing by UserController#index as */*
I, [2023-05-05T08:57:39.620684 #2950383]  INFO -- :   Rendered user/index.html.erb within layouts/application (Duration: 0.0ms | Allocations: 4)
I, [2023-05-05T08:57:39.621371 #2950383]  INFO -- :   Rendered layout layouts/application.html.erb (Duration: 0.7ms | Allocations: 298)
I, [2023-05-05T08:57:39.621545 #2950383]  INFO -- : Completed 200 OK in 1ms (Views: 1.0ms | Allocations: 519)
I, [2023-05-05T09:38:39.124650 #2950385]  INFO -- : Started GET "/" for 139.162.84.205 at 2023-05-05 09:38:39 +0900
I, [2023-05-05T09:38:39.125430 #2950385]  INFO -- : Processing by UserController#index as */*
I, [2023-05-05T09:38:39.125881 #2950385]  INFO -- :   Rendered user/index.html.erb within layouts/application (Duration: 0.0ms | Allocations: 4)
I, [2023-05-05T09:38:39.126500 #2950385]  INFO -- :   Rendered layout layouts/application.html.erb (Duration: 0.7ms | Allocations: 299)
I, [2023-05-05T09:38:39.126680 #2950385]  INFO -- : Completed 200 OK in 1ms (Views: 1.0ms | Allocations: 522)
I, [2023-05-05T10:34:37.417787 #2950383]  INFO -- : Started GET "/.env" for 135.125.244.48 at 2023-05-05 10:34:37 +0900
I, [2023-05-05T10:34:37.418367 #2950383]  INFO -- : Processing by UserController#index as */*
I, [2023-05-05T10:34:37.418406 #2950383]  INFO -- :   Parameters: {"all"=>".env"}
I, [2023-05-05T10:34:37.419094 #2950383]  INFO -- :   Rendered user/index.html.erb within layouts/application (Duration: 0.0ms | Allocations: 4)
I, [2023-05-05T10:34:37.419696 #2950383]  INFO -- :   Rendered layout layouts/application.html.erb (Duration: 0.7ms | Allocations: 298)
I, [2023-05-05T10:34:37.419885 #2950383]  INFO -- : Completed 200 OK in 1ms (Views: 1.0ms | Allocations: 520)
I, [2023-05-05T10:34:37.922312 #2950385]  INFO -- : Started POST "/" for 135.125.244.48 at 2023-05-05 10:34:37 +0900
F, [2023-05-05T10:34:37.922807 #2950385] FATAL -- :   
ActionController::RoutingError (No route matches [POST] "/"):
  
I, [2023-05-05T11:02:08.459467 #2950385]  INFO -- : Started GET "/.env" for 165.227.82.200 at 2023-05-05 11:02:08 +0900
I, [2023-05-05T11:02:08.460218 #2950385]  INFO -- : Processing by UserController#index as */*
I, [2023-05-05T11:02:08.460265 #2950385]  INFO -- :   Parameters: {"all"=>".env"}
I, [2023-05-05T11:02:08.460688 #2950385]  INFO -- :   Rendered user/index.html.erb within layouts/application (Duration: 0.0ms | Allocations: 4)
I, [2023-05-05T11:02:08.461460 #2950385]  INFO -- :   Rendered layout layouts/application.html.erb (Duration: 0.8ms | Allocations: 299)
I, [2023-05-05T11:02:08.461645 #2950385]  INFO -- : Completed 200 OK in 1ms (Views: 1.1ms | Allocations: 521)
I, [2023-05-05T11:02:08.802326 #2950383]  INFO -- : Started POST "/" for 165.227.82.200 at 2023-05-05 11:02:08 +0900
F, [2023-05-05T11:02:08.802749 #2950383] FATAL -- :   
ActionController::RoutingError (No route matches [POST] "/"):
  
I, [2023-05-05T11:42:03.951950 #2950385]  INFO -- : Started GET "/" for 35.195.93.98 at 2023-05-05 11:42:03 +0900
I, [2023-05-05T11:42:03.952726 #2950385]  INFO -- : Processing by UserController#index as */*
I, [2023-05-05T11:42:03.953547 #2950385]  INFO -- :   Rendered user/index.html.erb within layouts/application (Duration: 0.0ms | Allocations: 4)
I, [2023-05-05T11:42:03.954937 #2950385]  INFO -- :   Rendered layout layouts/application.html.erb (Duration: 1.4ms | Allocations: 299)
I, [2023-05-05T11:42:03.955373 #2950385]  INFO -- : Completed 200 OK in 3ms (Views: 1.9ms | Allocations: 521)
I, [2023-05-05T11:58:04.705329 #2950383]  INFO -- : Started GET "/" for 47.88.94.28 at 2023-05-05 11:58:04 +0900
I, [2023-05-05T11:58:04.705925 #2950383]  INFO -- : Processing by UserController#index as */*
I, [2023-05-05T11:58:04.706377 #2950383]  INFO -- :   Rendered user/index.html.erb within layouts/application (Duration: 0.0ms | Allocations: 4)
I, [2023-05-05T11:58:04.707306 #2950383]  INFO -- :   Rendered layout layouts/application.html.erb (Duration: 1.0ms | Allocations: 298)
I, [2023-05-05T11:58:04.707477 #2950383]  INFO -- : Completed 200 OK in 1ms (Views: 1.3ms | Allocations: 519)
I, [2023-05-05T11:58:05.276001 #2950385]  INFO -- : Started GET "/Public/home/js/check.js" for 47.254.25.10 at 2023-05-05 11:58:05 +0900
I, [2023-05-05T11:58:05.276862 #2950385]  INFO -- : Processing by UserController#index as JS
I, [2023-05-05T11:58:05.276994 #2950385]  INFO -- :   Parameters: {"all"=>"Public/home/js/check"}
I, [2023-05-05T11:58:05.277573 #2950385]  INFO -- :   Rendered user/index.html.erb (Duration: 0.0ms | Allocations: 5)
I, [2023-05-05T11:58:05.277735 #2950385]  INFO -- : Completed 200 OK in 1ms (Views: 0.4ms | Allocations: 288)
I, [2023-05-05T11:58:05.852010 #2950383]  INFO -- : Started GET "/static/admin/javascript/hetong.js" for 47.88.101.3 at 2023-05-05 11:58:05 +0900
I, [2023-05-05T11:58:05.852825 #2950383]  INFO -- : Processing by UserController#index as JS
I, [2023-05-05T11:58:05.852918 #2950383]  INFO -- :   Parameters: {"all"=>"static/admin/javascript/hetong"}
I, [2023-05-05T11:58:05.853449 #2950383]  INFO -- :   Rendered user/index.html.erb (Duration: 0.0ms | Allocations: 4)
I, [2023-05-05T11:58:05.853608 #2950383]  INFO -- : Completed 200 OK in 1ms (Views: 0.4ms | Allocations: 281)
I, [2023-05-05T12:04:43.867601 #2950383]  INFO -- : Started GET "/.env" for 135.125.244.48 at 2023-05-05 12:04:43 +0900
I, [2023-05-05T12:04:43.868213 #2950383]  INFO -- : Processing by UserController#index as */*
I, [2023-05-05T12:04:43.868252 #2950383]  INFO -- :   Parameters: {"all"=>".env"}
I, [2023-05-05T12:04:43.868667 #2950383]  INFO -- :   Rendered user/index.html.erb within layouts/application (Duration: 0.0ms | Allocations: 4)
I, [2023-05-05T12:04:43.869469 #2950383]  INFO -- :   Rendered layout layouts/application.html.erb (Duration: 0.8ms | Allocations: 298)
I, [2023-05-05T12:04:43.869642 #2950383]  INFO -- : Completed 200 OK in 1ms (Views: 1.1ms | Allocations: 519)
I, [2023-05-05T12:04:44.387756 #2950383]  INFO -- : Started POST "/" for 135.125.244.48 at 2023-05-05 12:04:44 +0900
F, [2023-05-05T12:04:44.388100 #2950383] FATAL -- :   
ActionController::RoutingError (No route matches [POST] "/"):
  
I, [2023-05-05T12:04:58.267152 #2950383]  INFO -- : Started GET "/.env" for 20.97.239.180 at 2023-05-05 12:04:58 +0900
I, [2023-05-05T12:04:58.267853 #2950383]  INFO -- : Processing by UserController#index as */*
I, [2023-05-05T12:04:58.267901 #2950383]  INFO -- :   Parameters: {"all"=>".env"}
I, [2023-05-05T12:04:58.268332 #2950383]  INFO -- :   Rendered user/index.html.erb within layouts/application (Duration: 0.0ms | Allocations: 4)
I, [2023-05-05T12:04:58.269413 #2950383]  INFO -- :   Rendered layout layouts/application.html.erb (Duration: 1.1ms | Allocations: 298)
I, [2023-05-05T12:04:58.269593 #2950383]  INFO -- : Completed 200 OK in 2ms (Views: 1.4ms | Allocations: 519)
I, [2023-05-05T12:04:58.587673 #2950385]  INFO -- : Started POST "/" for 20.97.239.180 at 2023-05-05 12:04:58 +0900
F, [2023-05-05T12:04:58.588012 #2950385] FATAL -- :   
ActionController::RoutingError (No route matches [POST] "/"):
  
I, [2023-05-05T12:13:15.500680 #2950385]  INFO -- : Started GET "/.env" for 13.84.202.16 at 2023-05-05 12:13:15 +0900
I, [2023-05-05T12:13:15.501455 #2950385]  INFO -- : Processing by UserController#index as */*
I, [2023-05-05T12:13:15.501513 #2950385]  INFO -- :   Parameters: {"all"=>".env"}
I, [2023-05-05T12:13:15.502040 #2950385]  INFO -- :   Rendered user/index.html.erb within layouts/application (Duration: 0.0ms | Allocations: 4)
I, [2023-05-05T12:13:15.507811 #2950385]  INFO -- :   Rendered layout layouts/application.html.erb (Duration: 5.8ms | Allocations: 299)
I, [2023-05-05T12:13:15.508080 #2950385]  INFO -- : Completed 200 OK in 7ms (Views: 6.2ms | Allocations: 521)
I, [2023-05-05T12:13:15.808855 #2950385]  INFO -- : Started POST "/" for 13.84.202.16 at 2023-05-05 12:13:15 +0900
F, [2023-05-05T12:13:15.812700 #2950385] FATAL -- :   
ActionController::RoutingError (No route matches [POST] "/"):
  
I, [2023-05-05T12:29:09.379722 #2950383]  INFO -- : Started GET "/.env" for 135.125.244.48 at 2023-05-05 12:29:09 +0900
I, [2023-05-05T12:29:09.382058 #2950383]  INFO -- : Processing by UserController#index as */*
I, [2023-05-05T12:29:09.382123 #2950383]  INFO -- :   Parameters: {"all"=>".env"}
I, [2023-05-05T12:29:09.384320 #2950383]  INFO -- :   Rendered user/index.html.erb within layouts/application (Duration: 0.0ms | Allocations: 4)
I, [2023-05-05T12:29:09.386573 #2950383]  INFO -- :   Rendered layout layouts/application.html.erb (Duration: 2.3ms | Allocations: 298)
I, [2023-05-05T12:29:09.386789 #2950383]  INFO -- : Completed 200 OK in 5ms (Views: 2.8ms | Allocations: 519)
I, [2023-05-05T12:29:09.891754 #2950383]  INFO -- : Started POST "/" for 135.125.244.48 at 2023-05-05 12:29:09 +0900
F, [2023-05-05T12:29:09.892109 #2950383] FATAL -- :   
ActionController::RoutingError (No route matches [POST] "/"):
  
I, [2023-05-05T12:37:52.034373 #2950385]  INFO -- : Started GET "/" for 198.235.24.6 at 2023-05-05 12:37:52 +0900
I, [2023-05-05T12:37:52.035268 #2950385]  INFO -- : Processing by UserController#index as HTML
I, [2023-05-05T12:37:52.035710 #2950385]  INFO -- :   Rendered user/index.html.erb within layouts/application (Duration: 0.0ms | Allocations: 4)
I, [2023-05-05T12:37:52.036638 #2950385]  INFO -- :   Rendered layout layouts/application.html.erb (Duration: 1.0ms | Allocations: 299)
I, [2023-05-05T12:37:52.036907 #2950385]  INFO -- : Completed 200 OK in 2ms (Views: 1.2ms | Allocations: 513)
I, [2023-05-05T12:55:45.864286 #2950383]  INFO -- : Started GET "/" for 8.219.5.31 at 2023-05-05 12:55:45 +0900
I, [2023-05-05T12:55:45.864873 #2950383]  INFO -- : Processing by UserController#index as HTML
I, [2023-05-05T12:55:45.865364 #2950383]  INFO -- :   Rendered user/index.html.erb within layouts/application (Duration: 0.0ms | Allocations: 4)
I, [2023-05-05T12:55:45.865962 #2950383]  INFO -- :   Rendered layout layouts/application.html.erb (Duration: 0.6ms | Allocations: 298)
I, [2023-05-05T12:55:45.866117 #2950383]  INFO -- : Completed 200 OK in 1ms (Views: 0.9ms | Allocations: 512)
I, [2023-05-05T12:55:46.876022 #2950383]  INFO -- : Started GET "/sitemap.xml" for 8.219.5.31 at 2023-05-05 12:55:46 +0900
I, [2023-05-05T12:55:46.876598 #2950383]  INFO -- : Processing by UserController#index as XML
I, [2023-05-05T12:55:46.876636 #2950383]  INFO -- :   Parameters: {"all"=>"sitemap"}
I, [2023-05-05T12:55:46.879019 #2950383]  INFO -- : Completed 406 Not Acceptable in 2ms (Allocations: 834)
F, [2023-05-05T12:55:46.879592 #2950383] FATAL -- :   
ActionController::UnknownFormat (UserController#index is missing a template for this request format and variant.

request.formats: ["application/xml"]
request.variant: []):
  
actionpack (6.1.4.4) lib/action_controller/metal/implicit_render.rb:42:in `default_render'
actionpack (6.1.4.4) lib/action_controller/metal/basic_implicit_render.rb:6:in `block in send_action'
<internal:kernel>:90:in `tap'
actionpack (6.1.4.4) lib/action_controller/metal/basic_implicit_render.rb:6:in `send_action'
actionpack (6.1.4.4) lib/abstract_controller/base.rb:228:in `process_action'
actionpack (6.1.4.4) lib/action_controller/metal/rendering.rb:30:in `process_action'
actionpack (6.1.4.4) lib/abstract_controller/callbacks.rb:42:in `block in process_action'
activesupport (6.1.4.4) lib/active_support/callbacks.rb:117:in `block in run_callbacks'
actiontext (6.1.4.4) lib/action_text/rendering.rb:20:in `with_renderer'
actiontext (6.1.4.4) lib/action_text/engine.rb:59:in `block (4 levels) in <class:Engine>'
activesupport (6.1.4.4) lib/active_support/callbacks.rb:126:in `instance_exec'
activesupport (6.1.4.4) lib/active_support/callbacks.rb:126:in `block in run_callbacks'
activesupport (6.1.4.4) lib/active_support/callbacks.rb:137:in `run_callbacks'
actionpack (6.1.4.4) lib/abstract_controller/callbacks.rb:41:in `process_action'
actionpack (6.1.4.4) lib/action_controller/metal/rescue.rb:22:in `process_action'
actionpack (6.1.4.4) lib/action_controller/metal/instrumentation.rb:34:in `block in process_action'
activesupport (6.1.4.4) lib/active_support/notifications.rb:203:in `block in instrument'
activesupport (6.1.4.4) lib/active_support/notifications/instrumenter.rb:24:in `instrument'
activesupport (6.1.4.4) lib/active_support/notifications.rb:203:in `instrument'
actionpack (6.1.4.4) lib/action_controller/metal/instrumentation.rb:33:in `process_action'
actionpack (6.1.4.4) lib/action_controller/metal/params_wrapper.rb:249:in `process_action'
activerecord (6.1.4.4) lib/active_record/railties/controller_runtime.rb:27:in `process_action'
actionpack (6.1.4.4) lib/abstract_controller/base.rb:165:in `process'
actionview (6.1.4.4) lib/action_view/rendering.rb:39:in `process'
actionpack (6.1.4.4) lib/action_controller/metal.rb:190:in `dispatch'
actionpack (6.1.4.4) lib/action_controller/metal.rb:254:in `dispatch'
actionpack (6.1.4.4) lib/action_dispatch/routing/route_set.rb:50:in `dispatch'
actionpack (6.1.4.4) lib/action_dispatch/routing/route_set.rb:33:in `serve'
actionpack (6.1.4.4) lib/action_dispatch/journey/router.rb:50:in `block in serve'
actionpack (6.1.4.4) lib/action_dispatch/journey/router.rb:32:in `each'
actionpack (6.1.4.4) lib/action_dispatch/journey/router.rb:32:in `serve'
actionpack (6.1.4.4) lib/action_dispatch/routing/route_set.rb:842:in `call'
rack (2.2.3) lib/rack/tempfile_reaper.rb:15:in `call'
rack (2.2.3) lib/rack/etag.rb:27:in `call'
rack (2.2.3) lib/rack/conditional_get.rb:27:in `call'
rack (2.2.3) lib/rack/head.rb:12:in `call'
actionpack (6.1.4.4) lib/action_dispatch/http/permissions_policy.rb:22:in `call'
actionpack (6.1.4.4) lib/action_dispatch/http/content_security_policy.rb:18:in `call'
rack (2.2.3) lib/rack/session/abstract/id.rb:266:in `context'
rack (2.2.3) lib/rack/session/abstract/id.rb:260:in `call'
actionpack (6.1.4.4) lib/action_dispatch/middleware/cookies.rb:689:in `call'
actionpack (6.1.4.4) lib/action_dispatch/middleware/callbacks.rb:27:in `block in call'
activesupport (6.1.4.4) lib/active_support/callbacks.rb:98:in `run_callbacks'
actionpack (6.1.4.4) lib/action_dispatch/middleware/callbacks.rb:26:in `call'
actionpack (6.1.4.4) lib/action_dispatch/middleware/actionable_exceptions.rb:18:in `call'
actionpack (6.1.4.4) lib/action_dispatch/middleware/debug_exceptions.rb:29:in `call'
actionpack (6.1.4.4) lib/action_dispatch/middleware/show_exceptions.rb:33:in `call'
railties (6.1.4.4) lib/rails/rack/logger.rb:37:in `call_app'
railties (6.1.4.4) lib/rails/rack/logger.rb:28:in `call'
actionpack (6.1.4.4) lib/action_dispatch/middleware/remote_ip.rb:81:in `call'
actionpack (6.1.4.4) lib/action_dispatch/middleware/request_id.rb:26:in `call'
rack (2.2.3) lib/rack/method_override.rb:24:in `call'
rack (2.2.3) lib/rack/runtime.rb:22:in `call'
activesupport (6.1.4.4) lib/active_support/cache/strategy/local_cache_middleware.rb:29:in `call'
actionpack (6.1.4.4) lib/action_dispatch/middleware/executor.rb:14:in `call'
rack (2.2.3) lib/rack/sendfile.rb:110:in `call'
actionpack (6.1.4.4) lib/action_dispatch/middleware/host_authorization.rb:113:in `call'
railties (6.1.4.4) lib/rails/engine.rb:539:in `call'
puma (5.6.5) lib/puma/configuration.rb:252:in `call'
puma (5.6.5) lib/puma/request.rb:77:in `block in handle_request'
puma (5.6.5) lib/puma/thread_pool.rb:340:in `with_force_shutdown'
puma (5.6.5) lib/puma/request.rb:76:in `handle_request'
puma (5.6.5) lib/puma/server.rb:443:in `process_client'
puma (5.6.5) lib/puma/thread_pool.rb:147:in `block in spawn_thread'
I, [2023-05-05T12:57:10.752028 #2950383]  INFO -- : Started GET "/" for 205.210.31.136 at 2023-05-05 12:57:10 +0900
I, [2023-05-05T12:57:10.752742 #2950383]  INFO -- : Processing by UserController#index as */*
I, [2023-05-05T12:57:10.753275 #2950383]  INFO -- :   Rendered user/index.html.erb within layouts/application (Duration: 0.0ms | Allocations: 4)
I, [2023-05-05T12:57:10.753899 #2950383]  INFO -- :   Rendered layout layouts/application.html.erb (Duration: 0.7ms | Allocations: 298)
I, [2023-05-05T12:57:10.754068 #2950383]  INFO -- : Completed 200 OK in 1ms (Views: 1.0ms | Allocations: 519)
I, [2023-05-05T13:03:06.287032 #2950385]  INFO -- : Started GET "/" for 161.35.68.77 at 2023-05-05 13:03:06 +0900
I, [2023-05-05T13:03:06.287617 #2950385]  INFO -- : Processing by UserController#index as */*
I, [2023-05-05T13:03:06.288212 #2950385]  INFO -- :   Rendered user/index.html.erb within layouts/application (Duration: 0.0ms | Allocations: 4)
I, [2023-05-05T13:03:06.288826 #2950385]  INFO -- :   Rendered layout layouts/application.html.erb (Duration: 0.7ms | Allocations: 299)
I, [2023-05-05T13:03:06.289894 #2950385]  INFO -- : Completed 200 OK in 2ms (Views: 1.8ms | Allocations: 521)
I, [2023-05-05T13:03:06.746473 #2950383]  INFO -- : Started GET "/client/get_targets" for 161.35.68.77 at 2023-05-05 13:03:06 +0900
I, [2023-05-05T13:03:06.747077 #2950383]  INFO -- : Processing by UserController#index as */*
I, [2023-05-05T13:03:06.747114 #2950383]  INFO -- :   Parameters: {"all"=>"client/get_targets"}
I, [2023-05-05T13:03:06.747545 #2950383]  INFO -- :   Rendered user/index.html.erb within layouts/application (Duration: 0.0ms | Allocations: 4)
I, [2023-05-05T13:03:06.748127 #2950383]  INFO -- :   Rendered layout layouts/application.html.erb (Duration: 0.6ms | Allocations: 298)
I, [2023-05-05T13:03:06.748504 #2950383]  INFO -- : Completed 200 OK in 1ms (Views: 1.1ms | Allocations: 519)
I, [2023-05-05T13:03:07.220012 #2950385]  INFO -- : Started GET "/upl.php" for 161.35.68.77 at 2023-05-05 13:03:07 +0900
I, [2023-05-05T13:03:07.220582 #2950385]  INFO -- : Processing by UserController#index as */*
I, [2023-05-05T13:03:07.220622 #2950385]  INFO -- :   Parameters: {"all"=>"upl"}
I, [2023-05-05T13:03:07.221076 #2950385]  INFO -- :   Rendered user/index.html.erb within layouts/application (Duration: 0.0ms | Allocations: 4)
I, [2023-05-05T13:03:07.221696 #2950385]  INFO -- :   Rendered layout layouts/application.html.erb (Duration: 0.7ms | Allocations: 298)
I, [2023-05-05T13:03:07.221849 #2950385]  INFO -- : Completed 200 OK in 1ms (Views: 1.0ms | Allocations: 507)
I, [2023-05-05T13:03:08.112108 #2950383]  INFO -- : Started GET "/geoip/" for 161.35.68.77 at 2023-05-05 13:03:08 +0900
I, [2023-05-05T13:03:08.112714 #2950383]  INFO -- : Processing by UserController#index as */*
I, [2023-05-05T13:03:08.112758 #2950383]  INFO -- :   Parameters: {"all"=>"geoip"}
I, [2023-05-05T13:03:08.115569 #2950383]  INFO -- :   Rendered user/index.html.erb within layouts/application (Duration: 0.0ms | Allocations: 4)
I, [2023-05-05T13:03:08.117219 #2950383]  INFO -- :   Rendered layout layouts/application.html.erb (Duration: 1.7ms | Allocations: 297)
I, [2023-05-05T13:03:08.117788 #2950383]  INFO -- : Completed 200 OK in 5ms (Views: 4.4ms | Allocations: 513)
I, [2023-05-05T13:03:08.573980 #2950383]  INFO -- : Started GET "/" for 161.35.68.77 at 2023-05-05 13:03:08 +0900
I, [2023-05-05T13:03:08.574568 #2950383]  INFO -- : Processing by UserController#index as */*
I, [2023-05-05T13:03:08.575012 #2950383]  INFO -- :   Rendered user/index.html.erb within layouts/application (Duration: 0.0ms | Allocations: 4)
I, [2023-05-05T13:03:08.575624 #2950383]  INFO -- :   Rendered layout layouts/application.html.erb (Duration: 0.7ms | Allocations: 297)
I, [2023-05-05T13:03:08.576532 #2950383]  INFO -- : Completed 200 OK in 2ms (Views: 0.9ms | Allocations: 513)
I, [2023-05-05T13:03:10.628283 #2950383]  INFO -- : Started GET "/" for 124.156.223.97 at 2023-05-05 13:03:10 +0900
I, [2023-05-05T13:03:10.628979 #2950383]  INFO -- : Processing by UserController#index as */*
I, [2023-05-05T13:03:10.629636 #2950383]  INFO -- :   Rendered user/index.html.erb within layouts/application (Duration: 0.0ms | Allocations: 4)
I, [2023-05-05T13:03:10.630503 #2950383]  INFO -- :   Rendered layout layouts/application.html.erb (Duration: 0.9ms | Allocations: 297)
I, [2023-05-05T13:03:10.630771 #2950383]  INFO -- : Completed 200 OK in 2ms (Views: 1.2ms | Allocations: 513)
I, [2023-05-05T13:23:03.445086 #2950385]  INFO -- : Started GET "/.env" for 185.254.196.173 at 2023-05-05 13:23:03 +0900
I, [2023-05-05T13:23:03.445844 #2950385]  INFO -- : Processing by UserController#index as */*
I, [2023-05-05T13:23:03.445886 #2950385]  INFO -- :   Parameters: {"all"=>".env"}
I, [2023-05-05T13:23:03.446319 #2950385]  INFO -- :   Rendered user/index.html.erb within layouts/application (Duration: 0.0ms | Allocations: 4)
I, [2023-05-05T13:23:03.447197 #2950385]  INFO -- :   Rendered layout layouts/application.html.erb (Duration: 0.9ms | Allocations: 299)
I, [2023-05-05T13:23:03.447401 #2950385]  INFO -- : Completed 200 OK in 1ms (Views: 1.2ms | Allocations: 521)
I, [2023-05-05T13:23:04.016914 #2950383]  INFO -- : Started POST "/" for 185.254.196.173 at 2023-05-05 13:23:04 +0900
F, [2023-05-05T13:23:04.017489 #2950383] FATAL -- :   
ActionController::RoutingError (No route matches [POST] "/"):
  
I, [2023-05-05T13:39:33.684177 #2950385]  INFO -- : Started GET "/" for 139.162.84.205 at 2023-05-05 13:39:33 +0900
I, [2023-05-05T13:39:33.684777 #2950385]  INFO -- : Processing by UserController#index as */*
I, [2023-05-05T13:39:33.685333 #2950385]  INFO -- :   Rendered user/index.html.erb within layouts/application (Duration: 0.0ms | Allocations: 4)
I, [2023-05-05T13:39:33.687311 #2950385]  INFO -- :   Rendered layout layouts/application.html.erb (Duration: 2.0ms | Allocations: 299)
I, [2023-05-05T13:39:33.687518 #2950385]  INFO -- : Completed 200 OK in 3ms (Views: 2.4ms | Allocations: 521)
I, [2023-05-05T14:19:25.716725 #2950383]  INFO -- : Started GET "/" for 162.142.125.13 at 2023-05-05 14:19:25 +0900
I, [2023-05-05T14:19:25.717365 #2950383]  INFO -- : Processing by UserController#index as HTML
I, [2023-05-05T14:19:25.718032 #2950383]  INFO -- :   Rendered user/index.html.erb within layouts/application (Duration: 0.0ms | Allocations: 4)
I, [2023-05-05T14:19:25.718647 #2950383]  INFO -- :   Rendered layout layouts/application.html.erb (Duration: 0.7ms | Allocations: 298)
I, [2023-05-05T14:19:25.718805 #2950383]  INFO -- : Completed 200 OK in 1ms (Views: 1.2ms | Allocations: 512)
I, [2023-05-05T14:19:25.977025 #2950383]  INFO -- : Started GET "/" for 162.142.125.13 at 2023-05-05 14:19:25 +0900
I, [2023-05-05T14:19:25.977953 #2950383]  INFO -- : Processing by UserController#index as */*
I, [2023-05-05T14:19:25.978659 #2950383]  INFO -- :   Rendered user/index.html.erb within layouts/application (Duration: 0.0ms | Allocations: 4)
I, [2023-05-05T14:19:25.979442 #2950383]  INFO -- :   Rendered layout layouts/application.html.erb (Duration: 0.8ms | Allocations: 297)
I, [2023-05-05T14:19:25.979620 #2950383]  INFO -- : Completed 200 OK in 2ms (Views: 1.4ms | Allocations: 513)
I, [2023-05-05T14:39:55.805558 #2950385]  INFO -- : Started POST "/boaform/admin/formLogin" for 194.55.224.203 at 2023-05-05 14:39:55 +0900
F, [2023-05-05T14:39:55.805955 #2950385] FATAL -- :   
ActionController::RoutingError (No route matches [POST] "/boaform/admin/formLogin"):
  
I, [2023-05-05T14:40:40.031781 #2950383]  INFO -- : Started GET "/.env" for 135.125.244.48 at 2023-05-05 14:40:40 +0900
I, [2023-05-05T14:40:40.032485 #2950383]  INFO -- : Processing by UserController#index as */*
I, [2023-05-05T14:40:40.032532 #2950383]  INFO -- :   Parameters: {"all"=>".env"}
I, [2023-05-05T14:40:40.033107 #2950383]  INFO -- :   Rendered user/index.html.erb within layouts/application (Duration: 0.0ms | Allocations: 4)
I, [2023-05-05T14:40:40.033838 #2950383]  INFO -- :   Rendered layout layouts/application.html.erb (Duration: 0.8ms | Allocations: 298)
I, [2023-05-05T14:40:40.034011 #2950383]  INFO -- : Completed 200 OK in 1ms (Views: 1.1ms | Allocations: 519)
I, [2023-05-05T14:40:40.553545 #2950385]  INFO -- : Started POST "/" for 135.125.244.48 at 2023-05-05 14:40:40 +0900
F, [2023-05-05T14:40:40.554005 #2950385] FATAL -- :   
ActionController::RoutingError (No route matches [POST] "/"):
  
I, [2023-05-05T14:47:40.486923 #2950385]  INFO -- : Started GET "/.env" for 185.254.196.186 at 2023-05-05 14:47:40 +0900
I, [2023-05-05T14:47:40.487531 #2950385]  INFO -- : Processing by UserController#index as */*
I, [2023-05-05T14:47:40.487569 #2950385]  INFO -- :   Parameters: {"all"=>".env"}
I, [2023-05-05T14:47:40.488094 #2950385]  INFO -- :   Rendered user/index.html.erb within layouts/application (Duration: 0.0ms | Allocations: 4)
I, [2023-05-05T14:47:40.488792 #2950385]  INFO -- :   Rendered layout layouts/application.html.erb (Duration: 0.7ms | Allocations: 299)
I, [2023-05-05T14:47:40.489090 #2950385]  INFO -- : Completed 200 OK in 1ms (Views: 1.1ms | Allocations: 521)
I, [2023-05-05T14:47:42.313528 #2950383]  INFO -- : Started POST "/" for 185.254.196.186 at 2023-05-05 14:47:42 +0900
F, [2023-05-05T14:47:42.313872 #2950383] FATAL -- :   
ActionController::RoutingError (No route matches [POST] "/"):
  
I, [2023-05-05T14:52:33.583955 #2950385]  INFO -- : Started HEAD "/" for 159.65.62.45 at 2023-05-05 14:52:33 +0900
I, [2023-05-05T14:52:33.585017 #2950385]  INFO -- : Processing by UserController#index as */*
I, [2023-05-05T14:52:33.585791 #2950385]  INFO -- :   Rendered user/index.html.erb within layouts/application (Duration: 0.0ms | Allocations: 4)
I, [2023-05-05T14:52:33.589224 #2950385]  INFO -- :   Rendered layout layouts/application.html.erb (Duration: 3.5ms | Allocations: 299)
I, [2023-05-05T14:52:33.589420 #2950385]  INFO -- : Completed 200 OK in 4ms (Views: 4.0ms | Allocations: 512)
I, [2023-05-05T14:56:19.691841 #2950383]  INFO -- : Started POST "/boaform/admin/formLogin" for 87.121.221.49 at 2023-05-05 14:56:19 +0900
F, [2023-05-05T14:56:19.692312 #2950383] FATAL -- :   
ActionController::RoutingError (No route matches [POST] "/boaform/admin/formLogin"):
  
I, [2023-05-05T14:59:45.545879 #2950385]  INFO -- : Started GET "/" for 193.232.162.12 at 2023-05-05 14:59:45 +0900
I, [2023-05-05T14:59:45.546533 #2950385]  INFO -- : Processing by UserController#index as HTML
I, [2023-05-05T14:59:45.546974 #2950385]  INFO -- :   Rendered user/index.html.erb within layouts/application (Duration: 0.0ms | Allocations: 4)
I, [2023-05-05T14:59:45.547585 #2950385]  INFO -- :   Rendered layout layouts/application.html.erb (Duration: 0.7ms | Allocations: 299)
I, [2023-05-05T14:59:45.547740 #2950385]  INFO -- : Completed 200 OK in 1ms (Views: 0.9ms | Allocations: 513)
I, [2023-05-05T15:37:57.277371 #2950383]  INFO -- : Started GET "/aaa9" for 170.64.166.144 at 2023-05-05 15:37:57 +0900
I, [2023-05-05T15:37:57.278069 #2950383]  INFO -- : Processing by UserController#index as */*
I, [2023-05-05T15:37:57.278116 #2950383]  INFO -- :   Parameters: {"all"=>"aaa9"}
I, [2023-05-05T15:37:57.278627 #2950383]  INFO -- :   Rendered user/index.html.erb within layouts/application (Duration: 0.0ms | Allocations: 4)
I, [2023-05-05T15:37:57.279326 #2950383]  INFO -- :   Rendered layout layouts/application.html.erb (Duration: 0.8ms | Allocations: 298)
I, [2023-05-05T15:37:57.279498 #2950383]  INFO -- : Completed 200 OK in 1ms (Views: 1.1ms | Allocations: 519)
I, [2023-05-05T15:38:17.798986 #2950385]  INFO -- : Started GET "/aab8" for 170.64.166.144 at 2023-05-05 15:38:17 +0900
I, [2023-05-05T15:38:17.799649 #2950385]  INFO -- : Processing by UserController#index as */*
I, [2023-05-05T15:38:17.799693 #2950385]  INFO -- :   Parameters: {"all"=>"aab8"}
I, [2023-05-05T15:38:17.800280 #2950385]  INFO -- :   Rendered user/index.html.erb within layouts/application (Duration: 0.0ms | Allocations: 4)
I, [2023-05-05T15:38:17.801391 #2950385]  INFO -- :   Rendered layout layouts/application.html.erb (Duration: 1.2ms | Allocations: 299)
I, [2023-05-05T15:38:17.801681 #2950385]  INFO -- : Completed 200 OK in 2ms (Views: 1.6ms | Allocations: 521)
I, [2023-05-05T15:38:30.313216 #2950383]  INFO -- : Started GET "/" for 170.64.166.144 at 2023-05-05 15:38:30 +0900
I, [2023-05-05T15:38:30.314050 #2950383]  INFO -- : Processing by UserController#index as */*
I, [2023-05-05T15:38:30.314684 #2950383]  INFO -- :   Rendered user/index.html.erb within layouts/application (Duration: 0.0ms | Allocations: 4)
I, [2023-05-05T15:38:30.315514 #2950383]  INFO -- :   Rendered layout layouts/application.html.erb (Duration: 0.9ms | Allocations: 298)
I, [2023-05-05T15:38:30.315682 #2950383]  INFO -- : Completed 200 OK in 2ms (Views: 1.2ms | Allocations: 519)
I, [2023-05-05T16:23:14.118289 #2950385]  INFO -- : Started GET "/" for 216.218.206.66 at 2023-05-05 16:23:14 +0900
I, [2023-05-05T16:23:14.118875 #2950385]  INFO -- : Processing by UserController#index as */*
I, [2023-05-05T16:23:14.119306 #2950385]  INFO -- :   Rendered user/index.html.erb within layouts/application (Duration: 0.0ms | Allocations: 4)
I, [2023-05-05T16:23:14.119914 #2950385]  INFO -- :   Rendered layout layouts/application.html.erb (Duration: 0.6ms | Allocations: 299)
I, [2023-05-05T16:23:14.120092 #2950385]  INFO -- : Completed 200 OK in 1ms (Views: 0.9ms | Allocations: 522)
I, [2023-05-05T16:26:04.261449 #2950383]  INFO -- : Started GET "/geoserver/web/" for 216.218.206.66 at 2023-05-05 16:26:04 +0900
I, [2023-05-05T16:26:04.268315 #2950383]  INFO -- : Processing by UserController#index as */*
I, [2023-05-05T16:26:04.269694 #2950383]  INFO -- :   Parameters: {"all"=>"geoserver/web"}
I, [2023-05-05T16:26:04.271303 #2950383]  INFO -- :   Rendered user/index.html.erb within layouts/application (Duration: 0.3ms | Allocations: 4)
I, [2023-05-05T16:26:04.272914 #2950383]  INFO -- :   Rendered layout layouts/application.html.erb (Duration: 1.8ms | Allocations: 298)
I, [2023-05-05T16:26:04.273354 #2950383]  INFO -- : Completed 200 OK in 3ms (Views: 2.6ms | Allocations: 519)
I, [2023-05-05T16:26:19.359394 #2950385]  INFO -- : Started GET "/.env" for 185.254.196.173 at 2023-05-05 16:26:19 +0900
I, [2023-05-05T16:26:19.360000 #2950385]  INFO -- : Processing by UserController#index as */*
I, [2023-05-05T16:26:19.360038 #2950385]  INFO -- :   Parameters: {"all"=>".env"}
I, [2023-05-05T16:26:19.360443 #2950385]  INFO -- :   Rendered user/index.html.erb within layouts/application (Duration: 0.0ms | Allocations: 4)
I, [2023-05-05T16:26:19.361201 #2950385]  INFO -- :   Rendered layout layouts/application.html.erb (Duration: 0.8ms | Allocations: 299)
I, [2023-05-05T16:26:19.361374 #2950385]  INFO -- : Completed 200 OK in 1ms (Views: 1.1ms | Allocations: 521)
I, [2023-05-05T16:26:21.061880 #2950383]  INFO -- : Started POST "/" for 185.254.196.173 at 2023-05-05 16:26:21 +0900
F, [2023-05-05T16:26:21.062325 #2950383] FATAL -- :   
ActionController::RoutingError (No route matches [POST] "/"):
  
I, [2023-05-05T16:57:28.598335 #2950385]  INFO -- : Started GET "/aaa9" for 206.189.120.50 at 2023-05-05 16:57:28 +0900
I, [2023-05-05T16:57:28.599119 #2950385]  INFO -- : Processing by UserController#index as */*
I, [2023-05-05T16:57:28.599165 #2950385]  INFO -- :   Parameters: {"all"=>"aaa9"}
I, [2023-05-05T16:57:28.599924 #2950385]  INFO -- :   Rendered user/index.html.erb within layouts/application (Duration: 0.0ms | Allocations: 4)
I, [2023-05-05T16:57:28.600585 #2950385]  INFO -- :   Rendered layout layouts/application.html.erb (Duration: 1.0ms | Allocations: 299)
I, [2023-05-05T16:57:28.600765 #2950385]  INFO -- : Completed 200 OK in 2ms (Views: 1.3ms | Allocations: 521)
I, [2023-05-05T16:57:45.672099 #2950383]  INFO -- : Started GET "/aab8" for 206.189.120.50 at 2023-05-05 16:57:45 +0900
I, [2023-05-05T16:57:45.673109 #2950383]  INFO -- : Processing by UserController#index as */*
I, [2023-05-05T16:57:45.673160 #2950383]  INFO -- :   Parameters: {"all"=>"aab8"}
I, [2023-05-05T16:57:45.673599 #2950383]  INFO -- :   Rendered user/index.html.erb within layouts/application (Duration: 0.0ms | Allocations: 4)
I, [2023-05-05T16:57:45.677814 #2950383]  INFO -- :   Rendered layout layouts/application.html.erb (Duration: 4.3ms | Allocations: 298)
I, [2023-05-05T16:57:45.677999 #2950383]  INFO -- : Completed 200 OK in 5ms (Views: 4.6ms | Allocations: 519)
I, [2023-05-05T16:58:15.555517 #2950385]  INFO -- : Started GET "/" for 206.189.120.50 at 2023-05-05 16:58:15 +0900
I, [2023-05-05T16:58:15.556290 #2950385]  INFO -- : Processing by UserController#index as */*
I, [2023-05-05T16:58:15.556737 #2950385]  INFO -- :   Rendered user/index.html.erb within layouts/application (Duration: 0.0ms | Allocations: 4)
I, [2023-05-05T16:58:15.557422 #2950385]  INFO -- :   Rendered layout layouts/application.html.erb (Duration: 0.7ms | Allocations: 299)
I, [2023-05-05T16:58:15.557602 #2950385]  INFO -- : Completed 200 OK in 1ms (Views: 1.0ms | Allocations: 521)
I, [2023-05-05T17:04:35.568682 #2950383]  INFO -- : Started GET "/" for 64.225.74.174 at 2023-05-05 17:04:35 +0900
I, [2023-05-05T17:04:35.569795 #2950383]  INFO -- : Processing by UserController#index as */*
I, [2023-05-05T17:04:35.570253 #2950383]  INFO -- :   Rendered user/index.html.erb within layouts/application (Duration: 0.0ms | Allocations: 4)
I, [2023-05-05T17:04:35.572848 #2950383]  INFO -- :   Rendered layout layouts/application.html.erb (Duration: 2.6ms | Allocations: 298)
I, [2023-05-05T17:04:35.575103 #2950383]  INFO -- : Completed 200 OK in 5ms (Views: 5.0ms | Allocations: 520)
I, [2023-05-05T17:18:04.272208 #2950385]  INFO -- : Started GET "/" for 198.199.97.203 at 2023-05-05 17:18:04 +0900
I, [2023-05-05T17:18:04.272834 #2950385]  INFO -- : Processing by UserController#index as */*
I, [2023-05-05T17:18:04.273353 #2950385]  INFO -- :   Rendered user/index.html.erb within layouts/application (Duration: 0.0ms | Allocations: 4)
I, [2023-05-05T17:18:04.274138 #2950385]  INFO -- :   Rendered layout layouts/application.html.erb (Duration: 0.8ms | Allocations: 299)
I, [2023-05-05T17:18:04.274328 #2950385]  INFO -- : Completed 200 OK in 1ms (Views: 1.1ms | Allocations: 521)
I, [2023-05-05T17:28:38.308695 #2950383]  INFO -- : Started GET "/.env" for 135.125.217.54 at 2023-05-05 17:28:38 +0900
I, [2023-05-05T17:28:38.309509 #2950383]  INFO -- : Processing by UserController#index as */*
I, [2023-05-05T17:28:38.309556 #2950383]  INFO -- :   Parameters: {"all"=>".env"}
I, [2023-05-05T17:28:38.310162 #2950383]  INFO -- :   Rendered user/index.html.erb within layouts/application (Duration: 0.0ms | Allocations: 4)
I, [2023-05-05T17:28:38.312374 #2950383]  INFO -- :   Rendered layout layouts/application.html.erb (Duration: 2.3ms | Allocations: 298)
I, [2023-05-05T17:28:38.312570 #2950383]  INFO -- : Completed 200 OK in 3ms (Views: 2.7ms | Allocations: 519)
I, [2023-05-05T17:28:38.818449 #2950383]  INFO -- : Started POST "/" for 135.125.217.54 at 2023-05-05 17:28:38 +0900
F, [2023-05-05T17:28:38.818788 #2950383] FATAL -- :   
ActionController::RoutingError (No route matches [POST] "/"):
  
I, [2023-05-05T17:37:28.528251 #2950385]  INFO -- : Started GET "/" for 139.162.84.205 at 2023-05-05 17:37:28 +0900
I, [2023-05-05T17:37:28.528846 #2950385]  INFO -- : Processing by UserController#index as */*
I, [2023-05-05T17:37:28.529401 #2950385]  INFO -- :   Rendered user/index.html.erb within layouts/application (Duration: 0.0ms | Allocations: 4)
I, [2023-05-05T17:37:28.530640 #2950385]  INFO -- :   Rendered layout layouts/application.html.erb (Duration: 1.3ms | Allocations: 299)
I, [2023-05-05T17:37:28.530828 #2950385]  INFO -- : Completed 200 OK in 2ms (Views: 1.6ms | Allocations: 521)
I, [2023-05-05T18:14:01.095423 #2950383]  INFO -- : Started GET "/" for 181.192.28.75 at 2023-05-05 18:14:01 +0900
I, [2023-05-05T18:14:01.096090 #2950383]  INFO -- : Processing by UserController#index as HTML
I, [2023-05-05T18:14:01.096521 #2950383]  INFO -- :   Rendered user/index.html.erb within layouts/application (Duration: 0.0ms | Allocations: 4)
I, [2023-05-05T18:14:01.097263 #2950383]  INFO -- :   Rendered layout layouts/application.html.erb (Duration: 0.8ms | Allocations: 298)
I, [2023-05-05T18:14:01.097427 #2950383]  INFO -- : Completed 200 OK in 1ms (Views: 1.1ms | Allocations: 513)
I, [2023-05-05T18:27:46.008606 #2950385]  INFO -- : Started POST "/GponForm/diag_Form?images/" for 27.47.3.131 at 2023-05-05 18:27:46 +0900
F, [2023-05-05T18:27:46.009601 #2950385] FATAL -- :   
ActionController::RoutingError (No route matches [POST] "/GponForm/diag_Form"):
  
I, [2023-05-05T18:34:06.653772 #2950383]  INFO -- : Started GET "/" for 212.71.233.243 at 2023-05-05 18:34:06 +0900
I, [2023-05-05T18:34:06.655179 #2950383]  INFO -- : Processing by UserController#index as */*
I, [2023-05-05T18:34:06.656822 #2950383]  INFO -- :   Rendered user/index.html.erb within layouts/application (Duration: 0.0ms | Allocations: 4)
I, [2023-05-05T18:34:06.658695 #2950383]  INFO -- :   Rendered layout layouts/application.html.erb (Duration: 1.9ms | Allocations: 298)
I, [2023-05-05T18:34:06.659738 #2950383]  INFO -- : Completed 200 OK in 4ms (Views: 2.3ms | Allocations: 519)
I, [2023-05-05T18:49:24.082977 #2950385]  INFO -- : Started GET "/" for 170.64.190.196 at 2023-05-05 18:49:24 +0900
I, [2023-05-05T18:49:24.083570 #2950385]  INFO -- : Processing by UserController#index as */*
I, [2023-05-05T18:49:24.084105 #2950385]  INFO -- :   Rendered user/index.html.erb within layouts/application (Duration: 0.0ms | Allocations: 4)
I, [2023-05-05T18:49:24.084761 #2950385]  INFO -- :   Rendered layout layouts/application.html.erb (Duration: 0.7ms | Allocations: 299)
I, [2023-05-05T18:49:24.085192 #2950385]  INFO -- : Completed 200 OK in 1ms (Views: 1.2ms | Allocations: 521)
I, [2023-05-05T18:49:24.427034 #2950383]  INFO -- : Started GET "/client/get_targets" for 170.64.190.196 at 2023-05-05 18:49:24 +0900
I, [2023-05-05T18:49:24.427638 #2950383]  INFO -- : Processing by UserController#index as */*
I, [2023-05-05T18:49:24.427677 #2950383]  INFO -- :   Parameters: {"all"=>"client/get_targets"}
I, [2023-05-05T18:49:24.428111 #2950383]  INFO -- :   Rendered user/index.html.erb within layouts/application (Duration: 0.0ms | Allocations: 4)
I, [2023-05-05T18:49:24.428723 #2950383]  INFO -- :   Rendered layout layouts/application.html.erb (Duration: 0.7ms | Allocations: 298)
I, [2023-05-05T18:49:24.428909 #2950383]  INFO -- : Completed 200 OK in 1ms (Views: 0.9ms | Allocations: 519)
I, [2023-05-05T18:49:24.760325 #2950385]  INFO -- : Started GET "/upl.php" for 170.64.190.196 at 2023-05-05 18:49:24 +0900
I, [2023-05-05T18:49:24.761154 #2950385]  INFO -- : Processing by UserController#index as */*
I, [2023-05-05T18:49:24.761205 #2950385]  INFO -- :   Parameters: {"all"=>"upl"}
I, [2023-05-05T18:49:24.761624 #2950385]  INFO -- :   Rendered user/index.html.erb within layouts/application (Duration: 0.0ms | Allocations: 4)
I, [2023-05-05T18:49:24.762224 #2950385]  INFO -- :   Rendered layout layouts/application.html.erb (Duration: 0.6ms | Allocations: 298)
I, [2023-05-05T18:49:24.762387 #2950385]  INFO -- : Completed 200 OK in 1ms (Views: 0.9ms | Allocations: 507)
I, [2023-05-05T18:49:25.399693 #2950383]  INFO -- : Started GET "/geoip/" for 170.64.190.196 at 2023-05-05 18:49:25 +0900
I, [2023-05-05T18:49:25.400284 #2950383]  INFO -- : Processing by UserController#index as */*
I, [2023-05-05T18:49:25.400323 #2950383]  INFO -- :   Parameters: {"all"=>"geoip"}
I, [2023-05-05T18:49:25.400746 #2950383]  INFO -- :   Rendered user/index.html.erb within layouts/application (Duration: 0.0ms | Allocations: 4)
I, [2023-05-05T18:49:25.401548 #2950383]  INFO -- :   Rendered layout layouts/application.html.erb (Duration: 0.8ms | Allocations: 297)
I, [2023-05-05T18:49:25.401721 #2950383]  INFO -- : Completed 200 OK in 1ms (Views: 1.1ms | Allocations: 513)
I, [2023-05-05T18:49:25.727400 #2950385]  INFO -- : Started GET "/" for 170.64.190.196 at 2023-05-05 18:49:25 +0900
I, [2023-05-05T18:49:25.727983 #2950385]  INFO -- : Processing by UserController#index as */*
I, [2023-05-05T18:49:25.728474 #2950385]  INFO -- :   Rendered user/index.html.erb within layouts/application (Duration: 0.0ms | Allocations: 4)
I, [2023-05-05T18:49:25.729323 #2950385]  INFO -- :   Rendered layout layouts/application.html.erb (Duration: 0.9ms | Allocations: 298)
I, [2023-05-05T18:49:25.729497 #2950385]  INFO -- : Completed 200 OK in 1ms (Views: 1.3ms | Allocations: 515)
I, [2023-05-05T18:49:28.914456 #2950383]  INFO -- : Started GET "/" for 103.43.19.37 at 2023-05-05 18:49:28 +0900
I, [2023-05-05T18:49:28.915047 #2950383]  INFO -- : Processing by UserController#index as */*
I, [2023-05-05T18:49:28.915478 #2950383]  INFO -- :   Rendered user/index.html.erb within layouts/application (Duration: 0.0ms | Allocations: 4)
I, [2023-05-05T18:49:28.916090 #2950383]  INFO -- :   Rendered layout layouts/application.html.erb (Duration: 0.7ms | Allocations: 297)
I, [2023-05-05T18:49:28.916258 #2950383]  INFO -- : Completed 200 OK in 1ms (Views: 0.9ms | Allocations: 513)
I, [2023-05-05T19:03:06.863934 #2950385]  INFO -- : Started GET "/systembc/password.php" for 45.56.108.128 at 2023-05-05 19:03:06 +0900
I, [2023-05-05T19:03:06.864708 #2950385]  INFO -- : Processing by UserController#index as */*
I, [2023-05-05T19:03:06.864762 #2950385]  INFO -- :   Parameters: {"all"=>"systembc/password"}
I, [2023-05-05T19:03:06.867881 #2950385]  INFO -- :   Rendered user/index.html.erb within layouts/application (Duration: 0.0ms | Allocations: 4)
I, [2023-05-05T19:03:06.871150 #2950385]  INFO -- :   Rendered layout layouts/application.html.erb (Duration: 3.3ms | Allocations: 299)
I, [2023-05-05T19:03:06.871688 #2950385]  INFO -- : Completed 200 OK in 4ms (Views: 3.8ms | Allocations: 514)
I, [2023-05-05T19:18:06.218595 #2950383]  INFO -- : Started GET "/.env" for 135.125.217.54 at 2023-05-05 19:18:06 +0900
I, [2023-05-05T19:18:06.219390 #2950383]  INFO -- : Processing by UserController#index as */*
I, [2023-05-05T19:18:06.219440 #2950383]  INFO -- :   Parameters: {"all"=>".env"}
I, [2023-05-05T19:18:06.220165 #2950383]  INFO -- :   Rendered user/index.html.erb within layouts/application (Duration: 0.0ms | Allocations: 4)
I, [2023-05-05T19:18:06.221347 #2950383]  INFO -- :   Rendered layout layouts/application.html.erb (Duration: 0.7ms | Allocations: 298)
I, [2023-05-05T19:18:06.221728 #2950383]  INFO -- : Completed 200 OK in 2ms (Views: 1.7ms | Allocations: 519)
I, [2023-05-05T19:18:06.766921 #2950385]  INFO -- : Started POST "/" for 135.125.217.54 at 2023-05-05 19:18:06 +0900
F, [2023-05-05T19:18:06.767311 #2950385] FATAL -- :   
ActionController::RoutingError (No route matches [POST] "/"):
  
I, [2023-05-05T19:22:44.243625 #2950383]  INFO -- : Started GET "/" for 87.236.176.223 at 2023-05-05 19:22:44 +0900
I, [2023-05-05T19:22:44.244302 #2950383]  INFO -- : Processing by UserController#index as */*
I, [2023-05-05T19:22:44.244755 #2950383]  INFO -- :   Rendered user/index.html.erb within layouts/application (Duration: 0.0ms | Allocations: 4)
I, [2023-05-05T19:22:44.245642 #2950383]  INFO -- :   Rendered layout layouts/application.html.erb (Duration: 0.9ms | Allocations: 298)
I, [2023-05-05T19:22:44.245820 #2950383]  INFO -- : Completed 200 OK in 1ms (Views: 1.2ms | Allocations: 519)
I, [2023-05-05T19:39:35.448833 #2950385]  INFO -- : Started GET "/systembc/password.php" for 45.56.108.128 at 2023-05-05 19:39:35 +0900
I, [2023-05-05T19:39:35.449527 #2950385]  INFO -- : Processing by UserController#index as */*
I, [2023-05-05T19:39:35.449571 #2950385]  INFO -- :   Parameters: {"all"=>"systembc/password"}
I, [2023-05-05T19:39:35.450090 #2950385]  INFO -- :   Rendered user/index.html.erb within layouts/application (Duration: 0.0ms | Allocations: 4)
I, [2023-05-05T19:39:35.451580 #2950385]  INFO -- :   Rendered layout layouts/application.html.erb (Duration: 1.5ms | Allocations: 299)
I, [2023-05-05T19:39:35.451748 #2950385]  INFO -- : Completed 200 OK in 2ms (Views: 1.8ms | Allocations: 514)
I, [2023-05-05T20:16:39.859267 #2950383]  INFO -- : Started GET "/.env" for 135.125.217.54 at 2023-05-05 20:16:39 +0900
I, [2023-05-05T20:16:39.860041 #2950383]  INFO -- : Processing by UserController#index as */*
I, [2023-05-05T20:16:39.860085 #2950383]  INFO -- :   Parameters: {"all"=>".env"}
I, [2023-05-05T20:16:39.860597 #2950383]  INFO -- :   Rendered user/index.html.erb within layouts/application (Duration: 0.0ms | Allocations: 4)
I, [2023-05-05T20:16:39.861687 #2950383]  INFO -- :   Rendered layout layouts/application.html.erb (Duration: 1.1ms | Allocations: 298)
I, [2023-05-05T20:16:39.861922 #2950383]  INFO -- : Completed 200 OK in 2ms (Views: 1.5ms | Allocations: 519)
I, [2023-05-05T20:16:40.383011 #2950383]  INFO -- : Started POST "/" for 135.125.217.54 at 2023-05-05 20:16:40 +0900
F, [2023-05-05T20:16:40.383392 #2950383] FATAL -- :   
ActionController::RoutingError (No route matches [POST] "/"):
  
I, [2023-05-05T20:25:45.828139 #2950385]  INFO -- : Started GET "/" for 167.248.133.127 at 2023-05-05 20:25:45 +0900
I, [2023-05-05T20:25:45.828727 #2950385]  INFO -- : Processing by UserController#index as HTML
I, [2023-05-05T20:25:45.830951 #2950385]  INFO -- :   Rendered user/index.html.erb within layouts/application (Duration: 0.0ms | Allocations: 4)
I, [2023-05-05T20:25:45.831598 #2950385]  INFO -- :   Rendered layout layouts/application.html.erb (Duration: 0.7ms | Allocations: 298)
I, [2023-05-05T20:25:45.831771 #2950385]  INFO -- : Completed 200 OK in 3ms (Views: 1.0ms | Allocations: 512)
I, [2023-05-05T20:25:46.103902 #2950383]  INFO -- : Started GET "/" for 167.248.133.127 at 2023-05-05 20:25:46 +0900
I, [2023-05-05T20:25:46.104491 #2950383]  INFO -- : Processing by UserController#index as */*
I, [2023-05-05T20:25:46.104984 #2950383]  INFO -- :   Rendered user/index.html.erb within layouts/application (Duration: 0.0ms | Allocations: 4)
I, [2023-05-05T20:25:46.105682 #2950383]  INFO -- :   Rendered layout layouts/application.html.erb (Duration: 0.8ms | Allocations: 298)
I, [2023-05-05T20:25:46.106209 #2950383]  INFO -- : Completed 200 OK in 2ms (Views: 1.4ms | Allocations: 520)
I, [2023-05-05T20:54:11.765700 #2950385]  INFO -- : Started GET "/" for 35.203.210.74 at 2023-05-05 20:54:11 +0900
I, [2023-05-05T20:54:11.766270 #2950385]  INFO -- : Processing by UserController#index as HTML
I, [2023-05-05T20:54:11.766757 #2950385]  INFO -- :   Rendered user/index.html.erb within layouts/application (Duration: 0.0ms | Allocations: 4)
I, [2023-05-05T20:54:11.767694 #2950385]  INFO -- :   Rendered layout layouts/application.html.erb (Duration: 0.9ms | Allocations: 298)
I, [2023-05-05T20:54:11.767871 #2950385]  INFO -- : Completed 200 OK in 2ms (Views: 1.3ms | Allocations: 512)
I, [2023-05-05T21:10:34.292356 #2950383]  INFO -- : Started GET "/.env" for 135.125.217.54 at 2023-05-05 21:10:34 +0900
I, [2023-05-05T21:10:34.293008 #2950383]  INFO -- : Processing by UserController#index as */*
I, [2023-05-05T21:10:34.293063 #2950383]  INFO -- :   Parameters: {"all"=>".env"}
I, [2023-05-05T21:10:34.293494 #2950383]  INFO -- :   Rendered user/index.html.erb within layouts/application (Duration: 0.0ms | Allocations: 4)
I, [2023-05-05T21:10:34.294534 #2950383]  INFO -- :   Rendered layout layouts/application.html.erb (Duration: 1.1ms | Allocations: 298)
I, [2023-05-05T21:10:34.294706 #2950383]  INFO -- : Completed 200 OK in 2ms (Views: 1.4ms | Allocations: 519)
I, [2023-05-05T21:10:34.801691 #2950385]  INFO -- : Started POST "/" for 135.125.217.54 at 2023-05-05 21:10:34 +0900
F, [2023-05-05T21:10:34.802268 #2950385] FATAL -- :   
ActionController::RoutingError (No route matches [POST] "/"):
  
I, [2023-05-05T21:41:27.541739 #2950383]  INFO -- : Started GET "/" for 139.162.84.205 at 2023-05-05 21:41:27 +0900
I, [2023-05-05T21:41:27.542331 #2950383]  INFO -- : Processing by UserController#index as */*
I, [2023-05-05T21:41:27.542773 #2950383]  INFO -- :   Rendered user/index.html.erb within layouts/application (Duration: 0.0ms | Allocations: 4)
I, [2023-05-05T21:41:27.543671 #2950383]  INFO -- :   Rendered layout layouts/application.html.erb (Duration: 1.0ms | Allocations: 298)
I, [2023-05-05T21:41:27.543851 #2950383]  INFO -- : Completed 200 OK in 1ms (Views: 1.3ms | Allocations: 519)
I, [2023-05-05T21:42:52.283865 #2950385]  INFO -- : Started GET "/" for 23.251.102.74 at 2023-05-05 21:42:52 +0900
I, [2023-05-05T21:42:52.284459 #2950385]  INFO -- : Processing by UserController#index as */*
I, [2023-05-05T21:42:52.284926 #2950385]  INFO -- :   Rendered user/index.html.erb within layouts/application (Duration: 0.0ms | Allocations: 4)
I, [2023-05-05T21:42:52.285581 #2950385]  INFO -- :   Rendered layout layouts/application.html.erb (Duration: 0.7ms | Allocations: 299)
I, [2023-05-05T21:42:52.285765 #2950385]  INFO -- : Completed 200 OK in 1ms (Views: 1.0ms | Allocations: 521)
I, [2023-05-05T21:42:52.583220 #2950383]  INFO -- : Started GET "/showLogin.cc" for 23.251.102.74 at 2023-05-05 21:42:52 +0900
I, [2023-05-05T21:42:52.583832 #2950383]  INFO -- : Processing by UserController#index as */*
I, [2023-05-05T21:42:52.583873 #2950383]  INFO -- :   Parameters: {"all"=>"showLogin"}
I, [2023-05-05T21:42:52.584293 #2950383]  INFO -- :   Rendered user/index.html.erb within layouts/application (Duration: 0.0ms | Allocations: 4)
I, [2023-05-05T21:42:52.585640 #2950383]  INFO -- :   Rendered layout layouts/application.html.erb (Duration: 0.6ms | Allocations: 298)
I, [2023-05-05T21:42:52.585844 #2950383]  INFO -- : Completed 200 OK in 2ms (Views: 1.7ms | Allocations: 513)
I, [2023-05-05T21:51:36.808104 #2950383]  INFO -- : Started GET "/" for 80.72.77.81 at 2023-05-05 21:51:36 +0900
I, [2023-05-05T21:51:36.808748 #2950383]  INFO -- : Processing by UserController#index as HTML
I, [2023-05-05T21:51:36.809312 #2950383]  INFO -- :   Rendered user/index.html.erb within layouts/application (Duration: 0.0ms | Allocations: 4)
I, [2023-05-05T21:51:36.810381 #2950383]  INFO -- :   Rendered layout layouts/application.html.erb (Duration: 1.1ms | Allocations: 298)
I, [2023-05-05T21:51:36.810552 #2950383]  INFO -- : Completed 200 OK in 2ms (Views: 1.4ms | Allocations: 512)
I, [2023-05-05T22:58:10.563483 #2950385]  INFO -- : Started GET "/" for 179.43.177.243 at 2023-05-05 22:58:10 +0900
I, [2023-05-05T22:58:10.564396 #2950385]  INFO -- : Processing by UserController#index as HTML
I, [2023-05-05T22:58:10.564818 #2950385]  INFO -- :   Rendered user/index.html.erb within layouts/application (Duration: 0.0ms | Allocations: 4)
I, [2023-05-05T22:58:10.565476 #2950385]  INFO -- :   Rendered layout layouts/application.html.erb (Duration: 0.7ms | Allocations: 299)
I, [2023-05-05T22:58:10.565637 #2950385]  INFO -- : Completed 200 OK in 1ms (Views: 1.0ms | Allocations: 514)
I, [2023-05-05T23:22:57.982327 #2950383]  INFO -- : Started GET "/" for 113.43.20.193 at 2023-05-05 23:22:57 +0900
I, [2023-05-05T23:22:57.984095 #2950383]  INFO -- : Processing by UserController#index as HTML
I, [2023-05-05T23:22:57.985474 #2950383]  INFO -- :   Rendered user/index.html.erb within layouts/application (Duration: 0.0ms | Allocations: 4)
I, [2023-05-05T23:22:57.990969 #2950383]  INFO -- :   Rendered layout layouts/application.html.erb (Duration: 3.3ms | Allocations: 402)
I, [2023-05-05T23:22:57.991238 #2950383]  INFO -- : Completed 200 OK in 7ms (Views: 6.8ms | Allocations: 616)
I, [2023-05-05T23:22:58.157549 #2950383]  INFO -- : Started POST "/graphql" for 113.43.20.193 at 2023-05-05 23:22:58 +0900
I, [2023-05-05T23:22:58.159579 #2950383]  INFO -- : Processing by GraphqlController#execute as */*
I, [2023-05-05T23:22:58.159660 #2950383]  INFO -- :   Parameters: {"operationName"=>"currentUser", "variables"=>{}, "query"=>"query currentUser {\n  currentUser {\n    ...userFragment\n    __typename\n  }\n}\n\nfragment userFragment on User {\n  id\n  loginId\n  email\n  role\n  firstName\n  lastName\n  tel\n  active\n  isAssesment\n  __typename\n}\n", "graphql"=>{"operationName"=>"currentUser", "variables"=>{}, "query"=>"query currentUser {\n  currentUser {\n    ...userFragment\n    __typename\n  }\n}\n\nfragment userFragment on User {\n  id\n  loginId\n  email\n  role\n  firstName\n  lastName\n  tel\n  active\n  isAssesment\n  __typename\n}\n"}}
I, [2023-05-05T23:22:58.213918 #2950383]  INFO -- : Completed 200 OK in 54ms (Views: 0.2ms | ActiveRecord: 21.7ms | Allocations: 4702)
I, [2023-05-05T23:22:59.797474 #2950383]  INFO -- : Started POST "/graphql" for 113.43.20.193 at 2023-05-05 23:22:59 +0900
I, [2023-05-05T23:22:59.798175 #2950383]  INFO -- : Processing by GraphqlController#execute as */*
I, [2023-05-05T23:22:59.798305 #2950383]  INFO -- :   Parameters: {"operationName"=>"projects", "variables"=>{"search"=>{"orderItem"=>"id", "orderType"=>"desc"}}, "query"=>"query projects($page: Int, $perPage: Int, $search: ProjectSearch) {\n  projects(page: $page, perPage: $perPage, search: $search) {\n    projects {\n      ...projectFragment\n      building {\n        ...buildingFragment\n        __typename\n      }\n      buildingNumber {\n        ...buildingNumberFragment\n        __typename\n      }\n      room {\n        ...roomFragment\n        __typename\n      }\n      __typename\n    }\n    pagination {\n      ...paginationFragment\n      __typename\n    }\n    __typename\n  }\n}\n\nfragment projectFragment on Project {\n  id\n  yearId\n  buildingId\n  buildingNumberId\n  roomId\n  userIds\n  jkkUserId\n  assesmentUserId\n  constructionUserId\n  totalItemPrice\n  totalItemPriceRound\n  tax\n  totalPrice\n  totalPriceInput\n  name\n  status1\n  status2\n  status3\n  status4\n  status5\n  status6\n  jkkStatus1\n  jkkStatus2\n  jkkStatus3\n  jkkStatus4\n  orderNumberType\n  orderNumber\n  assessmentDate\n  assessmentUrl\n  orderDate1\n  orderMemo1\n  orderDate2\n  orderMemo2\n  orderDate3\n  orderMemo3\n  electricStartDate1\n  electricEndDate1\n  waterStartDate1\n  waterEndDate1\n  electricStartDate2\n  electricEndDate2\n  waterStartDate2\n  waterEndDate2\n  electricStartDate3\n  electricEndDate3\n  waterStartDate3\n  waterEndDate3\n  closeTypes\n  closeReason\n  isVermiculite\n  isFinishedVermiculite\n  vermiculiteDate\n  processCreatedDate\n  beforeConstructionImageDate\n  afterConstructionImageDate\n  checklistFirstDate\n  checklistLastDate\n  address\n  constructionStartDate\n  constructionEndDate\n  imageReportUrl\n  isFaq\n  isLackImage\n  isCompleteImage\n  submitDocumentDate\n  availableDate\n  livingYear\n  livingMonth\n  leaveDate\n  isManagerAsbestosDocument1\n  isManagerAsbestosDocument2\n  isManagerAsbestosDocument3\n  isOfficeworkAsbestosDocument1\n  isOfficeworkAsbestosDocument2\n  isOfficeworkAsbestosDocument3\n  remark\n  updatedItemsAt\n  editUserId\n  __typename\n}\n\nfragment buildingFragment on Building {\n  id\n  name\n  address\n  rank\n  rankText\n  mcTypeId\n  buildingTypeId\n  __typename\n}\n\nfragment buildingNumberFragment on BuildingNumber {\n  id\n  buildingId\n  name\n  position\n  __typename\n}\n\nfragment roomFragment on Room {\n  id\n  buildingNumberId\n  name\n  position\n  roomModelTypeId\n  roomLayoutId\n  __typename\n}\n\nfragment paginationFragment on Pagination {\n  resultsCount\n  totalCount\n  totalPages\n  currentPage\n  nextPage\n  previousPage\n  hasNextPage\n  hasPreviousPage\n  __typename\n}\n", "graphql"=>{"operationName"=>"projects", "variables"=>{"search"=>{"orderItem"=>"id", "orderType"=>"desc"}}, "query"=>"query projects($page: Int, $perPage: Int, $search: ProjectSearch) {\n  projects(page: $page, perPage: $perPage, search: $search) {\n    projects {\n      ...projectFragment\n      building {\n        ...buildingFragment\n        __typename\n      }\n      buildingNumber {\n        ...buildingNumberFragment\n        __typename\n      }\n      room {\n        ...roomFragment\n        __typename\n      }\n      __typename\n    }\n    pagination {\n      ...paginationFragment\n      __typename\n    }\n    __typename\n  }\n}\n\nfragment projectFragment on Project {\n  id\n  yearId\n  buildingId\n  buildingNumberId\n  roomId\n  userIds\n  jkkUserId\n  assesmentUserId\n  constructionUserId\n  totalItemPrice\n  totalItemPriceRound\n  tax\n  totalPrice\n  totalPriceInput\n  name\n  status1\n  status2\n  status3\n  status4\n  status5\n  status6\n  jkkStatus1\n  jkkStatus2\n  jkkStatus3\n  jkkStatus4\n  orderNumberType\n  orderNumber\n  assessmentDate\n  assessmentUrl\n  orderDate1\n  orderMemo1\n  orderDate2\n  orderMemo2\n  orderDate3\n  orderMemo3\n  electricStartDate1\n  electricEndDate1\n  waterStartDate1\n  waterEndDate1\n  electricStartDate2\n  electricEndDate2\n  waterStartDate2\n  waterEndDate2\n  electricStartDate3\n  electricEndDate3\n  waterStartDate3\n  waterEndDate3\n  closeTypes\n  closeReason\n  isVermiculite\n  isFinishedVermiculite\n  vermiculiteDate\n  processCreatedDate\n  beforeConstructionImageDate\n  afterConstructionImageDate\n  checklistFirstDate\n  checklistLastDate\n  address\n  constructionStartDate\n  constructionEndDate\n  imageReportUrl\n  isFaq\n  isLackImage\n  isCompleteImage\n  submitDocumentDate\n  availableDate\n  livingYear\n  livingMonth\n  leaveDate\n  isManagerAsbestosDocument1\n  isManagerAsbestosDocument2\n  isManagerAsbestosDocument3\n  isOfficeworkAsbestosDocument1\n  isOfficeworkAsbestosDocument2\n  isOfficeworkAsbestosDocument3\n  remark\n  updatedItemsAt\n  editUserId\n  __typename\n}\n\nfragment buildingFragment on Building {\n  id\n  name\n  address\n  rank\n  rankText\n  mcTypeId\n  buildingTypeId\n  __typename\n}\n\nfragment buildingNumberFragment on BuildingNumber {\n  id\n  buildingId\n  name\n  position\n  __typename\n}\n\nfragment roomFragment on Room {\n  id\n  buildingNumberId\n  name\n  position\n  roomModelTypeId\n  roomLayoutId\n  __typename\n}\n\nfragment paginationFragment on Pagination {\n  resultsCount\n  totalCount\n  totalPages\n  currentPage\n  nextPage\n  previousPage\n  hasNextPage\n  hasPreviousPage\n  __typename\n}\n"}}
I, [2023-05-05T23:22:59.834634 #2950383]  INFO -- : Completed 200 OK in 36ms (Views: 0.5ms | ActiveRecord: 4.4ms | Allocations: 7344)
I, [2023-05-05T23:41:49.893966 #2950385]  INFO -- : Started GET "/.env" for 185.254.196.173 at 2023-05-05 23:41:49 +0900
I, [2023-05-05T23:41:49.894598 #2950385]  INFO -- : Processing by UserController#index as */*
I, [2023-05-05T23:41:49.894639 #2950385]  INFO -- :   Parameters: {"all"=>".env"}
I, [2023-05-05T23:41:49.895069 #2950385]  INFO -- :   Rendered user/index.html.erb within layouts/application (Duration: 0.0ms | Allocations: 4)
I, [2023-05-05T23:41:49.895970 #2950385]  INFO -- :   Rendered layout layouts/application.html.erb (Duration: 0.9ms | Allocations: 299)
I, [2023-05-05T23:41:49.896158 #2950385]  INFO -- : Completed 200 OK in 1ms (Views: 1.2ms | Allocations: 521)
I, [2023-05-05T23:41:50.454097 #2950385]  INFO -- : Started POST "/" for 185.254.196.173 at 2023-05-05 23:41:50 +0900
F, [2023-05-05T23:41:50.454464 #2950385] FATAL -- :   
ActionController::RoutingError (No route matches [POST] "/"):
  
I, [2023-05-05T23:49:33.870658 #2950385]  INFO -- : Started GET "/.env" for 135.125.217.54 at 2023-05-05 23:49:33 +0900
I, [2023-05-05T23:49:33.871343 #2950385]  INFO -- : Processing by UserController#index as */*
I, [2023-05-05T23:49:33.871388 #2950385]  INFO -- :   Parameters: {"all"=>".env"}
I, [2023-05-05T23:49:33.871894 #2950385]  INFO -- :   Rendered user/index.html.erb within layouts/application (Duration: 0.0ms | Allocations: 4)
I, [2023-05-05T23:49:33.873522 #2950385]  INFO -- :   Rendered layout layouts/application.html.erb (Duration: 0.7ms | Allocations: 299)
I, [2023-05-05T23:49:33.873760 #2950385]  INFO -- : Completed 200 OK in 2ms (Views: 2.1ms | Allocations: 521)
I, [2023-05-05T23:49:34.383486 #2950383]  INFO -- : Started POST "/" for 135.125.217.54 at 2023-05-05 23:49:34 +0900
F, [2023-05-05T23:49:34.383827 #2950383] FATAL -- :   
ActionController::RoutingError (No route matches [POST] "/"):
  
I, [2023-05-05T23:51:43.044672 #2950385]  INFO -- : Started GET "/" for 117.196.178.28 at 2023-05-05 23:51:43 +0900
I, [2023-05-05T23:51:43.045740 #2950385]  INFO -- : Processing by UserController#index as HTML
I, [2023-05-05T23:51:43.046857 #2950385]  INFO -- :   Rendered user/index.html.erb within layouts/application (Duration: 0.0ms | Allocations: 4)
I, [2023-05-05T23:51:43.047692 #2950385]  INFO -- :   Rendered layout layouts/application.html.erb (Duration: 0.9ms | Allocations: 299)
I, [2023-05-05T23:51:43.047861 #2950385]  INFO -- : Completed 200 OK in 2ms (Views: 1.3ms | Allocations: 514)
